2023-06-13 12:37:29.0599 DESKTOP-J2IMOIE  INFO ;::1;/Authentication/Login?ReturnUrl=%2F
2023-06-13 12:54:23.7466 DESKTOP-J2IMOIE  INFO ;::1;/Authentication/Login
2023-06-13 12:54:29.5752 DESKTOP-J2IMOIE  INFO ;::1;/
2023-06-13 12:54:33.8672 DESKTOP-J2IMOIE  INFO ;::1;/Home/GetListeCentre
2023-06-13 12:54:33.8672 DESKTOP-J2IMOIE  INFO ;::1;/Home/GetListeMouvementBonEnlevement
2023-06-13 12:54:33.8672 DESKTOP-J2IMOIE  INFO ;::1;/Home/GetListeConsignationCentre
2023-06-13 12:54:33.8841 DESKTOP-J2IMOIE  INFO ;::1;/Home/GetListeTypeFiche
2023-06-13 12:54:33.8841 DESKTOP-J2IMOIE  INFO ;::1;/Home/GetListeTypeBon
2023-06-13 12:54:34.2081 DESKTOP-J2IMOIE  INFO ;::1;/Home/GetListeDotationCentre
2023-06-13 12:54:34.2971 DESKTOP-J2IMOIE  INFO ;::1;/Home/GetListeTypeFicheConsignation
2023-06-13 12:54:34.3580 DESKTOP-J2IMOIE  INFO ;::1;/Home/GetListeStockCentre
2023-06-13 12:54:34.4610 DESKTOP-J2IMOIE  INFO ;::1;/Home/GetListeTypeBonsRetour
2023-06-13 12:54:34.4950 DESKTOP-J2IMOIE  INFO ;::1;/Home/GetListeTypeSortie
2023-06-13 12:54:34.4950 DESKTOP-J2IMOIE  INFO ;::1;/Home/GetListeStockCentre
2023-06-13 12:54:45.5854 DESKTOP-J2IMOIE  INFO ;::1;/FicheVenteBouteille/Index/0
2023-06-13 12:54:50.4452 DESKTOP-J2IMOIE  INFO ;::1;/Home/GetListeMouvementBonEnlevement
2023-06-13 12:54:50.4452 DESKTOP-J2IMOIE  INFO ;::1;/Home/GetListeDotationCentre
2023-06-13 12:54:50.4702 DESKTOP-J2IMOIE  INFO ;::1;/Home/GetListeCentre
2023-06-13 12:54:50.4752 DESKTOP-J2IMOIE  INFO ;::1;/Home/GetListeStockCentre
2023-06-13 12:54:50.5262 DESKTOP-J2IMOIE  INFO ;::1;/Home/GetListeTypeFiche
2023-06-13 12:54:50.5532 DESKTOP-J2IMOIE  INFO ;::1;/Home/GetListeTypeFicheConsignation
2023-06-13 12:54:50.5532 DESKTOP-J2IMOIE  INFO ;::1;/Home/GetListeTypeBon
2023-06-13 12:54:50.5902 DESKTOP-J2IMOIE  INFO ;::1;/Home/GetListeConsignationCentre
2023-06-13 12:54:50.6972 DESKTOP-J2IMOIE  INFO ;::1;/Home/GetListeTypeBonsRetour
2023-06-13 12:54:50.8331 DESKTOP-J2IMOIE  INFO ;::1;/Home/GetListeTypeSortie
2023-06-13 12:54:50.8931 DESKTOP-J2IMOIE  INFO ;::1;/Home/GetListeStockCentre
2023-06-13 12:55:17.7657 DESKTOP-J2IMOIE  INFO ;::1;/Statistiques/Entree/0
2023-06-13 12:55:28.8901 DESKTOP-J2IMOIE  INFO ;::1;/Home/GetListeMouvementBonEnlevement
2023-06-13 12:55:28.9011 DESKTOP-J2IMOIE  INFO ;::1;/Home/GetListeCentre
2023-06-13 12:55:28.9131 DESKTOP-J2IMOIE  INFO ;::1;/Home/GetListeConsignationCentre
2023-06-13 12:55:28.9301 DESKTOP-J2IMOIE  INFO ;::1;/Home/GetListeDotationCentre
2023-06-13 12:55:28.9301 DESKTOP-J2IMOIE  INFO ;::1;/Home/GetListeTypeFiche
2023-06-13 12:55:28.9941 DESKTOP-J2IMOIE  INFO ;::1;/Home/GetListeStockCentre
2023-06-13 12:55:29.0531 DESKTOP-J2IMOIE  INFO ;::1;/Home/GetListeTypeFicheConsignation
2023-06-13 12:55:29.0831 DESKTOP-J2IMOIE  INFO ;::1;/Home/GetListeTypeBon
2023-06-13 12:55:29.1790 DESKTOP-J2IMOIE  INFO ;::1;/Home/GetListeTypeSortie
2023-06-13 12:55:29.2710 DESKTOP-J2IMOIE  INFO ;::1;/Home/GetListeTypeBonsRetour
2023-06-13 12:55:29.3660 DESKTOP-J2IMOIE  INFO ;::1;/Home/GetListeStockCentre
2023-06-13 12:55:34.2088 DESKTOP-J2IMOIE  INFO ;::1;/Statistiques/Entree
2023-06-13 12:55:36.3003 DESKTOP-J2IMOIE  INFO ;::1;/Home/GetListeMouvementBonEnlevement
2023-06-13 12:55:36.3363 DESKTOP-J2IMOIE  INFO ;::1;/Home/GetListeConsignationCentre
2023-06-13 12:55:36.3363 DESKTOP-J2IMOIE  INFO ;::1;/Home/GetListeStockCentre
2023-06-13 12:55:36.3563 DESKTOP-J2IMOIE  INFO ;::1;/Home/GetListeTypeFiche
2023-06-13 12:55:36.3853 DESKTOP-J2IMOIE  INFO ;::1;/Home/GetListeTypeFicheConsignation
2023-06-13 12:55:36.3363 DESKTOP-J2IMOIE  INFO ;::1;/Home/GetListeDotationCentre
2023-06-13 12:55:36.4763 DESKTOP-J2IMOIE  INFO ;::1;/Home/GetListeCentre
2023-06-13 12:55:36.7382 DESKTOP-J2IMOIE  INFO ;::1;/Home/GetListeTypeBonsRetour
2023-06-13 12:55:36.7392 DESKTOP-J2IMOIE  INFO ;::1;/Home/GetListeTypeBon
2023-06-13 12:55:36.7392 DESKTOP-J2IMOIE  INFO ;::1;/Home/GetListeStockCentre
2023-06-13 12:55:36.7392 DESKTOP-J2IMOIE  INFO ;::1;/Home/GetListeTypeSortie
2023-06-13 12:56:31.8552 DESKTOP-J2IMOIE  INFO ;::1;/FicheVenteBouteille/Index/0
2023-06-13 12:56:32.2001 DESKTOP-J2IMOIE  INFO ;::1;/Home/GetListeMouvementBonEnlevement
2023-06-13 12:56:32.2241 DESKTOP-J2IMOIE  INFO ;::1;/Home/GetListeCentre
2023-06-13 12:56:32.2241 DESKTOP-J2IMOIE  INFO ;::1;/Home/GetListeConsignationCentre
2023-06-13 12:56:32.2741 DESKTOP-J2IMOIE  INFO ;::1;/Home/GetListeStockCentre
2023-06-13 12:56:32.2960 DESKTOP-J2IMOIE  INFO ;::1;/Home/GetListeTypeFiche
2023-06-13 12:56:32.3700 DESKTOP-J2IMOIE  INFO ;::1;/Home/GetListeTypeFicheConsignation
2023-06-13 12:56:32.4020 DESKTOP-J2IMOIE  INFO ;::1;/Home/GetListeTypeBon
2023-06-13 12:56:32.4440 DESKTOP-J2IMOIE  INFO ;::1;/Home/GetListeTypeSortie
2023-06-13 12:56:32.4440 DESKTOP-J2IMOIE  INFO ;::1;/Home/GetListeTypeBonsRetour
2023-06-13 12:56:32.4860 DESKTOP-J2IMOIE  INFO ;::1;/Home/GetListeStockCentre
2023-06-13 12:56:32.4360 DESKTOP-J2IMOIE  INFO ;::1;/Home/GetListeDotationCentre
2023-06-13 12:56:33.7287 DESKTOP-J2IMOIE  INFO ;::1;/FicheVenteBouteille/Details/1026
2023-06-13 12:56:34.7965 DESKTOP-J2IMOIE  INFO ;::1;/Home/GetListeMouvementBonEnlevement
2023-06-13 12:56:34.7965 DESKTOP-J2IMOIE  INFO ;::1;/Home/GetListeCentre
2023-06-13 12:56:34.8045 DESKTOP-J2IMOIE  INFO ;::1;/Home/GetListeConsignationCentre
2023-06-13 12:56:34.8045 DESKTOP-J2IMOIE  INFO ;::1;/Home/GetListeStockCentre
2023-06-13 12:56:34.8045 DESKTOP-J2IMOIE  INFO ;::1;/Home/GetListeTypeFiche
2023-06-13 12:56:34.8364 DESKTOP-J2IMOIE  INFO ;::1;/Home/GetListeTypeBon
2023-06-13 12:56:34.8364 DESKTOP-J2IMOIE  INFO ;::1;/Home/GetListeTypeFicheConsignation
2023-06-13 12:56:34.8364 DESKTOP-J2IMOIE  INFO ;::1;/Home/GetListeTypeBonsRetour
2023-06-13 12:56:35.0034 DESKTOP-J2IMOIE  INFO ;::1;/Home/GetListeStockCentre
2023-06-13 12:56:35.0174 DESKTOP-J2IMOIE  INFO ;::1;/Home/GetListeTypeSortie
2023-06-13 12:56:35.0274 DESKTOP-J2IMOIE  INFO ;::1;/Home/GetListeDotationCentre
2023-06-13 12:56:35.9472 DESKTOP-J2IMOIE  INFO ;::1;/FicheVenteBouteille/ImprimerA5/1026
2023-06-13 12:58:36.0717 DESKTOP-J2IMOIE  INFO ;::1;/FicheVenteBouteille/Imprimer/1026
2023-06-13 12:58:48.9146 DESKTOP-J2IMOIE  INFO ;::1;/FicheVenteBouteille/Details/1013
2023-06-13 12:58:49.2695 DESKTOP-J2IMOIE  INFO ;::1;/Home/GetListeMouvementBonEnlevement
2023-06-13 12:58:49.3505 DESKTOP-J2IMOIE  INFO ;::1;/Home/GetListeStockCentre
2023-06-13 12:58:49.3505 DESKTOP-J2IMOIE  INFO ;::1;/Home/GetListeDotationCentre
2023-06-13 12:58:49.4755 DESKTOP-J2IMOIE  INFO ;::1;/Home/GetListeCentre
2023-06-13 12:58:49.4755 DESKTOP-J2IMOIE  INFO ;::1;/Home/GetListeConsignationCentre
2023-06-13 12:58:49.4955 DESKTOP-J2IMOIE  INFO ;::1;/Home/GetListeTypeFiche
2023-06-13 12:58:49.5475 DESKTOP-J2IMOIE  INFO ;::1;/Home/GetListeTypeFicheConsignation
2023-06-13 12:58:49.5955 DESKTOP-J2IMOIE  INFO ;::1;/Home/GetListeTypeBon
2023-06-13 12:58:49.6275 DESKTOP-J2IMOIE  INFO ;::1;/Home/GetListeTypeBonsRetour
2023-06-13 12:58:49.7184 DESKTOP-J2IMOIE  INFO ;::1;/Home/GetListeTypeSortie
2023-06-13 12:58:49.7654 DESKTOP-J2IMOIE  INFO ;::1;/Home/GetListeStockCentre
2023-06-13 12:58:50.1513 DESKTOP-J2IMOIE  INFO ;::1;/FicheVenteBouteille/ImprimerDotationA5/1013
2023-06-13 12:59:09.6657 DESKTOP-J2IMOIE  INFO ;::1;/FicheVenteBouteille/ImprimerDotation/1013
2023-06-13 12:59:23.9743 DESKTOP-J2IMOIE  INFO ;::1;/FicheConsignation/Index/0
2023-06-13 12:59:28.3243 DESKTOP-J2IMOIE  INFO ;::1;/Home/GetListeMouvementBonEnlevement
2023-06-13 12:59:28.3573 DESKTOP-J2IMOIE  INFO ;::1;/Home/GetListeCentre
2023-06-13 12:59:28.3573 DESKTOP-J2IMOIE  INFO ;::1;/Home/GetListeConsignationCentre
2023-06-13 12:59:28.3693 DESKTOP-J2IMOIE  INFO ;::1;/Home/GetListeTypeFiche
2023-06-13 12:59:28.3693 DESKTOP-J2IMOIE  INFO ;::1;/Home/GetListeStockCentre
2023-06-13 12:59:28.3823 DESKTOP-J2IMOIE  INFO ;::1;/Home/GetListeDotationCentre
2023-06-13 12:59:28.4282 DESKTOP-J2IMOIE  INFO ;::1;/Home/GetListeTypeFicheConsignation
2023-06-13 12:59:28.4492 DESKTOP-J2IMOIE  INFO ;::1;/Home/GetListeTypeBonsRetour
2023-06-13 12:59:28.4492 DESKTOP-J2IMOIE  INFO ;::1;/Home/GetListeTypeBon
2023-06-13 12:59:28.6702 DESKTOP-J2IMOIE  INFO ;::1;/Home/GetListeTypeSortie
2023-06-13 12:59:28.8501 DESKTOP-J2IMOIE  INFO ;::1;/Home/GetListeStockCentre
2023-06-13 12:59:29.8369 DESKTOP-J2IMOIE  INFO ;::1;/FicheConsignation/Details/1023
2023-06-13 12:59:30.3418 DESKTOP-J2IMOIE  INFO ;::1;/Home/GetListeMouvementBonEnlevement
2023-06-13 12:59:30.3418 DESKTOP-J2IMOIE  INFO ;::1;/Home/GetListeCentre
2023-06-13 12:59:30.3718 DESKTOP-J2IMOIE  INFO ;::1;/Home/GetListeConsignationCentre
2023-06-13 12:59:30.3718 DESKTOP-J2IMOIE  INFO ;::1;/Home/GetListeDotationCentre
2023-06-13 12:59:30.3718 DESKTOP-J2IMOIE  INFO ;::1;/Home/GetListeStockCentre
2023-06-13 12:59:30.3798 DESKTOP-J2IMOIE  INFO ;::1;/Home/GetListeTypeFiche
2023-06-13 12:59:30.4208 DESKTOP-J2IMOIE  INFO ;::1;/Home/GetListeTypeFicheConsignation
2023-06-13 12:59:30.4498 DESKTOP-J2IMOIE  INFO ;::1;/Home/GetListeTypeBonsRetour
2023-06-13 12:59:30.4498 DESKTOP-J2IMOIE  INFO ;::1;/Home/GetListeTypeBon
2023-06-13 12:59:30.5147 DESKTOP-J2IMOIE  INFO ;::1;/Home/GetListeTypeSortie
2023-06-13 12:59:30.5617 DESKTOP-J2IMOIE  INFO ;::1;/Home/GetListeStockCentre
2023-06-13 12:59:36.5493 DESKTOP-J2IMOIE  INFO ;::1;/FicheConsignation/ImprimerA5/1023
2023-06-13 13:00:20.0650 DESKTOP-J2IMOIE  INFO ;::1;/FicheConsignation/Details/23
2023-06-13 13:00:20.4749 DESKTOP-J2IMOIE  INFO ;::1;/Home/GetListeMouvementBonEnlevement
2023-06-13 13:00:20.4899 DESKTOP-J2IMOIE  INFO ;::1;/Home/GetListeStockCentre
2023-06-13 13:00:20.5359 DESKTOP-J2IMOIE  INFO ;::1;/Home/GetListeTypeFiche
2023-06-13 13:00:20.4899 DESKTOP-J2IMOIE  INFO ;::1;/Home/GetListeDotationCentre
2023-06-13 13:00:20.4749 DESKTOP-J2IMOIE  INFO ;::1;/Home/GetListeConsignationCentre
2023-06-13 13:00:20.6039 DESKTOP-J2IMOIE  INFO ;::1;/Home/GetListeTypeBonsRetour
2023-06-13 13:00:20.6209 DESKTOP-J2IMOIE  INFO ;::1;/Home/GetListeTypeBon
2023-06-13 13:00:20.6209 DESKTOP-J2IMOIE  INFO ;::1;/Home/GetListeTypeFicheConsignation
2023-06-13 13:00:20.5299 DESKTOP-J2IMOIE  INFO ;::1;/Home/GetListeCentre
2023-06-13 13:00:20.7328 DESKTOP-J2IMOIE  INFO ;::1;/Home/GetListeTypeSortie
2023-06-13 13:00:20.7578 DESKTOP-J2IMOIE  INFO ;::1;/Home/GetListeStockCentre
2023-06-13 13:00:21.3117 DESKTOP-J2IMOIE  INFO ;::1;/FicheConsignation/ImprimerA5/23
2023-06-13 13:00:31.3503 DESKTOP-J2IMOIE  INFO ;::1;/BonChargementCiterne/Index/0
2023-06-13 13:00:35.6733 DESKTOP-J2IMOIE  INFO ;::1;/Home/GetListeMouvementBonEnlevement
2023-06-13 13:00:35.6733 DESKTOP-J2IMOIE  INFO ;::1;/Home/GetListeCentre
2023-06-13 13:00:35.7103 DESKTOP-J2IMOIE  INFO ;::1;/Home/GetListeTypeFiche
2023-06-13 13:00:35.7103 DESKTOP-J2IMOIE  INFO ;::1;/Home/GetListeConsignationCentre
2023-06-13 13:00:35.7363 DESKTOP-J2IMOIE  INFO ;::1;/Home/GetListeTypeFicheConsignation
2023-06-13 13:00:35.7803 DESKTOP-J2IMOIE  INFO ;::1;/Home/GetListeTypeBon
2023-06-13 13:00:35.7923 DESKTOP-J2IMOIE  INFO ;::1;/Home/GetListeTypeBonsRetour
2023-06-13 13:00:35.8922 DESKTOP-J2IMOIE  INFO ;::1;/Home/GetListeTypeSortie
2023-06-13 13:00:35.7103 DESKTOP-J2IMOIE  INFO ;::1;/Home/GetListeDotationCentre
2023-06-13 13:00:35.7103 DESKTOP-J2IMOIE  INFO ;::1;/Home/GetListeStockCentre
2023-06-13 13:00:36.1902 DESKTOP-J2IMOIE  INFO ;::1;/Home/GetListeStockCentre
2023-06-13 13:00:37.3419 DESKTOP-J2IMOIE  INFO ;::1;/BonChargementCiterne/Details/1041
2023-06-13 13:00:37.9208 DESKTOP-J2IMOIE  INFO ;::1;/Home/GetListeMouvementBonEnlevement
2023-06-13 13:00:37.9348 DESKTOP-J2IMOIE  INFO ;::1;/Home/GetListeCentre
2023-06-13 13:00:37.9537 DESKTOP-J2IMOIE  INFO ;::1;/Home/GetListeDotationCentre
2023-06-13 13:00:37.9577 DESKTOP-J2IMOIE  INFO ;::1;/Home/GetListeTypeFiche
2023-06-13 13:00:37.9577 DESKTOP-J2IMOIE  INFO ;::1;/Home/GetListeConsignationCentre
2023-06-13 13:00:38.1957 DESKTOP-J2IMOIE  INFO ;::1;/Home/GetListeTypeFicheConsignation
2023-06-13 13:00:38.1957 DESKTOP-J2IMOIE  INFO ;::1;/Home/GetListeStockCentre
2023-06-13 13:00:38.2347 DESKTOP-J2IMOIE  INFO ;::1;/Home/GetListeTypeSortie
2023-06-13 13:00:38.2507 DESKTOP-J2IMOIE  INFO ;::1;/Home/GetListeTypeBonsRetour
2023-06-13 13:00:38.2897 DESKTOP-J2IMOIE  INFO ;::1;/Home/GetListeTypeBon
2023-06-13 13:00:38.3057 DESKTOP-J2IMOIE  INFO ;::1;/Home/GetListeStockCentre
2023-06-13 13:00:39.3284 DESKTOP-J2IMOIE  INFO ;::1;/BonChargementCiterne/Imprimer/1041
2023-06-13 13:01:01.7391 DESKTOP-J2IMOIE  INFO ;::1;/BonRetourCiterne/Index/0
2023-06-13 13:01:05.1083 DESKTOP-J2IMOIE  INFO ;::1;/Home/GetListeMouvementBonEnlevement
2023-06-13 13:01:05.1383 DESKTOP-J2IMOIE  INFO ;::1;/Home/GetListeCentre
2023-06-13 13:01:05.1383 DESKTOP-J2IMOIE  INFO ;::1;/Home/GetListeDotationCentre
2023-06-13 13:01:05.1463 DESKTOP-J2IMOIE  INFO ;::1;/Home/GetListeConsignationCentre
2023-06-13 13:01:05.1383 DESKTOP-J2IMOIE  INFO ;::1;/Home/GetListeStockCentre
2023-06-13 13:01:05.1973 DESKTOP-J2IMOIE  INFO ;::1;/Home/GetListeTypeFiche
2023-06-13 13:01:05.2373 DESKTOP-J2IMOIE  INFO ;::1;/Home/GetListeTypeFicheConsignation
2023-06-13 13:01:05.2483 DESKTOP-J2IMOIE  INFO ;::1;/Home/GetListeTypeSortie
2023-06-13 13:01:05.2483 DESKTOP-J2IMOIE  INFO ;::1;/Home/GetListeTypeBonsRetour
2023-06-13 13:01:05.2623 DESKTOP-J2IMOIE  INFO ;::1;/Home/GetListeStockCentre
2023-06-13 13:01:05.2723 DESKTOP-J2IMOIE  INFO ;::1;/Home/GetListeTypeBon
2023-06-13 15:47:54.2807 DESKTOP-J2IMOIE  INFO ;::1;/Authentication/Logout
2023-06-13 15:47:54.3887 DESKTOP-J2IMOIE  INFO ;::1;/Authentication/Login?ReturnUrl=%2F
2023-06-13 15:48:05.1541 DESKTOP-J2IMOIE  INFO ;::1;/Authentication/Login
2023-06-13 15:48:05.2061 DESKTOP-J2IMOIE  INFO ;::1;/
2023-06-13 15:48:05.6780 DESKTOP-J2IMOIE  INFO ;::1;/Home/GetListeMouvementBonEnlevement
2023-06-13 15:48:05.6780 DESKTOP-J2IMOIE  INFO ;::1;/Home/GetListeConsignationCentre
2023-06-13 15:48:05.6970 DESKTOP-J2IMOIE  INFO ;::1;/Home/GetListeCentre
2023-06-13 15:48:05.6970 DESKTOP-J2IMOIE  INFO ;::1;/Home/GetListeTypeFiche
2023-06-13 15:48:05.7160 DESKTOP-J2IMOIE  INFO ;::1;/Home/GetListeDotationCentre
2023-06-13 15:48:05.7470 DESKTOP-J2IMOIE  INFO ;::1;/Home/GetListeStockCentre
2023-06-13 15:48:05.7590 DESKTOP-J2IMOIE  INFO ;::1;/Home/GetListeTypeFicheConsignation
2023-06-13 15:48:05.8280 DESKTOP-J2IMOIE  INFO ;::1;/Home/GetListeTypeBon
2023-06-13 15:48:05.8630 DESKTOP-J2IMOIE  INFO ;::1;/Home/GetListeTypeSortie
2023-06-13 15:48:05.8879 DESKTOP-J2IMOIE  INFO ;::1;/Home/GetListeStockCentre
2023-06-13 15:48:05.9079 DESKTOP-J2IMOIE  INFO ;::1;/Home/GetListeTypeBonsRetour
2023-06-13 15:48:08.6833 DESKTOP-J2IMOIE  INFO ;::1;/Home/GetListeTypeBon
2023-06-13 15:48:13.2052 DESKTOP-J2IMOIE  INFO ;::1;/BonChargementCiterne/ValiderTypeBon
2023-06-13 15:48:13.2702 DESKTOP-J2IMOIE  INFO ;::1;/BonChargementCiterne/ValiderTypeBon
2023-06-13 15:48:13.3202 DESKTOP-J2IMOIE  INFO ;::1;/BonChargementCiterne/Ajouter?idTypeBon=3
2023-06-13 15:48:14.1472 DESKTOP-J2IMOIE  INFO ;::1;/Home/GetListeDotationCentre
2023-06-13 15:48:14.1628 DESKTOP-J2IMOIE  INFO ;::1;/Home/GetListeMouvementBonEnlevement
2023-06-13 15:48:14.1628 DESKTOP-J2IMOIE  INFO ;::1;/Home/GetListeCentre
2023-06-13 15:48:14.1628 DESKTOP-J2IMOIE  INFO ;::1;/Home/GetListeStockCentre
2023-06-13 15:48:14.1962 DESKTOP-J2IMOIE  INFO ;::1;/Home/GetListeTypeFiche
2023-06-13 15:48:14.2262 DESKTOP-J2IMOIE  INFO ;::1;/Home/GetListeTypeBon
2023-06-13 15:48:14.2262 DESKTOP-J2IMOIE  INFO ;::1;/Home/GetListeTypeFicheConsignation
2023-06-13 15:48:14.2721 DESKTOP-J2IMOIE  INFO ;::1;/Home/GetListeTypeBonsRetour
2023-06-13 15:48:14.3300 DESKTOP-J2IMOIE  INFO ;::1;/Home/GetListeConsignationCentre
2023-06-13 15:48:14.3619 DESKTOP-J2IMOIE  INFO ;::1;/Home/GetListeTypeSortie
2023-06-13 15:48:14.3789 DESKTOP-J2IMOIE  INFO ;::1;/Home/GetListeStockCentre
2023-06-13 15:48:19.0411 DESKTOP-J2IMOIE  INFO ;::1;/BonChargementCiterne/ValiderTypeBon
2023-06-13 15:48:19.1171 DESKTOP-J2IMOIE  INFO ;::1;/BonChargementCiterne/Ajouter?idTypeBon=5
2023-06-13 15:48:19.5717 DESKTOP-J2IMOIE  INFO ;::1;/Home/GetListeCentre
2023-06-13 15:48:19.5717 DESKTOP-J2IMOIE  INFO ;::1;/Home/GetListeConsignationCentre
2023-06-13 15:48:19.5827 DESKTOP-J2IMOIE  INFO ;::1;/Home/GetListeMouvementBonEnlevement
2023-06-13 15:48:19.5827 DESKTOP-J2IMOIE  INFO ;::1;/Home/GetListeStockCentre
2023-06-13 15:48:19.6127 DESKTOP-J2IMOIE  INFO ;::1;/Home/GetListeTypeFiche
2023-06-13 15:48:19.6407 DESKTOP-J2IMOIE  INFO ;::1;/Home/GetListeDotationCentre
2023-06-13 15:48:19.6817 DESKTOP-J2IMOIE  INFO ;::1;/Home/GetListeTypeFicheConsignation
2023-06-13 15:48:19.6937 DESKTOP-J2IMOIE  INFO ;::1;/Home/GetListeTypeBon
2023-06-13 15:48:19.7456 DESKTOP-J2IMOIE  INFO ;::1;/Home/GetListeTypeBonsRetour
2023-06-13 15:48:19.7996 DESKTOP-J2IMOIE  INFO ;::1;/Home/GetListeTypeSortie
2023-06-13 15:48:19.8236 DESKTOP-J2IMOIE  INFO ;::1;/Home/GetListeStockCentre
2023-06-13 15:48:35.9762 DESKTOP-J2IMOIE  INFO ;::1;/Home/GetClient/?Code=13
2023-06-13 15:48:39.8912 DESKTOP-J2IMOIE  INFO ;::1;/Home/GetDestination?Code=1
2023-06-13 15:48:41.7618 DESKTOP-J2IMOIE  INFO ;::1;/BonChargementCiterne/Ajouter
2023-06-13 15:48:42.9215 DESKTOP-J2IMOIE  INFO ;::1;/BonChargementCiterne
2023-06-13 15:48:43.0875 DESKTOP-J2IMOIE  INFO ;::1;/Home/GetListeCentre
2023-06-13 15:48:43.0875 DESKTOP-J2IMOIE  INFO ;::1;/Home/GetListeConsignationCentre
2023-06-13 15:48:43.1025 DESKTOP-J2IMOIE  INFO ;::1;/Home/GetListeDotationCentre
2023-06-13 15:48:43.1025 DESKTOP-J2IMOIE  INFO ;::1;/Home/GetListeStockCentre
2023-06-13 15:48:43.0875 DESKTOP-J2IMOIE  INFO ;::1;/Home/GetListeMouvementBonEnlevement
2023-06-13 15:48:43.1815 DESKTOP-J2IMOIE  INFO ;::1;/Home/GetListeTypeFiche
2023-06-13 15:48:43.2314 DESKTOP-J2IMOIE  INFO ;::1;/Home/GetListeTypeBon
2023-06-13 15:48:43.2454 DESKTOP-J2IMOIE  INFO ;::1;/Home/GetListeTypeBonsRetour
2023-06-13 15:48:43.2624 DESKTOP-J2IMOIE  INFO ;::1;/Home/GetListeTypeSortie
2023-06-13 15:48:43.2774 DESKTOP-J2IMOIE  INFO ;::1;/Home/GetListeStockCentre
2023-06-13 15:48:43.3334 DESKTOP-J2IMOIE  INFO ;::1;/Home/GetListeTypeFicheConsignation
2023-06-13 15:48:46.9236 DESKTOP-J2IMOIE  INFO ;::1;/Authentication/Logout
2023-06-13 15:48:46.9596 DESKTOP-J2IMOIE  INFO ;::1;/Authentication/Login?ReturnUrl=%2F
2023-06-13 15:48:52.3183 DESKTOP-J2IMOIE  INFO ;::1;/Authentication/Login
2023-06-13 15:48:52.3533 DESKTOP-J2IMOIE  INFO ;::1;/
2023-06-13 15:48:52.7762 DESKTOP-J2IMOIE  INFO ;::1;/Home/GetListeCentre
2023-06-13 15:48:52.7892 DESKTOP-J2IMOIE  INFO ;::1;/Home/GetListeConsignationCentre
2023-06-13 15:48:52.8062 DESKTOP-J2IMOIE  INFO ;::1;/Home/GetListeTypeFiche
2023-06-13 15:48:52.8062 DESKTOP-J2IMOIE  INFO ;::1;/Home/GetListeDotationCentre
2023-06-13 15:48:52.8212 DESKTOP-J2IMOIE  INFO ;::1;/Home/GetListeMouvementBonEnlevement
2023-06-13 15:48:52.8772 DESKTOP-J2IMOIE  INFO ;::1;/Home/GetListeStockCentre
2023-06-13 15:48:52.9261 DESKTOP-J2IMOIE  INFO ;::1;/Home/GetListeTypeFicheConsignation
2023-06-13 15:48:52.9421 DESKTOP-J2IMOIE  INFO ;::1;/Home/GetListeTypeBonsRetour
2023-06-13 15:48:52.9631 DESKTOP-J2IMOIE  INFO ;::1;/Home/GetListeTypeBon
2023-06-13 15:48:52.9631 DESKTOP-J2IMOIE  INFO ;::1;/Home/GetListeTypeSortie
2023-06-13 15:48:53.0021 DESKTOP-J2IMOIE  INFO ;::1;/Home/GetListeStockCentre
2023-06-13 15:48:56.8912 DESKTOP-J2IMOIE  INFO ;::1;/BonChargementCiterne/Instance/0
2023-06-13 15:48:57.7110 DESKTOP-J2IMOIE  INFO ;::1;/Home/GetListeMouvementBonEnlevement
2023-06-13 15:48:57.7110 DESKTOP-J2IMOIE  INFO ;::1;/Home/GetListeDotationCentre
2023-06-13 15:48:57.7110 DESKTOP-J2IMOIE  INFO ;::1;/Home/GetListeConsignationCentre
2023-06-13 15:48:57.7110 DESKTOP-J2IMOIE  INFO ;::1;/Home/GetListeCentre
2023-06-13 15:48:57.7730 DESKTOP-J2IMOIE  INFO ;::1;/Home/GetListeStockCentre
2023-06-13 15:48:57.8090 DESKTOP-J2IMOIE  INFO ;::1;/Home/GetListeTypeFicheConsignation
2023-06-13 15:48:57.7890 DESKTOP-J2IMOIE  INFO ;::1;/Home/GetListeTypeFiche
2023-06-13 15:48:57.8200 DESKTOP-J2IMOIE  INFO ;::1;/Home/GetListeTypeBon
2023-06-13 15:48:57.9440 DESKTOP-J2IMOIE  INFO ;::1;/Home/GetListeTypeBonsRetour
2023-06-13 15:48:58.0149 DESKTOP-J2IMOIE  INFO ;::1;/Home/GetListeTypeSortie
2023-06-13 15:48:58.0439 DESKTOP-J2IMOIE  INFO ;::1;/Home/GetListeStockCentre
2023-06-13 15:48:59.2666 DESKTOP-J2IMOIE  INFO ;::1;/BonChargementCiterne/Details/1042
2023-06-13 15:48:59.7775 DESKTOP-J2IMOIE  INFO ;::1;/Home/GetListeConsignationCentre
2023-06-13 15:48:59.8965 DESKTOP-J2IMOIE  INFO ;::1;/Home/GetListeCentre
2023-06-13 15:48:59.9135 DESKTOP-J2IMOIE  INFO ;::1;/Home/GetListeDotationCentre
2023-06-13 15:48:59.9285 DESKTOP-J2IMOIE  INFO ;::1;/Home/GetListeMouvementBonEnlevement
2023-06-13 15:48:59.9945 DESKTOP-J2IMOIE  INFO ;::1;/Home/GetListeStockCentre
2023-06-13 15:49:00.0624 DESKTOP-J2IMOIE  INFO ;::1;/Home/GetListeTypeFiche
2023-06-13 15:49:00.1674 DESKTOP-J2IMOIE  INFO ;::1;/Home/GetListeTypeFicheConsignation
2023-06-13 15:49:00.1894 DESKTOP-J2IMOIE  INFO ;::1;/Home/GetListeTypeBon
2023-06-13 15:49:00.1944 DESKTOP-J2IMOIE  INFO ;::1;/Home/GetListeTypeBonsRetour
2023-06-13 15:49:00.2404 DESKTOP-J2IMOIE  INFO ;::1;/Home/GetListeTypeSortie
2023-06-13 15:49:00.2974 DESKTOP-J2IMOIE  INFO ;::1;/Home/GetListeStockCentre
2023-06-13 15:49:00.9452 DESKTOP-J2IMOIE  INFO ;::1;/BonChargementCiterne/ModifierBonChargement/1042
2023-06-13 15:49:01.5631 DESKTOP-J2IMOIE  INFO ;::1;/Home/GetListeMouvementBonEnlevement
2023-06-13 15:49:01.6051 DESKTOP-J2IMOIE  INFO ;::1;/Home/GetListeCentre
2023-06-13 15:49:01.6211 DESKTOP-J2IMOIE  INFO ;::1;/Home/GetListeDotationCentre
2023-06-13 15:49:01.6211 DESKTOP-J2IMOIE  INFO ;::1;/Home/GetListeStockCentre
2023-06-13 15:49:01.6331 DESKTOP-J2IMOIE  INFO ;::1;/Home/GetListeTypeFiche
2023-06-13 15:49:01.7111 DESKTOP-J2IMOIE  INFO ;::1;/Home/GetListeTypeFicheConsignation
2023-06-13 15:49:01.7460 DESKTOP-J2IMOIE  INFO ;::1;/Home/GetListeTypeBonsRetour
2023-06-13 15:49:01.7750 DESKTOP-J2IMOIE  INFO ;::1;/Home/GetListeTypeBon
2023-06-13 15:49:01.7750 DESKTOP-J2IMOIE  INFO ;::1;/Home/GetListeConsignationCentre
2023-06-13 15:49:01.8250 DESKTOP-J2IMOIE  INFO ;::1;/Home/GetListeStockCentre
2023-06-13 15:49:01.8350 DESKTOP-J2IMOIE  INFO ;::1;/Home/GetListeTypeSortie
2023-06-13 15:49:12.6225 DESKTOP-J2IMOIE  INFO ;::1;/BonChargementCiterne/ModifierBonChargement
2023-06-13 15:49:13.2283 DESKTOP-J2IMOIE  INFO ;::1;/BonChargementCiterne
2023-06-13 15:49:13.4253 DESKTOP-J2IMOIE  INFO ;::1;/Home/GetListeMouvementBonEnlevement
2023-06-13 15:49:13.4373 DESKTOP-J2IMOIE  INFO ;::1;/Home/GetListeCentre
2023-06-13 15:49:13.4373 DESKTOP-J2IMOIE  INFO ;::1;/Home/GetListeTypeFiche
2023-06-13 15:49:13.4373 DESKTOP-J2IMOIE  INFO ;::1;/Home/GetListeConsignationCentre
2023-06-13 15:49:13.4553 DESKTOP-J2IMOIE  INFO ;::1;/Home/GetListeDotationCentre
2023-06-13 15:49:13.4853 DESKTOP-J2IMOIE  INFO ;::1;/Home/GetListeTypeFicheConsignation
2023-06-13 15:49:13.5353 DESKTOP-J2IMOIE  INFO ;::1;/Home/GetListeTypeBonsRetour
2023-06-13 15:49:13.5153 DESKTOP-J2IMOIE  INFO ;::1;/Home/GetListeTypeBon
2023-06-13 15:49:13.5303 DESKTOP-J2IMOIE  INFO ;::1;/Home/GetListeStockCentre
2023-06-13 15:49:13.5782 DESKTOP-J2IMOIE  INFO ;::1;/Home/GetListeTypeSortie
2023-06-13 15:49:13.6842 DESKTOP-J2IMOIE  INFO ;::1;/Home/GetListeStockCentre
2023-06-13 15:49:17.1114 DESKTOP-J2IMOIE  INFO ;::1;/Authentication/Logout
2023-06-13 15:49:17.1564 DESKTOP-J2IMOIE  INFO ;::1;/Authentication/Login?ReturnUrl=%2F
2023-06-13 15:49:33.6825 DESKTOP-J2IMOIE  INFO ;::1;/Authentication/Login
2023-06-13 15:49:33.7075 DESKTOP-J2IMOIE  INFO ;::1;/
2023-06-13 15:49:34.0484 DESKTOP-J2IMOIE  INFO ;::1;/Home/GetListeMouvementBonEnlevement
2023-06-13 15:49:34.1174 DESKTOP-J2IMOIE  INFO ;::1;/Home/GetListeCentre
2023-06-13 15:49:34.1624 DESKTOP-J2IMOIE  INFO ;::1;/Home/GetListeConsignationCentre
2023-06-13 15:49:34.1624 DESKTOP-J2IMOIE  INFO ;::1;/Home/GetListeStockCentre
2023-06-13 15:49:34.1794 DESKTOP-J2IMOIE  INFO ;::1;/Home/GetListeTypeFiche
2023-06-13 15:49:34.1794 DESKTOP-J2IMOIE  INFO ;::1;/Home/GetListeDotationCentre
2023-06-13 15:49:34.2213 DESKTOP-J2IMOIE  INFO ;::1;/Home/GetListeTypeFicheConsignation
2023-06-13 15:49:34.2273 DESKTOP-J2IMOIE  INFO ;::1;/Home/GetListeTypeBon
2023-06-13 15:49:34.2443 DESKTOP-J2IMOIE  INFO ;::1;/Home/GetListeTypeSortie
2023-06-13 15:49:34.2603 DESKTOP-J2IMOIE  INFO ;::1;/Home/GetListeTypeBonsRetour
2023-06-13 15:49:34.2703 DESKTOP-J2IMOIE  INFO ;::1;/Home/GetListeStockCentre
2023-06-13 15:49:42.5164 DESKTOP-J2IMOIE  INFO ;::1;/Statistiques/StatistiquesVrac/0
2023-06-13 15:49:43.3072 DESKTOP-J2IMOIE  INFO ;::1;/Home/GetListeMouvementBonEnlevement
2023-06-13 15:49:43.3352 DESKTOP-J2IMOIE  INFO ;::1;/Home/GetListeCentre
2023-06-13 15:49:43.3352 DESKTOP-J2IMOIE  INFO ;::1;/Home/GetListeConsignationCentre
2023-06-13 15:49:43.3552 DESKTOP-J2IMOIE  INFO ;::1;/Home/GetListeStockCentre
2023-06-13 15:49:43.3642 DESKTOP-J2IMOIE  INFO ;::1;/Home/GetListeDotationCentre
2023-06-13 15:49:43.4072 DESKTOP-J2IMOIE  INFO ;::1;/Home/GetListeTypeFiche
2023-06-13 15:49:43.4931 DESKTOP-J2IMOIE  INFO ;::1;/Home/GetListeTypeFicheConsignation
2023-06-13 15:49:43.5091 DESKTOP-J2IMOIE  INFO ;::1;/Home/GetListeTypeBonsRetour
2023-06-13 15:49:43.5401 DESKTOP-J2IMOIE  INFO ;::1;/Home/GetListeTypeSortie
2023-06-13 15:49:43.5401 DESKTOP-J2IMOIE  INFO ;::1;/Home/GetListeTypeBon
2023-06-13 15:49:43.5871 DESKTOP-J2IMOIE  INFO ;::1;/Home/GetListeStockCentre
2023-06-13 15:49:44.3329 DESKTOP-J2IMOIE  INFO ;::1;/Statistiques/StatistiquesVrac
2023-06-13 15:49:45.2327 DESKTOP-J2IMOIE  INFO ;::1;/Home/GetListeMouvementBonEnlevement
2023-06-13 15:49:45.2927 DESKTOP-J2IMOIE  INFO ;::1;/Home/GetListeCentre
2023-06-13 15:49:45.3857 DESKTOP-J2IMOIE  INFO ;::1;/Home/GetListeConsignationCentre
2023-06-13 15:49:45.3337 DESKTOP-J2IMOIE  INFO ;::1;/Home/GetListeTypeFiche
2023-06-13 15:49:45.3057 DESKTOP-J2IMOIE  INFO ;::1;/Home/GetListeDotationCentre
2023-06-13 15:49:45.4387 DESKTOP-J2IMOIE  INFO ;::1;/Home/GetListeStockCentre
2023-06-13 15:49:45.4707 DESKTOP-J2IMOIE  INFO ;::1;/Home/GetListeTypeFicheConsignation
2023-06-13 15:49:45.5187 DESKTOP-J2IMOIE  INFO ;::1;/Home/GetListeTypeBon
2023-06-13 15:49:45.5507 DESKTOP-J2IMOIE  INFO ;::1;/Home/GetListeTypeBonsRetour
2023-06-13 15:49:45.6036 DESKTOP-J2IMOIE  INFO ;::1;/Home/GetListeTypeSortie
2023-06-13 15:49:45.6176 DESKTOP-J2IMOIE  INFO ;::1;/Home/GetListeStockCentre
2023-06-13 15:50:09.2030 DESKTOP-J2IMOIE  INFO ;::1;/Home/GetListeTypeBonsRetour
2023-06-13 15:50:13.4790 DESKTOP-J2IMOIE  INFO ;::1;/BonChargementCiterne/Index/0
2023-06-13 15:50:13.7260 DESKTOP-J2IMOIE  INFO ;::1;/Home/GetListeMouvementBonEnlevement
2023-06-13 15:50:13.8119 DESKTOP-J2IMOIE  INFO ;::1;/Home/GetListeCentre
2023-06-13 15:50:13.9429 DESKTOP-J2IMOIE  INFO ;::1;/Home/GetListeDotationCentre
2023-06-13 15:50:13.9429 DESKTOP-J2IMOIE  INFO ;::1;/Home/GetListeStockCentre
2023-06-13 15:50:13.9599 DESKTOP-J2IMOIE  INFO ;::1;/Home/GetListeTypeFiche
2023-06-13 15:50:13.9759 DESKTOP-J2IMOIE  INFO ;::1;/Home/GetListeConsignationCentre
2023-06-13 15:50:14.0609 DESKTOP-J2IMOIE  INFO ;::1;/Home/GetListeTypeFicheConsignation
2023-06-13 15:50:14.0689 DESKTOP-J2IMOIE  INFO ;::1;/Home/GetListeTypeBon
2023-06-13 15:50:14.0689 DESKTOP-J2IMOIE  INFO ;::1;/Home/GetListeTypeSortie
2023-06-13 15:50:14.0929 DESKTOP-J2IMOIE  INFO ;::1;/Home/GetListeTypeBonsRetour
2023-06-13 15:50:14.1229 DESKTOP-J2IMOIE  INFO ;::1;/Home/GetListeStockCentre
2023-06-13 15:50:15.8875 DESKTOP-J2IMOIE  INFO ;::1;/Home/GetListeTypeBonsRetour
2023-06-13 15:50:22.5589 DESKTOP-J2IMOIE  INFO ;::1;/Home/GetListeTypeBonsRetour
2023-06-13 15:50:25.3007 DESKTOP-J2IMOIE  INFO ;::1;/BonRetourCiterne/ValiderTypeBon
2023-06-13 15:50:25.3356 DESKTOP-J2IMOIE  INFO ;::1;/BonRetourCiterne/Ajouter?idTypeBonRetour=2
2023-06-13 15:50:26.1984 DESKTOP-J2IMOIE  INFO ;::1;/Home/GetListeMouvementBonEnlevement
2023-06-13 15:50:26.2164 DESKTOP-J2IMOIE  INFO ;::1;/Home/GetListeCentre
2023-06-13 15:50:26.2234 DESKTOP-J2IMOIE  INFO ;::1;/Home/GetListeConsignationCentre
2023-06-13 15:50:26.2234 DESKTOP-J2IMOIE  INFO ;::1;/Home/GetListeTypeFiche
2023-06-13 15:50:26.2774 DESKTOP-J2IMOIE  INFO ;::1;/Home/GetListeTypeFicheConsignation
2023-06-13 15:50:26.2884 DESKTOP-J2IMOIE  INFO ;::1;/Home/GetListeStockCentre
2023-06-13 15:50:26.2884 DESKTOP-J2IMOIE  INFO ;::1;/Home/GetListeDotationCentre
2023-06-13 15:50:26.3390 DESKTOP-J2IMOIE  INFO ;::1;/Home/GetListeTypeBon
2023-06-13 15:50:26.3560 DESKTOP-J2IMOIE  INFO ;::1;/Home/GetListeTypeBonsRetour
2023-06-13 15:50:26.3740 DESKTOP-J2IMOIE  INFO ;::1;/Home/GetListeTypeSortie
2023-06-13 15:50:26.4160 DESKTOP-J2IMOIE  INFO ;::1;/Home/GetListeStockCentre
2023-06-13 15:50:28.5058 DESKTOP-J2IMOIE  INFO ;::1;/Home/GetClient/?Code=13
2023-06-13 15:50:34.7644 DESKTOP-J2IMOIE  INFO ;::1;/Home/GetBonChargement/?ReferenceBonChargement=0000
2023-06-13 15:50:38.7574 DESKTOP-J2IMOIE  INFO ;::1;/Home/GetBonChargement/?ReferenceBonChargement=0000
2023-06-13 15:50:38.9564 DESKTOP-J2IMOIE  INFO ;::1;/BonRetourCiterne/Ajouter
2023-06-13 15:50:39.3443 DESKTOP-J2IMOIE  INFO ;::1;/Home/GetListeMouvementBonEnlevement
2023-06-13 15:50:39.3743 DESKTOP-J2IMOIE  INFO ;::1;/Home/GetListeCentre
2023-06-13 15:50:39.3743 DESKTOP-J2IMOIE  INFO ;::1;/Home/GetListeConsignationCentre
2023-06-13 15:50:39.3743 DESKTOP-J2IMOIE  INFO ;::1;/Home/GetListeStockCentre
2023-06-13 15:50:39.3943 DESKTOP-J2IMOIE  INFO ;::1;/Home/GetListeDotationCentre
2023-06-13 15:50:39.3993 DESKTOP-J2IMOIE  INFO ;::1;/Home/GetListeTypeFiche
2023-06-13 15:50:39.4682 DESKTOP-J2IMOIE  INFO ;::1;/Home/GetListeTypeBon
2023-06-13 15:50:39.4283 DESKTOP-J2IMOIE  INFO ;::1;/Home/GetListeTypeFicheConsignation
2023-06-13 15:50:39.5452 DESKTOP-J2IMOIE  INFO ;::1;/Home/GetListeTypeBonsRetour
2023-06-13 15:50:39.5822 DESKTOP-J2IMOIE  INFO ;::1;/Home/GetListeTypeSortie
2023-06-13 15:50:39.5982 DESKTOP-J2IMOIE  INFO ;::1;/Home/GetListeStockCentre
2023-06-13 15:50:42.6125 DESKTOP-J2IMOIE  INFO ;::1;/Home/GetBonChargement/?ReferenceBonChargement=000007
2023-06-13 15:50:54.4747 DESKTOP-J2IMOIE  INFO ;::1;/BonRetourCiterne/Ajouter
2023-06-13 15:50:54.8656 DESKTOP-J2IMOIE  INFO ;::1;/BonRetourCiterne
2023-06-13 15:50:55.0905 DESKTOP-J2IMOIE  INFO ;::1;/Home/GetListeMouvementBonEnlevement
2023-06-13 15:50:55.1025 DESKTOP-J2IMOIE  INFO ;::1;/Home/GetListeConsignationCentre
2023-06-13 15:50:55.1025 DESKTOP-J2IMOIE  INFO ;::1;/Home/GetListeStockCentre
2023-06-13 15:50:55.1025 DESKTOP-J2IMOIE  INFO ;::1;/Home/GetListeDotationCentre
2023-06-13 15:50:55.1025 DESKTOP-J2IMOIE  INFO ;::1;/Home/GetListeCentre
2023-06-13 15:50:55.1635 DESKTOP-J2IMOIE  INFO ;::1;/Home/GetListeTypeBon
2023-06-13 15:50:55.2415 DESKTOP-J2IMOIE  INFO ;::1;/Home/GetListeTypeFiche
2023-06-13 15:50:55.1315 DESKTOP-J2IMOIE  INFO ;::1;/Home/GetListeTypeFicheConsignation
2023-06-13 15:50:55.3145 DESKTOP-J2IMOIE  INFO ;::1;/Home/GetListeTypeBonsRetour
2023-06-13 15:50:55.3445 DESKTOP-J2IMOIE  INFO ;::1;/Home/GetListeStockCentre
2023-06-13 15:50:55.3445 DESKTOP-J2IMOIE  INFO ;::1;/Home/GetListeTypeSortie
2023-06-13 15:51:08.1694 DESKTOP-J2IMOIE  INFO ;::1;/Statistiques/StatistiquesVrac/0
2023-06-13 15:51:08.4494 DESKTOP-J2IMOIE  INFO ;::1;/Home/GetListeMouvementBonEnlevement
2023-06-13 15:51:08.6823 DESKTOP-J2IMOIE  INFO ;::1;/Home/GetListeDotationCentre
2023-06-13 15:51:08.5593 DESKTOP-J2IMOIE  INFO ;::1;/Home/GetListeCentre
2023-06-13 15:51:08.7203 DESKTOP-J2IMOIE  INFO ;::1;/Home/GetListeStockCentre
2023-06-13 15:51:08.7763 DESKTOP-J2IMOIE  INFO ;::1;/Home/GetListeTypeFiche
2023-06-13 15:51:08.8413 DESKTOP-J2IMOIE  INFO ;::1;/Home/GetListeTypeFicheConsignation
2023-06-13 15:51:08.8603 DESKTOP-J2IMOIE  INFO ;::1;/Home/GetListeConsignationCentre
2023-06-13 15:51:08.8783 DESKTOP-J2IMOIE  INFO ;::1;/Home/GetListeTypeBon
2023-06-13 15:51:08.9403 DESKTOP-J2IMOIE  INFO ;::1;/Home/GetListeStockCentre
2023-06-13 15:51:08.9782 DESKTOP-J2IMOIE  INFO ;::1;/Home/GetListeTypeSortie
2023-06-13 15:51:09.0382 DESKTOP-J2IMOIE  INFO ;::1;/Home/GetListeTypeBonsRetour
2023-06-13 15:51:09.6501 DESKTOP-J2IMOIE  INFO ;::1;/Statistiques/StatistiquesVrac
2023-06-13 15:51:09.9210 DESKTOP-J2IMOIE  INFO ;::1;/Home/GetListeMouvementBonEnlevement
2023-06-13 15:51:09.9530 DESKTOP-J2IMOIE  INFO ;::1;/Home/GetListeCentre
2023-06-13 15:51:09.9580 DESKTOP-J2IMOIE  INFO ;::1;/Home/GetListeDotationCentre
2023-06-13 15:51:09.9580 DESKTOP-J2IMOIE  INFO ;::1;/Home/GetListeStockCentre
2023-06-13 15:51:09.9820 DESKTOP-J2IMOIE  INFO ;::1;/Home/GetListeTypeFiche
2023-06-13 15:51:10.0420 DESKTOP-J2IMOIE  INFO ;::1;/Home/GetListeTypeFicheConsignation
2023-06-13 15:51:10.0780 DESKTOP-J2IMOIE  INFO ;::1;/Home/GetListeTypeBon
2023-06-13 15:51:10.0940 DESKTOP-J2IMOIE  INFO ;::1;/Home/GetListeTypeBonsRetour
2023-06-13 15:51:10.1050 DESKTOP-J2IMOIE  INFO ;::1;/Home/GetListeConsignationCentre
2023-06-13 15:51:10.1330 DESKTOP-J2IMOIE  INFO ;::1;/Home/GetListeTypeSortie
2023-06-13 15:51:10.1330 DESKTOP-J2IMOIE  INFO ;::1;/Home/GetListeStockCentre
2023-06-13 15:51:17.6122 DESKTOP-J2IMOIE  INFO ;::1;/Statistiques/StatistiquesRetourVrac/0
2023-06-13 15:51:18.2940 DESKTOP-J2IMOIE  INFO ;::1;/Home/GetListeCentre
2023-06-13 15:51:18.3030 DESKTOP-J2IMOIE  INFO ;::1;/Home/GetListeConsignationCentre
2023-06-13 15:51:18.3270 DESKTOP-J2IMOIE  INFO ;::1;/Home/GetListeDotationCentre
2023-06-13 15:51:18.3270 DESKTOP-J2IMOIE  INFO ;::1;/Home/GetListeStockCentre
2023-06-13 15:51:18.3270 DESKTOP-J2IMOIE  INFO ;::1;/Home/GetListeMouvementBonEnlevement
2023-06-13 15:51:18.3680 DESKTOP-J2IMOIE  INFO ;::1;/Home/GetListeTypeFiche
2023-06-13 15:51:18.3950 DESKTOP-J2IMOIE  INFO ;::1;/Home/GetListeTypeFicheConsignation
2023-06-13 15:51:18.4570 DESKTOP-J2IMOIE  INFO ;::1;/Home/GetListeTypeBon
2023-06-13 15:51:18.5110 DESKTOP-J2IMOIE  INFO ;::1;/Home/GetListeTypeBonsRetour
2023-06-13 15:51:18.5390 DESKTOP-J2IMOIE  INFO ;::1;/Home/GetListeStockCentre
2023-06-13 15:51:18.5510 DESKTOP-J2IMOIE  INFO ;::1;/Home/GetListeTypeSortie
2023-06-13 15:51:19.1758 DESKTOP-J2IMOIE  INFO ;::1;/Statistiques/StatistiquesRetourVrac
2023-06-13 15:51:19.4428 DESKTOP-J2IMOIE  INFO ;::1;/Home/GetListeMouvementBonEnlevement
2023-06-13 15:51:19.4428 DESKTOP-J2IMOIE  INFO ;::1;/Home/GetListeCentre
2023-06-13 15:51:19.4698 DESKTOP-J2IMOIE  INFO ;::1;/Home/GetListeConsignationCentre
2023-06-13 15:51:19.4748 DESKTOP-J2IMOIE  INFO ;::1;/Home/GetListeStockCentre
2023-06-13 15:51:19.4748 DESKTOP-J2IMOIE  INFO ;::1;/Home/GetListeDotationCentre
2023-06-13 15:51:19.4917 DESKTOP-J2IMOIE  INFO ;::1;/Home/GetListeTypeFiche
2023-06-13 15:51:19.5187 DESKTOP-J2IMOIE  INFO ;::1;/Home/GetListeTypeFicheConsignation
2023-06-13 15:51:19.5607 DESKTOP-J2IMOIE  INFO ;::1;/Home/GetListeTypeBon
2023-06-13 15:51:19.6187 DESKTOP-J2IMOIE  INFO ;::1;/Home/GetListeStockCentre
2023-06-13 15:51:19.6297 DESKTOP-J2IMOIE  INFO ;::1;/Home/GetListeTypeSortie
2023-06-13 15:51:19.6297 DESKTOP-J2IMOIE  INFO ;::1;/Home/GetListeTypeBonsRetour
2023-06-13 15:51:35.5799 DESKTOP-J2IMOIE  INFO ;::1;/Authentication/Logout
2023-06-13 15:51:35.6839 DESKTOP-J2IMOIE  INFO ;::1;/Authentication/Login?ReturnUrl=%2F
2023-06-13 15:51:46.0565 DESKTOP-J2IMOIE  INFO ;::1;/Authentication/Login
2023-06-13 15:51:46.0814 DESKTOP-J2IMOIE  INFO ;::1;/
2023-06-13 15:51:46.4334 DESKTOP-J2IMOIE  INFO ;::1;/Home/GetListeMouvementBonEnlevement
2023-06-13 15:51:46.4953 DESKTOP-J2IMOIE  INFO ;::1;/Home/GetListeCentre
2023-06-13 15:51:46.5493 DESKTOP-J2IMOIE  INFO ;::1;/Home/GetListeConsignationCentre
2023-06-13 15:51:46.5653 DESKTOP-J2IMOIE  INFO ;::1;/Home/GetListeDotationCentre
2023-06-13 15:51:46.5953 DESKTOP-J2IMOIE  INFO ;::1;/Home/GetListeTypeFiche
2023-06-13 15:51:46.6393 DESKTOP-J2IMOIE  INFO ;::1;/Home/GetListeTypeFicheConsignation
2023-06-13 15:51:46.6583 DESKTOP-J2IMOIE  INFO ;::1;/Home/GetListeStockCentre
2023-06-13 15:51:46.6763 DESKTOP-J2IMOIE  INFO ;::1;/Home/GetListeTypeBon
2023-06-13 15:51:46.7253 DESKTOP-J2IMOIE  INFO ;::1;/Home/GetListeTypeBonsRetour
2023-06-13 15:51:46.7253 DESKTOP-J2IMOIE  INFO ;::1;/Home/GetListeTypeSortie
2023-06-13 15:51:46.7803 DESKTOP-J2IMOIE  INFO ;::1;/Home/GetListeStockCentre
2023-06-13 15:51:48.2909 DESKTOP-J2IMOIE  INFO ;::1;/Statistiques/Index/0
2023-06-13 15:51:49.2477 DESKTOP-J2IMOIE  INFO ;::1;/Home/GetListeMouvementBonEnlevement
2023-06-13 15:51:49.2757 DESKTOP-J2IMOIE  INFO ;::1;/Home/GetListeConsignationCentre
2023-06-13 15:51:49.2757 DESKTOP-J2IMOIE  INFO ;::1;/Home/GetListeTypeFiche
2023-06-13 15:51:49.2757 DESKTOP-J2IMOIE  INFO ;::1;/Home/GetListeDotationCentre
2023-06-13 15:51:49.3087 DESKTOP-J2IMOIE  INFO ;::1;/Home/GetListeStockCentre
2023-06-13 15:51:49.3547 DESKTOP-J2IMOIE  INFO ;::1;/Home/GetListeCentre
2023-06-13 15:51:49.3877 DESKTOP-J2IMOIE  INFO ;::1;/Home/GetListeTypeFicheConsignation
2023-06-13 15:51:49.4126 DESKTOP-J2IMOIE  INFO ;::1;/Home/GetListeTypeBon
2023-06-13 15:51:49.3767 DESKTOP-J2IMOIE  INFO ;::1;/Home/GetListeTypeBonsRetour
2023-06-13 15:51:49.4606 DESKTOP-J2IMOIE  INFO ;::1;/Home/GetListeTypeSortie
2023-06-13 15:51:49.4736 DESKTOP-J2IMOIE  INFO ;::1;/Home/GetListeStockCentre
2023-06-13 15:51:50.1835 DESKTOP-J2IMOIE  INFO ;::1;/Statistiques/Index
2023-06-13 15:51:52.4009 DESKTOP-J2IMOIE  INFO ;::1;/Home/GetListeMouvementBonEnlevement
2023-06-13 15:51:52.4009 DESKTOP-J2IMOIE  INFO ;::1;/Home/GetListeConsignationCentre
2023-06-13 15:51:52.4109 DESKTOP-J2IMOIE  INFO ;::1;/Home/GetListeCentre
2023-06-13 15:51:52.4259 DESKTOP-J2IMOIE  INFO ;::1;/Home/GetListeStockCentre
2023-06-13 15:51:52.4259 DESKTOP-J2IMOIE  INFO ;::1;/Home/GetListeTypeFiche
2023-06-13 15:51:52.4009 DESKTOP-J2IMOIE  INFO ;::1;/Home/GetListeDotationCentre
2023-06-13 15:51:52.4959 DESKTOP-J2IMOIE  INFO ;::1;/Home/GetListeTypeBon
2023-06-13 15:51:52.4959 DESKTOP-J2IMOIE  INFO ;::1;/Home/GetListeTypeBonsRetour
2023-06-13 15:51:52.5809 DESKTOP-J2IMOIE  INFO ;::1;/Home/GetListeTypeSortie
2023-06-13 15:51:52.6379 DESKTOP-J2IMOIE  INFO ;::1;/Home/GetListeStockCentre
2023-06-13 15:51:52.6379 DESKTOP-J2IMOIE  INFO ;::1;/Home/GetListeTypeFicheConsignation
2023-06-13 15:51:59.1253 DESKTOP-J2IMOIE  INFO ;::1;/BonRetourCiterne/Index/0
2023-06-13 15:51:59.4763 DESKTOP-J2IMOIE  INFO ;::1;/Home/GetListeMouvementBonEnlevement
2023-06-13 15:51:59.5332 DESKTOP-J2IMOIE  INFO ;::1;/Home/GetListeCentre
2023-06-13 15:51:59.5842 DESKTOP-J2IMOIE  INFO ;::1;/Home/GetListeTypeFiche
2023-06-13 15:51:59.5652 DESKTOP-J2IMOIE  INFO ;::1;/Home/GetListeDotationCentre
2023-06-13 15:51:59.6352 DESKTOP-J2IMOIE  INFO ;::1;/Home/GetListeTypeFicheConsignation
2023-06-13 15:51:59.6562 DESKTOP-J2IMOIE  INFO ;::1;/Home/GetListeTypeBon
2023-06-13 15:51:59.5652 DESKTOP-J2IMOIE  INFO ;::1;/Home/GetListeConsignationCentre
2023-06-13 15:51:59.7122 DESKTOP-J2IMOIE  INFO ;::1;/Home/GetListeStockCentre
2023-06-13 15:51:59.7512 DESKTOP-J2IMOIE  INFO ;::1;/Home/GetListeTypeSortie
2023-06-13 15:51:59.7542 DESKTOP-J2IMOIE  INFO ;::1;/Home/GetListeTypeBonsRetour
2023-06-13 15:51:59.8322 DESKTOP-J2IMOIE  INFO ;::1;/Home/GetListeStockCentre
2023-06-13 15:52:00.6390 DESKTOP-J2IMOIE  INFO ;::1;/BonRetourCiterne/Details/6
2023-06-13 15:52:01.1289 DESKTOP-J2IMOIE  INFO ;::1;/Home/GetListeMouvementBonEnlevement
2023-06-13 15:52:01.1349 DESKTOP-J2IMOIE  INFO ;::1;/Home/GetListeCentre
2023-06-13 15:52:01.1529 DESKTOP-J2IMOIE  INFO ;::1;/Home/GetListeConsignationCentre
2023-06-13 15:52:01.1529 DESKTOP-J2IMOIE  INFO ;::1;/Home/GetListeDotationCentre
2023-06-13 15:52:01.1529 DESKTOP-J2IMOIE  INFO ;::1;/Home/GetListeStockCentre
2023-06-13 15:52:01.1769 DESKTOP-J2IMOIE  INFO ;::1;/Home/GetListeTypeFiche
2023-06-13 15:52:01.2078 DESKTOP-J2IMOIE  INFO ;::1;/Home/GetListeTypeFicheConsignation
2023-06-13 15:52:01.2078 DESKTOP-J2IMOIE  INFO ;::1;/Home/GetListeTypeBon
2023-06-13 15:52:01.2598 DESKTOP-J2IMOIE  INFO ;::1;/Home/GetListeTypeSortie
2023-06-13 15:52:01.2478 DESKTOP-J2IMOIE  INFO ;::1;/Home/GetListeTypeBonsRetour
2023-06-13 15:52:01.3138 DESKTOP-J2IMOIE  INFO ;::1;/Home/GetListeStockCentre
2023-06-13 15:52:09.6778 DESKTOP-J2IMOIE  INFO ;::1;/BonRetourCiterne/AjouterLivraisonRetourne
2023-06-13 15:52:10.1987 DESKTOP-J2IMOIE  INFO ;::1;/BonRetourCiterne/Index
2023-06-13 15:52:10.3927 DESKTOP-J2IMOIE  INFO ;::1;/Home/GetListeMouvementBonEnlevement
2023-06-13 15:52:10.4207 DESKTOP-J2IMOIE  INFO ;::1;/Home/GetListeCentre
2023-06-13 15:52:10.4207 DESKTOP-J2IMOIE  INFO ;::1;/Home/GetListeConsignationCentre
2023-06-13 15:52:10.4277 DESKTOP-J2IMOIE  INFO ;::1;/Home/GetListeDotationCentre
2023-06-13 15:52:10.4976 DESKTOP-J2IMOIE  INFO ;::1;/Home/GetListeStockCentre
2023-06-13 15:52:10.5256 DESKTOP-J2IMOIE  INFO ;::1;/Home/GetListeTypeFiche
2023-06-13 15:52:10.5436 DESKTOP-J2IMOIE  INFO ;::1;/Home/GetListeTypeFicheConsignation
2023-06-13 15:52:10.5636 DESKTOP-J2IMOIE  INFO ;::1;/Home/GetListeTypeBon
2023-06-13 15:52:10.5896 DESKTOP-J2IMOIE  INFO ;::1;/Home/GetListeTypeSortie
2023-06-13 15:52:10.6006 DESKTOP-J2IMOIE  INFO ;::1;/Home/GetListeStockCentre
2023-06-13 15:52:10.6396 DESKTOP-J2IMOIE  INFO ;::1;/Home/GetListeTypeBonsRetour
2023-06-13 15:52:12.7261 DESKTOP-J2IMOIE  INFO ;::1;/Statistiques/Index/0
2023-06-13 15:52:12.9141 DESKTOP-J2IMOIE  INFO ;::1;/Home/GetListeMouvementBonEnlevement
2023-06-13 15:52:12.9141 DESKTOP-J2IMOIE  INFO ;::1;/Home/GetListeCentre
2023-06-13 15:52:12.9371 DESKTOP-J2IMOIE  INFO ;::1;/Home/GetListeDotationCentre
2023-06-13 15:52:12.9451 DESKTOP-J2IMOIE  INFO ;::1;/Home/GetListeStockCentre
2023-06-13 15:52:12.9451 DESKTOP-J2IMOIE  INFO ;::1;/Home/GetListeConsignationCentre
2023-06-13 15:52:12.9940 DESKTOP-J2IMOIE  INFO ;::1;/Home/GetListeTypeFiche
2023-06-13 15:52:13.0250 DESKTOP-J2IMOIE  INFO ;::1;/Home/GetListeTypeFicheConsignation
2023-06-13 15:52:13.0390 DESKTOP-J2IMOIE  INFO ;::1;/Home/GetListeTypeBonsRetour
2023-06-13 15:52:13.0530 DESKTOP-J2IMOIE  INFO ;::1;/Home/GetListeTypeBon
2023-06-13 15:52:13.0710 DESKTOP-J2IMOIE  INFO ;::1;/Home/GetListeTypeSortie
2023-06-13 15:52:13.0710 DESKTOP-J2IMOIE  INFO ;::1;/Home/GetListeStockCentre
2023-06-13 15:52:14.3657 DESKTOP-J2IMOIE  INFO ;::1;/Statistiques/Index
2023-06-13 15:52:16.0133 DESKTOP-J2IMOIE  INFO ;::1;/Home/GetListeMouvementBonEnlevement
2023-06-13 15:52:16.1363 DESKTOP-J2IMOIE  INFO ;::1;/Home/GetListeCentre
2023-06-13 15:52:16.2783 DESKTOP-J2IMOIE  INFO ;::1;/Home/GetListeConsignationCentre
2023-06-13 15:52:16.2783 DESKTOP-J2IMOIE  INFO ;::1;/Home/GetListeDotationCentre
2023-06-13 15:52:16.3642 DESKTOP-J2IMOIE  INFO ;::1;/Home/GetListeStockCentre
2023-06-13 15:52:16.3832 DESKTOP-J2IMOIE  INFO ;::1;/Home/GetListeTypeFicheConsignation
2023-06-13 15:52:16.3832 DESKTOP-J2IMOIE  INFO ;::1;/Home/GetListeTypeFiche
2023-06-13 15:52:16.4132 DESKTOP-J2IMOIE  INFO ;::1;/Home/GetListeTypeBonsRetour
2023-06-13 15:52:16.4442 DESKTOP-J2IMOIE  INFO ;::1;/Home/GetListeTypeBon
2023-06-13 15:52:16.4572 DESKTOP-J2IMOIE  INFO ;::1;/Home/GetListeTypeSortie
2023-06-13 15:52:16.5522 DESKTOP-J2IMOIE  INFO ;::1;/Home/GetListeStockCentre
2023-06-13 15:52:26.5868 DESKTOP-J2IMOIE  INFO ;::1;/Statistiques/StatistiquesVrac/0
2023-06-13 15:52:26.9197 DESKTOP-J2IMOIE  INFO ;::1;/Home/GetListeMouvementBonEnlevement
2023-06-13 15:52:26.9757 DESKTOP-J2IMOIE  INFO ;::1;/Home/GetListeCentre
2023-06-13 15:52:27.0417 DESKTOP-J2IMOIE  INFO ;::1;/Home/GetListeDotationCentre
2023-06-13 15:52:27.0877 DESKTOP-J2IMOIE  INFO ;::1;/Home/GetListeConsignationCentre
2023-06-13 15:52:27.1277 DESKTOP-J2IMOIE  INFO ;::1;/Home/GetListeTypeFiche
2023-06-13 15:52:27.1517 DESKTOP-J2IMOIE  INFO ;::1;/Home/GetListeStockCentre
2023-06-13 15:52:27.1517 DESKTOP-J2IMOIE  INFO ;::1;/Home/GetListeTypeFicheConsignation
2023-06-13 15:52:27.1847 DESKTOP-J2IMOIE  INFO ;::1;/Home/GetListeTypeBon
2023-06-13 15:52:27.2677 DESKTOP-J2IMOIE  INFO ;::1;/Home/GetListeTypeBonsRetour
2023-06-13 15:52:27.2727 DESKTOP-J2IMOIE  INFO ;::1;/Home/GetListeTypeSortie
2023-06-13 15:52:27.2867 DESKTOP-J2IMOIE  INFO ;::1;/Home/GetListeStockCentre
2023-06-13 15:52:27.6186 DESKTOP-J2IMOIE  INFO ;::1;/Statistiques/StatistiquesVrac
2023-06-13 15:52:27.8605 DESKTOP-J2IMOIE  INFO ;::1;/Home/GetListeMouvementBonEnlevement
2023-06-13 15:52:27.8975 DESKTOP-J2IMOIE  INFO ;::1;/Home/GetListeCentre
2023-06-13 15:52:27.8975 DESKTOP-J2IMOIE  INFO ;::1;/Home/GetListeTypeFiche
2023-06-13 15:52:27.8975 DESKTOP-J2IMOIE  INFO ;::1;/Home/GetListeDotationCentre
2023-06-13 15:52:27.9225 DESKTOP-J2IMOIE  INFO ;::1;/Home/GetListeTypeFicheConsignation
2023-06-13 15:52:27.8975 DESKTOP-J2IMOIE  INFO ;::1;/Home/GetListeStockCentre
2023-06-13 15:52:27.8975 DESKTOP-J2IMOIE  INFO ;::1;/Home/GetListeConsignationCentre
2023-06-13 15:52:27.9895 DESKTOP-J2IMOIE  INFO ;::1;/Home/GetListeTypeBon
2023-06-13 15:52:27.9895 DESKTOP-J2IMOIE  INFO ;::1;/Home/GetListeTypeBonsRetour
2023-06-13 15:52:28.0595 DESKTOP-J2IMOIE  INFO ;::1;/Home/GetListeTypeSortie
2023-06-13 15:52:28.0685 DESKTOP-J2IMOIE  INFO ;::1;/Home/GetListeStockCentre
2023-06-13 15:53:08.6849 DESKTOP-J2IMOIE  INFO ;::1;/Authentication/Logout
2023-06-13 15:53:08.7828 DESKTOP-J2IMOIE  INFO ;::1;/Authentication/Login?ReturnUrl=%2F
2023-06-13 15:53:13.6635 DESKTOP-J2IMOIE  INFO ;::1;/Authentication/Login
2023-06-13 15:53:13.6855 DESKTOP-J2IMOIE  INFO ;::1;/
2023-06-13 15:53:13.9285 DESKTOP-J2IMOIE  INFO ;::1;/Home/GetListeMouvementBonEnlevement
2023-06-13 15:53:13.9285 DESKTOP-J2IMOIE  INFO ;::1;/Home/GetListeCentre
2023-06-13 15:53:14.0033 DESKTOP-J2IMOIE  INFO ;::1;/Home/GetListeConsignationCentre
2023-06-13 15:53:14.0189 DESKTOP-J2IMOIE  INFO ;::1;/Home/GetListeStockCentre
2023-06-13 15:53:14.2026 DESKTOP-J2IMOIE  INFO ;::1;/Home/GetListeTypeFiche
2023-06-13 15:53:14.2376 DESKTOP-J2IMOIE  INFO ;::1;/Home/GetListeDotationCentre
2023-06-13 15:53:14.2688 DESKTOP-J2IMOIE  INFO ;::1;/Home/GetListeTypeFicheConsignation
2023-06-13 15:53:14.2844 DESKTOP-J2IMOIE  INFO ;::1;/Home/GetListeTypeBonsRetour
2023-06-13 15:53:14.3104 DESKTOP-J2IMOIE  INFO ;::1;/Home/GetListeTypeBon
2023-06-13 15:53:14.3274 DESKTOP-J2IMOIE  INFO ;::1;/Home/GetListeStockCentre
2023-06-13 15:53:14.3810 DESKTOP-J2IMOIE  INFO ;::1;/Home/GetListeTypeSortie
2023-06-13 15:53:23.9093 DESKTOP-J2IMOIE  INFO ;::1;/Aredp/Index/0
2023-06-13 15:53:27.8474 DESKTOP-J2IMOIE  INFO ;::1;/Home/GetListeMouvementBonEnlevement
2023-06-13 15:53:27.8743 DESKTOP-J2IMOIE  INFO ;::1;/Home/GetListeConsignationCentre
2023-06-13 15:53:27.8843 DESKTOP-J2IMOIE  INFO ;::1;/Home/GetListeStockCentre
2023-06-13 15:53:27.8743 DESKTOP-J2IMOIE  INFO ;::1;/Home/GetListeDotationCentre
2023-06-13 15:53:27.8953 DESKTOP-J2IMOIE  INFO ;::1;/Home/GetListeCentre
2023-06-13 15:53:27.9923 DESKTOP-J2IMOIE  INFO ;::1;/Home/GetListeTypeFicheConsignation
2023-06-13 15:53:28.1353 DESKTOP-J2IMOIE  INFO ;::1;/Home/GetListeTypeFiche
2023-06-13 15:53:28.3172 DESKTOP-J2IMOIE  INFO ;::1;/Home/GetListeTypeBon
2023-06-13 15:53:28.3392 DESKTOP-J2IMOIE  INFO ;::1;/Home/GetListeTypeSortie
2023-06-13 15:53:28.3662 DESKTOP-J2IMOIE  INFO ;::1;/Home/GetListeStockCentre
2023-06-13 15:53:28.3912 DESKTOP-J2IMOIE  INFO ;::1;/Home/GetListeTypeBonsRetour
