2023-05-31 10:20:06.7166 DESKTOP-J2IMOIE  INFO ;::1;/Authentication/Login?ReturnUrl=%2F
2023-05-31 10:22:57.0903 DESKTOP-J2IMOIE  INFO ;::1;/Authentication/Login
2023-05-31 10:23:03.1939 DESKTOP-J2IMOIE  INFO ;::1;/
2023-05-31 10:23:06.6920 DESKTOP-J2IMOIE  INFO ;::1;/Home/GetListeMouvementBonEnlevement
2023-05-31 10:23:06.6920 DESKTOP-J2IMOIE  INFO ;::1;/Home/GetListeConsignationCentre
2023-05-31 10:23:06.6920 DESKTOP-J2IMOIE  INFO ;::1;/Home/GetListeStockCentre
2023-05-31 10:23:06.7040 DESKTOP-J2IMOIE  INFO ;::1;/Home/GetListeDotationCentre
2023-05-31 10:23:07.0079 DESKTOP-J2IMOIE  INFO ;::1;/Home/GetListeTypeFicheConsignation
2023-05-31 10:23:07.1169 DESKTOP-J2IMOIE  INFO ;::1;/Home/GetListeTypeFiche
2023-05-31 10:23:07.1419 DESKTOP-J2IMOIE  INFO ;::1;/Home/GetListeTypeBon
2023-05-31 10:23:07.1419 DESKTOP-J2IMOIE  INFO ;::1;/Home/GetListeTypeBonsRetour
2023-05-31 10:23:07.2189 DESKTOP-J2IMOIE  INFO ;::1;/Home/GetListeTypeSortie
2023-05-31 10:23:07.2759 DESKTOP-J2IMOIE  INFO ;::1;/Home/GetListeStockCentre
2023-05-31 10:23:07.2989 DESKTOP-J2IMOIE  INFO ;::1;/Home/GetListeCentre
2023-05-31 10:23:09.5433 DESKTOP-J2IMOIE  INFO ;::1;/Home/GetListeTypeBon
2023-05-31 10:23:12.9185 DESKTOP-J2IMOIE  INFO ;::1;/BonChargementCiterne/ValiderTypeBon
2023-05-31 10:23:12.9615 DESKTOP-J2IMOIE  INFO ;::1;/BonChargementCiterne/Ajouter?idTypeBon=1
2023-05-31 10:23:19.0151 DESKTOP-J2IMOIE  INFO ;::1;/Home/GetListeCentre
2023-05-31 10:23:19.0171 DESKTOP-J2IMOIE  INFO ;::1;/Home/GetListeMouvementBonEnlevement
2023-05-31 10:23:19.0431 DESKTOP-J2IMOIE  INFO ;::1;/Home/GetListeConsignationCentre
2023-05-31 10:23:19.0901 DESKTOP-J2IMOIE  INFO ;::1;/Home/GetListeStockCentre
2023-05-31 10:23:19.0511 DESKTOP-J2IMOIE  INFO ;::1;/Home/GetListeDotationCentre
2023-05-31 10:23:19.1181 DESKTOP-J2IMOIE  INFO ;::1;/Home/GetListeTypeFiche
2023-05-31 10:23:19.1491 DESKTOP-J2IMOIE  INFO ;::1;/Home/GetListeTypeFicheConsignation
2023-05-31 10:23:19.2530 DESKTOP-J2IMOIE  INFO ;::1;/Home/GetListeTypeBonsRetour
2023-05-31 10:23:19.2900 DESKTOP-J2IMOIE  INFO ;::1;/Home/GetListeStockCentre
2023-05-31 10:23:19.2440 DESKTOP-J2IMOIE  INFO ;::1;/Home/GetListeTypeBon
2023-05-31 10:23:19.2530 DESKTOP-J2IMOIE  INFO ;::1;/Home/GetListeTypeSortie
2023-05-31 10:23:36.5639 DESKTOP-J2IMOIE  INFO ;::1;/Home/GetClient/?Code=0
2023-05-31 10:23:39.7332 DESKTOP-J2IMOIE  INFO ;::1;/Home/GetDestination?Code=1
2023-05-31 10:23:48.1722 DESKTOP-J2IMOIE  INFO ;::1;/Home/GetClient/?Code=14
2023-05-31 10:23:51.6804 DESKTOP-J2IMOIE  INFO ;::1;/Home/GetClient/?Code=13
2023-05-31 10:23:54.3497 DESKTOP-J2IMOIE  INFO ;::1;/Home/GetDestination?Code=1
2023-05-31 10:23:58.4268 DESKTOP-J2IMOIE  INFO ;::1;/Home/GetDestination?Code=1
2023-05-31 10:24:01.6990 DESKTOP-J2IMOIE  INFO ;::1;/Home/GetClient/?Code=1459
2023-05-31 10:24:06.5229 DESKTOP-J2IMOIE  INFO ;::1;/BonChargementCiterne/Ajouter
2023-05-31 10:24:07.1837 DESKTOP-J2IMOIE  INFO ;::1;/BonChargementCiterne
2023-05-31 10:24:08.0155 DESKTOP-J2IMOIE  INFO ;::1;/Home/GetListeMouvementBonEnlevement
2023-05-31 10:24:08.0275 DESKTOP-J2IMOIE  INFO ;::1;/Home/GetListeCentre
2023-05-31 10:24:08.0325 DESKTOP-J2IMOIE  INFO ;::1;/Home/GetListeDotationCentre
2023-05-31 10:24:08.0325 DESKTOP-J2IMOIE  INFO ;::1;/Home/GetListeConsignationCentre
2023-05-31 10:24:08.0325 DESKTOP-J2IMOIE  INFO ;::1;/Home/GetListeStockCentre
2023-05-31 10:24:08.0795 DESKTOP-J2IMOIE  INFO ;::1;/Home/GetListeTypeFicheConsignation
2023-05-31 10:24:08.0795 DESKTOP-J2IMOIE  INFO ;::1;/Home/GetListeTypeBon
2023-05-31 10:24:08.1025 DESKTOP-J2IMOIE  INFO ;::1;/Home/GetListeTypeBonsRetour
2023-05-31 10:24:08.1495 DESKTOP-J2IMOIE  INFO ;::1;/Home/GetListeTypeSortie
2023-05-31 10:24:08.1495 DESKTOP-J2IMOIE  INFO ;::1;/Home/GetListeStockCentre
2023-05-31 10:24:08.1255 DESKTOP-J2IMOIE  INFO ;::1;/Home/GetListeTypeFiche
2023-05-31 10:24:09.6581 DESKTOP-J2IMOIE  INFO ;::1;/BonChargementCiterne/Details/1039
2023-05-31 10:24:10.5429 DESKTOP-J2IMOIE  INFO ;::1;/Home/GetListeTypeFiche
2023-05-31 10:24:10.5469 DESKTOP-J2IMOIE  INFO ;::1;/Home/GetListeDotationCentre
2023-05-31 10:24:10.5469 DESKTOP-J2IMOIE  INFO ;::1;/Home/GetListeCentre
2023-05-31 10:24:10.5739 DESKTOP-J2IMOIE  INFO ;::1;/Home/GetListeMouvementBonEnlevement
2023-05-31 10:24:10.6329 DESKTOP-J2IMOIE  INFO ;::1;/Home/GetListeConsignationCentre
2023-05-31 10:24:10.6329 DESKTOP-J2IMOIE  INFO ;::1;/Home/GetListeStockCentre
2023-05-31 10:24:10.6669 DESKTOP-J2IMOIE  INFO ;::1;/Home/GetListeTypeFicheConsignation
2023-05-31 10:24:10.7269 DESKTOP-J2IMOIE  INFO ;::1;/Home/GetListeTypeBonsRetour
2023-05-31 10:24:10.7649 DESKTOP-J2IMOIE  INFO ;::1;/Home/GetListeTypeBon
2023-05-31 10:24:10.8108 DESKTOP-J2IMOIE  INFO ;::1;/Home/GetListeStockCentre
2023-05-31 10:24:10.8338 DESKTOP-J2IMOIE  INFO ;::1;/Home/GetListeTypeSortie
2023-05-31 10:24:11.3287 DESKTOP-J2IMOIE  INFO ;::1;/BonChargementCiterne/ModifierBonChargement/1039
2023-05-31 10:24:11.9446 DESKTOP-J2IMOIE  INFO ;::1;/Home/GetListeMouvementBonEnlevement
2023-05-31 10:24:11.9446 DESKTOP-J2IMOIE  INFO ;::1;/Home/GetListeCentre
2023-05-31 10:24:11.9836 DESKTOP-J2IMOIE  INFO ;::1;/Home/GetListeConsignationCentre
2023-05-31 10:24:11.9896 DESKTOP-J2IMOIE  INFO ;::1;/Home/GetListeDotationCentre
2023-05-31 10:24:12.0216 DESKTOP-J2IMOIE  INFO ;::1;/Home/GetListeStockCentre
2023-05-31 10:24:12.1375 DESKTOP-J2IMOIE  INFO ;::1;/Home/GetListeTypeFiche
2023-05-31 10:24:12.2195 DESKTOP-J2IMOIE  INFO ;::1;/Home/GetListeTypeFicheConsignation
2023-05-31 10:24:12.4255 DESKTOP-J2IMOIE  INFO ;::1;/Home/GetListeTypeBon
2023-05-31 10:24:12.4585 DESKTOP-J2IMOIE  INFO ;::1;/Home/GetListeTypeBonsRetour
2023-05-31 10:24:12.4904 DESKTOP-J2IMOIE  INFO ;::1;/Home/GetListeStockCentre
2023-05-31 10:24:12.4834 DESKTOP-J2IMOIE  INFO ;::1;/Home/GetListeTypeSortie
2023-05-31 10:24:16.3642 DESKTOP-J2IMOIE  INFO ;::1;/BonChargementCiterne/ModifierBonChargement
2023-05-31 10:24:16.8831 DESKTOP-J2IMOIE  INFO ;::1;/BonChargementCiterne
2023-05-31 10:24:17.0781 DESKTOP-J2IMOIE  INFO ;::1;/Home/GetListeMouvementBonEnlevement
2023-05-31 10:24:17.0861 DESKTOP-J2IMOIE  INFO ;::1;/Home/GetListeCentre
2023-05-31 10:24:17.0861 DESKTOP-J2IMOIE  INFO ;::1;/Home/GetListeConsignationCentre
2023-05-31 10:24:17.0971 DESKTOP-J2IMOIE  INFO ;::1;/Home/GetListeStockCentre
2023-05-31 10:24:17.1238 DESKTOP-J2IMOIE  INFO ;::1;/Home/GetListeDotationCentre
2023-05-31 10:24:17.1408 DESKTOP-J2IMOIE  INFO ;::1;/Home/GetListeTypeFicheConsignation
2023-05-31 10:24:17.1688 DESKTOP-J2IMOIE  INFO ;::1;/Home/GetListeTypeBon
2023-05-31 10:24:17.1748 DESKTOP-J2IMOIE  INFO ;::1;/Home/GetListeTypeBonsRetour
2023-05-31 10:24:17.1748 DESKTOP-J2IMOIE  INFO ;::1;/Home/GetListeTypeFiche
2023-05-31 10:24:17.2020 DESKTOP-J2IMOIE  INFO ;::1;/Home/GetListeTypeSortie
2023-05-31 10:24:17.2457 DESKTOP-J2IMOIE  INFO ;::1;/Home/GetListeStockCentre
2023-05-31 10:24:18.5040 DESKTOP-J2IMOIE  INFO ;::1;/BonChargementCiterne/Details/1039
2023-05-31 10:24:18.9629 DESKTOP-J2IMOIE  INFO ;::1;/Home/GetListeMouvementBonEnlevement
2023-05-31 10:24:18.9709 DESKTOP-J2IMOIE  INFO ;::1;/Home/GetListeCentre
2023-05-31 10:24:18.9959 DESKTOP-J2IMOIE  INFO ;::1;/Home/GetListeDotationCentre
2023-05-31 10:24:19.0039 DESKTOP-J2IMOIE  INFO ;::1;/Home/GetListeTypeBon
2023-05-31 10:24:19.0159 DESKTOP-J2IMOIE  INFO ;::1;/Home/GetListeStockCentre
2023-05-31 10:24:19.0159 DESKTOP-J2IMOIE  INFO ;::1;/Home/GetListeTypeFicheConsignation
2023-05-31 10:24:19.0489 DESKTOP-J2IMOIE  INFO ;::1;/Home/GetListeTypeFiche
2023-05-31 10:24:19.0959 DESKTOP-J2IMOIE  INFO ;::1;/Home/GetListeTypeBonsRetour
2023-05-31 10:24:19.1289 DESKTOP-J2IMOIE  INFO ;::1;/Home/GetListeTypeSortie
2023-05-31 10:24:19.1579 DESKTOP-J2IMOIE  INFO ;::1;/Home/GetListeConsignationCentre
2023-05-31 10:24:19.1579 DESKTOP-J2IMOIE  INFO ;::1;/Home/GetListeStockCentre
2023-05-31 10:24:20.8065 DESKTOP-J2IMOIE  INFO ;::1;/BonChargementCiterne/ModifierBonChargement/1039
2023-05-31 10:24:21.0124 DESKTOP-J2IMOIE  INFO ;::1;/Home/GetListeStockCentre
2023-05-31 10:24:21.0124 DESKTOP-J2IMOIE  INFO ;::1;/Home/GetListeTypeFiche
2023-05-31 10:24:21.0124 DESKTOP-J2IMOIE  INFO ;::1;/Home/GetListeCentre
2023-05-31 10:24:21.0174 DESKTOP-J2IMOIE  INFO ;::1;/Home/GetListeMouvementBonEnlevement
2023-05-31 10:24:21.0174 DESKTOP-J2IMOIE  INFO ;::1;/Home/GetListeDotationCentre
2023-05-31 10:24:21.0404 DESKTOP-J2IMOIE  INFO ;::1;/Home/GetListeConsignationCentre
2023-05-31 10:24:21.0404 DESKTOP-J2IMOIE  INFO ;::1;/Home/GetListeTypeFicheConsignation
2023-05-31 10:24:21.0664 DESKTOP-J2IMOIE  INFO ;::1;/Home/GetListeTypeSortie
2023-05-31 10:24:21.1264 DESKTOP-J2IMOIE  INFO ;::1;/Home/GetListeStockCentre
2023-05-31 10:24:21.0664 DESKTOP-J2IMOIE  INFO ;::1;/Home/GetListeTypeBon
2023-05-31 10:24:21.0664 DESKTOP-J2IMOIE  INFO ;::1;/Home/GetListeTypeBonsRetour
2023-05-31 10:24:29.3835 DESKTOP-J2IMOIE  INFO ;::1;/BonChargementCiterne/ModifierBonChargement
2023-05-31 10:24:29.4484 DESKTOP-J2IMOIE  INFO ;::1;/BonChargementCiterne
2023-05-31 10:24:29.8283 DESKTOP-J2IMOIE  INFO ;::1;/Home/GetListeConsignationCentre
2023-05-31 10:24:29.8283 DESKTOP-J2IMOIE  INFO ;::1;/Home/GetListeStockCentre
2023-05-31 10:24:29.8533 DESKTOP-J2IMOIE  INFO ;::1;/Home/GetListeCentre
2023-05-31 10:24:29.8643 DESKTOP-J2IMOIE  INFO ;::1;/Home/GetListeDotationCentre
2023-05-31 10:24:29.8643 DESKTOP-J2IMOIE  INFO ;::1;/Home/GetListeMouvementBonEnlevement
2023-05-31 10:24:29.8863 DESKTOP-J2IMOIE  INFO ;::1;/Home/GetListeTypeFiche
2023-05-31 10:24:29.9683 DESKTOP-J2IMOIE  INFO ;::1;/Home/GetListeTypeBon
2023-05-31 10:24:29.9853 DESKTOP-J2IMOIE  INFO ;::1;/Home/GetListeTypeFicheConsignation
2023-05-31 10:24:29.9853 DESKTOP-J2IMOIE  INFO ;::1;/Home/GetListeTypeSortie
2023-05-31 10:24:29.9853 DESKTOP-J2IMOIE  INFO ;::1;/Home/GetListeTypeBonsRetour
2023-05-31 10:24:30.0143 DESKTOP-J2IMOIE  INFO ;::1;/Home/GetListeStockCentre
2023-05-31 10:24:39.3291 DESKTOP-J2IMOIE  INFO ;::1;/Authentication/Logout
2023-05-31 10:24:39.4201 DESKTOP-J2IMOIE  INFO ;::1;/Authentication/Login?ReturnUrl=%2F
2023-05-31 10:24:44.1600 DESKTOP-J2IMOIE  INFO ;::1;/Authentication/Login
2023-05-31 10:24:44.5279 DESKTOP-J2IMOIE  INFO ;::1;/
2023-05-31 10:24:44.7268 DESKTOP-J2IMOIE  INFO ;::1;/Home/GetListeMouvementBonEnlevement
2023-05-31 10:24:44.7268 DESKTOP-J2IMOIE  INFO ;::1;/Home/GetListeCentre
2023-05-31 10:24:44.7408 DESKTOP-J2IMOIE  INFO ;::1;/Home/GetListeConsignationCentre
2023-05-31 10:24:44.8058 DESKTOP-J2IMOIE  INFO ;::1;/Home/GetListeDotationCentre
2023-05-31 10:24:44.8168 DESKTOP-J2IMOIE  INFO ;::1;/Home/GetListeTypeFicheConsignation
2023-05-31 10:24:44.8168 DESKTOP-J2IMOIE  INFO ;::1;/Home/GetListeTypeFiche
2023-05-31 10:24:44.8568 DESKTOP-J2IMOIE  INFO ;::1;/Home/GetListeTypeBonsRetour
2023-05-31 10:24:44.8798 DESKTOP-J2IMOIE  INFO ;::1;/Home/GetListeTypeSortie
2023-05-31 10:24:44.9048 DESKTOP-J2IMOIE  INFO ;::1;/Home/GetListeStockCentre
2023-05-31 10:24:44.9488 DESKTOP-J2IMOIE  INFO ;::1;/Home/GetListeTypeBon
2023-05-31 10:24:44.9578 DESKTOP-J2IMOIE  INFO ;::1;/Home/GetListeStockCentre
2023-05-31 10:24:46.9963 DESKTOP-J2IMOIE  INFO ;::1;/Statistiques/Index/0
2023-05-31 10:25:00.6261 DESKTOP-J2IMOIE  INFO ;::1;/Home/GetListeMouvementBonEnlevement
2023-05-31 10:25:00.6451 DESKTOP-J2IMOIE  INFO ;::1;/Home/GetListeConsignationCentre
2023-05-31 10:25:00.6451 DESKTOP-J2IMOIE  INFO ;::1;/Home/GetListeStockCentre
2023-05-31 10:25:00.6451 DESKTOP-J2IMOIE  INFO ;::1;/Home/GetListeCentre
2023-05-31 10:25:00.6701 DESKTOP-J2IMOIE  INFO ;::1;/Home/GetListeTypeFiche
2023-05-31 10:25:00.6781 DESKTOP-J2IMOIE  INFO ;::1;/Home/GetListeDotationCentre
2023-05-31 10:25:00.7230 DESKTOP-J2IMOIE  INFO ;::1;/Home/GetListeTypeBon
2023-05-31 10:25:00.7420 DESKTOP-J2IMOIE  INFO ;::1;/Home/GetListeTypeFicheConsignation
2023-05-31 10:25:00.7420 DESKTOP-J2IMOIE  INFO ;::1;/Home/GetListeTypeBonsRetour
2023-05-31 10:25:00.8210 DESKTOP-J2IMOIE  INFO ;::1;/Home/GetListeTypeSortie
2023-05-31 10:25:00.9820 DESKTOP-J2IMOIE  INFO ;::1;/Home/GetListeStockCentre
2023-05-31 10:25:04.1322 DESKTOP-J2IMOIE  INFO ;::1;/Statistiques/Index
2023-05-31 10:25:07.0675 DESKTOP-J2IMOIE  INFO ;::1;/Home/GetListeMouvementBonEnlevement
2023-05-31 10:25:07.0675 DESKTOP-J2IMOIE  INFO ;::1;/Home/GetListeCentre
2023-05-31 10:25:07.0925 DESKTOP-J2IMOIE  INFO ;::1;/Home/GetListeDotationCentre
2023-05-31 10:25:07.0955 DESKTOP-J2IMOIE  INFO ;::1;/Home/GetListeConsignationCentre
2023-05-31 10:25:07.1895 DESKTOP-J2IMOIE  INFO ;::1;/Home/GetListeStockCentre
2023-05-31 10:25:07.2385 DESKTOP-J2IMOIE  INFO ;::1;/Home/GetListeTypeFiche
2023-05-31 10:25:07.5194 DESKTOP-J2IMOIE  INFO ;::1;/Home/GetListeTypeSortie
2023-05-31 10:25:07.5194 DESKTOP-J2IMOIE  INFO ;::1;/Home/GetListeTypeBonsRetour
2023-05-31 10:25:07.5194 DESKTOP-J2IMOIE  INFO ;::1;/Home/GetListeTypeFicheConsignation
2023-05-31 10:25:07.5674 DESKTOP-J2IMOIE  INFO ;::1;/Home/GetListeStockCentre
2023-05-31 10:25:07.5864 DESKTOP-J2IMOIE  INFO ;::1;/Home/GetListeTypeBon
2023-05-31 10:25:41.2255 DESKTOP-J2IMOIE  INFO ;::1;/BonChargementCiterne/Instance/0
2023-05-31 10:25:41.8413 DESKTOP-J2IMOIE  INFO ;::1;/Home/GetListeMouvementBonEnlevement
2023-05-31 10:25:41.8483 DESKTOP-J2IMOIE  INFO ;::1;/Home/GetListeConsignationCentre
2023-05-31 10:25:41.8483 DESKTOP-J2IMOIE  INFO ;::1;/Home/GetListeCentre
2023-05-31 10:25:41.8653 DESKTOP-J2IMOIE  INFO ;::1;/Home/GetListeDotationCentre
2023-05-31 10:25:41.8803 DESKTOP-J2IMOIE  INFO ;::1;/Home/GetListeStockCentre
2023-05-31 10:25:41.9033 DESKTOP-J2IMOIE  INFO ;::1;/Home/GetListeTypeFiche
2023-05-31 10:25:41.9463 DESKTOP-J2IMOIE  INFO ;::1;/Home/GetListeTypeFicheConsignation
2023-05-31 10:25:41.9653 DESKTOP-J2IMOIE  INFO ;::1;/Home/GetListeTypeBonsRetour
2023-05-31 10:25:41.9843 DESKTOP-J2IMOIE  INFO ;::1;/Home/GetListeTypeBon
2023-05-31 10:25:42.0173 DESKTOP-J2IMOIE  INFO ;::1;/Home/GetListeStockCentre
2023-05-31 10:25:42.0563 DESKTOP-J2IMOIE  INFO ;::1;/Home/GetListeTypeSortie
2023-05-31 10:25:43.5869 DESKTOP-J2IMOIE  INFO ;::1;/BonChargementCiterne/Details/1039
2023-05-31 10:25:43.8349 DESKTOP-J2IMOIE  INFO ;::1;/Home/GetListeMouvementBonEnlevement
2023-05-31 10:25:43.8438 DESKTOP-J2IMOIE  INFO ;::1;/Home/GetListeConsignationCentre
2023-05-31 10:25:43.8438 DESKTOP-J2IMOIE  INFO ;::1;/Home/GetListeCentre
2023-05-31 10:25:43.8438 DESKTOP-J2IMOIE  INFO ;::1;/Home/GetListeStockCentre
2023-05-31 10:25:43.8438 DESKTOP-J2IMOIE  INFO ;::1;/Home/GetListeDotationCentre
2023-05-31 10:25:43.8688 DESKTOP-J2IMOIE  INFO ;::1;/Home/GetListeTypeFicheConsignation
2023-05-31 10:25:43.9308 DESKTOP-J2IMOIE  INFO ;::1;/Home/GetListeTypeBon
2023-05-31 10:25:43.9308 DESKTOP-J2IMOIE  INFO ;::1;/Home/GetListeTypeFiche
2023-05-31 10:25:43.9578 DESKTOP-J2IMOIE  INFO ;::1;/Home/GetListeTypeBonsRetour
2023-05-31 10:25:43.9578 DESKTOP-J2IMOIE  INFO ;::1;/Home/GetListeStockCentre
2023-05-31 10:25:43.9578 DESKTOP-J2IMOIE  INFO ;::1;/Home/GetListeTypeSortie
2023-05-31 10:25:45.3865 DESKTOP-J2IMOIE  INFO ;::1;/BonChargementCiterne/ModifierBonChargement/1039
2023-05-31 10:25:45.5694 DESKTOP-J2IMOIE  INFO ;::1;/Home/GetListeMouvementBonEnlevement
2023-05-31 10:25:45.5794 DESKTOP-J2IMOIE  INFO ;::1;/Home/GetListeConsignationCentre
2023-05-31 10:25:45.5794 DESKTOP-J2IMOIE  INFO ;::1;/Home/GetListeCentre
2023-05-31 10:25:45.5964 DESKTOP-J2IMOIE  INFO ;::1;/Home/GetListeDotationCentre
2023-05-31 10:25:45.6144 DESKTOP-J2IMOIE  INFO ;::1;/Home/GetListeTypeFiche
2023-05-31 10:25:45.6384 DESKTOP-J2IMOIE  INFO ;::1;/Home/GetListeStockCentre
2023-05-31 10:25:45.6704 DESKTOP-J2IMOIE  INFO ;::1;/Home/GetListeTypeBon
2023-05-31 10:25:45.6754 DESKTOP-J2IMOIE  INFO ;::1;/Home/GetListeTypeFicheConsignation
2023-05-31 10:25:45.7224 DESKTOP-J2IMOIE  INFO ;::1;/Home/GetListeTypeSortie
2023-05-31 10:25:45.7174 DESKTOP-J2IMOIE  INFO ;::1;/Home/GetListeTypeBonsRetour
2023-05-31 10:25:45.7494 DESKTOP-J2IMOIE  INFO ;::1;/Home/GetListeStockCentre
2023-05-31 10:26:15.9373 DESKTOP-J2IMOIE  INFO ;::1;/BonChargementCiterne/ModifierBonChargement
2023-05-31 10:26:16.0422 DESKTOP-J2IMOIE  INFO ;::1;/BonChargementCiterne
2023-05-31 10:26:16.4481 DESKTOP-J2IMOIE  INFO ;::1;/Home/GetListeConsignationCentre
2023-05-31 10:26:16.5531 DESKTOP-J2IMOIE  INFO ;::1;/Home/GetListeDotationCentre
2023-05-31 10:26:16.5531 DESKTOP-J2IMOIE  INFO ;::1;/Home/GetListeMouvementBonEnlevement
2023-05-31 10:26:16.5531 DESKTOP-J2IMOIE  INFO ;::1;/Home/GetListeCentre
2023-05-31 10:26:16.6431 DESKTOP-J2IMOIE  INFO ;::1;/Home/GetListeStockCentre
2023-05-31 10:26:16.6591 DESKTOP-J2IMOIE  INFO ;::1;/Home/GetListeTypeFiche
2023-05-31 10:26:16.7141 DESKTOP-J2IMOIE  INFO ;::1;/Home/GetListeTypeFicheConsignation
2023-05-31 10:26:16.7351 DESKTOP-J2IMOIE  INFO ;::1;/Home/GetListeTypeBon
2023-05-31 10:26:16.7351 DESKTOP-J2IMOIE  INFO ;::1;/Home/GetListeStockCentre
2023-05-31 10:26:16.7861 DESKTOP-J2IMOIE  INFO ;::1;/Home/GetListeTypeBonsRetour
2023-05-31 10:26:16.8400 DESKTOP-J2IMOIE  INFO ;::1;/Home/GetListeTypeSortie
2023-05-31 10:26:24.6132 DESKTOP-J2IMOIE  INFO ;::1;/Statistiques/Index/0
2023-05-31 10:26:24.9111 DESKTOP-J2IMOIE  INFO ;::1;/Home/GetListeMouvementBonEnlevement
2023-05-31 10:26:25.0591 DESKTOP-J2IMOIE  INFO ;::1;/Home/GetListeConsignationCentre
2023-05-31 10:26:25.0741 DESKTOP-J2IMOIE  INFO ;::1;/Home/GetListeDotationCentre
2023-05-31 10:26:25.0241 DESKTOP-J2IMOIE  INFO ;::1;/Home/GetListeCentre
2023-05-31 10:26:25.1571 DESKTOP-J2IMOIE  INFO ;::1;/Home/GetListeTypeFiche
2023-05-31 10:26:25.1571 DESKTOP-J2IMOIE  INFO ;::1;/Home/GetListeStockCentre
2023-05-31 10:26:25.2381 DESKTOP-J2IMOIE  INFO ;::1;/Home/GetListeTypeFicheConsignation
2023-05-31 10:26:25.3310 DESKTOP-J2IMOIE  INFO ;::1;/Home/GetListeTypeBonsRetour
2023-05-31 10:26:25.3650 DESKTOP-J2IMOIE  INFO ;::1;/Home/GetListeTypeBon
2023-05-31 10:26:25.3770 DESKTOP-J2IMOIE  INFO ;::1;/Home/GetListeStockCentre
2023-05-31 10:26:25.4280 DESKTOP-J2IMOIE  INFO ;::1;/Home/GetListeTypeSortie
2023-05-31 10:26:26.1648 DESKTOP-J2IMOIE  INFO ;::1;/Statistiques/Index
2023-05-31 10:26:27.7585 DESKTOP-J2IMOIE  INFO ;::1;/Home/GetListeMouvementBonEnlevement
2023-05-31 10:26:27.7585 DESKTOP-J2IMOIE  INFO ;::1;/Home/GetListeCentre
2023-05-31 10:26:27.7995 DESKTOP-J2IMOIE  INFO ;::1;/Home/GetListeTypeFicheConsignation
2023-05-31 10:26:27.7865 DESKTOP-J2IMOIE  INFO ;::1;/Home/GetListeTypeFiche
2023-05-31 10:26:27.7795 DESKTOP-J2IMOIE  INFO ;::1;/Home/GetListeStockCentre
2023-05-31 10:26:27.7865 DESKTOP-J2IMOIE  INFO ;::1;/Home/GetListeDotationCentre
2023-05-31 10:26:27.9204 DESKTOP-J2IMOIE  INFO ;::1;/Home/GetListeTypeBonsRetour
2023-05-31 10:26:27.9374 DESKTOP-J2IMOIE  INFO ;::1;/Home/GetListeTypeSortie
2023-05-31 10:26:27.9514 DESKTOP-J2IMOIE  INFO ;::1;/Home/GetListeStockCentre
2023-05-31 10:26:27.7995 DESKTOP-J2IMOIE  INFO ;::1;/Home/GetListeConsignationCentre
2023-05-31 10:26:27.8734 DESKTOP-J2IMOIE  INFO ;::1;/Home/GetListeTypeBon
2023-05-31 10:26:40.5244 DESKTOP-J2IMOIE  INFO ;::1;/Home/GetListeTypeBonsRetour
2023-05-31 10:26:51.1383 DESKTOP-J2IMOIE  INFO ;::1;/Authentication/Logout
2023-05-31 10:26:51.2122 DESKTOP-J2IMOIE  INFO ;::1;/Authentication/Login?ReturnUrl=%2F
2023-05-31 10:26:58.7844 DESKTOP-J2IMOIE  INFO ;::1;/Authentication/Login
2023-05-31 10:26:58.8514 DESKTOP-J2IMOIE  INFO ;::1;/
2023-05-31 10:26:59.2743 DESKTOP-J2IMOIE  INFO ;::1;/Home/GetListeDotationCentre
2023-05-31 10:26:59.2983 DESKTOP-J2IMOIE  INFO ;::1;/Home/GetListeStockCentre
2023-05-31 10:26:59.2873 DESKTOP-J2IMOIE  INFO ;::1;/Home/GetListeConsignationCentre
2023-05-31 10:26:59.2873 DESKTOP-J2IMOIE  INFO ;::1;/Home/GetListeMouvementBonEnlevement
2023-05-31 10:26:59.2983 DESKTOP-J2IMOIE  INFO ;::1;/Home/GetListeTypeFiche
2023-05-31 10:26:59.3793 DESKTOP-J2IMOIE  INFO ;::1;/Home/GetListeCentre
2023-05-31 10:26:59.4043 DESKTOP-J2IMOIE  INFO ;::1;/Home/GetListeTypeFicheConsignation
2023-05-31 10:26:59.4403 DESKTOP-J2IMOIE  INFO ;::1;/Home/GetListeStockCentre
2023-05-31 10:26:59.4403 DESKTOP-J2IMOIE  INFO ;::1;/Home/GetListeTypeBonsRetour
2023-05-31 10:26:59.4403 DESKTOP-J2IMOIE  INFO ;::1;/Home/GetListeTypeSortie
2023-05-31 10:26:59.4843 DESKTOP-J2IMOIE  INFO ;::1;/Home/GetListeTypeBon
2023-05-31 10:27:01.1909 DESKTOP-J2IMOIE  INFO ;::1;/BonChargementCiterne/Index/0
2023-05-31 10:27:01.4038 DESKTOP-J2IMOIE  INFO ;::1;/Home/GetListeMouvementBonEnlevement
2023-05-31 10:27:01.4078 DESKTOP-J2IMOIE  INFO ;::1;/Home/GetListeCentre
2023-05-31 10:27:01.4078 DESKTOP-J2IMOIE  INFO ;::1;/Home/GetListeConsignationCentre
2023-05-31 10:27:01.4498 DESKTOP-J2IMOIE  INFO ;::1;/Home/GetListeDotationCentre
2023-05-31 10:27:01.4868 DESKTOP-J2IMOIE  INFO ;::1;/Home/GetListeTypeBon
2023-05-31 10:27:01.4868 DESKTOP-J2IMOIE  INFO ;::1;/Home/GetListeTypeFicheConsignation
2023-05-31 10:27:01.5018 DESKTOP-J2IMOIE  INFO ;::1;/Home/GetListeTypeFiche
2023-05-31 10:27:01.4868 DESKTOP-J2IMOIE  INFO ;::1;/Home/GetListeStockCentre
2023-05-31 10:27:01.5218 DESKTOP-J2IMOIE  INFO ;::1;/Home/GetListeTypeBonsRetour
2023-05-31 10:27:01.5658 DESKTOP-J2IMOIE  INFO ;::1;/Home/GetListeTypeSortie
2023-05-31 10:27:01.6368 DESKTOP-J2IMOIE  INFO ;::1;/Home/GetListeStockCentre
2023-05-31 10:27:02.5695 DESKTOP-J2IMOIE  INFO ;::1;/BonChargementCiterne/Details/1039
2023-05-31 10:27:02.8215 DESKTOP-J2IMOIE  INFO ;::1;/Home/GetListeMouvementBonEnlevement
2023-05-31 10:27:02.8445 DESKTOP-J2IMOIE  INFO ;::1;/Home/GetListeCentre
2023-05-31 10:27:02.8445 DESKTOP-J2IMOIE  INFO ;::1;/Home/GetListeConsignationCentre
2023-05-31 10:27:02.8445 DESKTOP-J2IMOIE  INFO ;::1;/Home/GetListeDotationCentre
2023-05-31 10:27:02.8925 DESKTOP-J2IMOIE  INFO ;::1;/Home/GetListeTypeBon
2023-05-31 10:27:02.8445 DESKTOP-J2IMOIE  INFO ;::1;/Home/GetListeTypeFiche
2023-05-31 10:27:02.9255 DESKTOP-J2IMOIE  INFO ;::1;/Home/GetListeTypeSortie
2023-05-31 10:27:02.9255 DESKTOP-J2IMOIE  INFO ;::1;/Home/GetListeTypeBonsRetour
2023-05-31 10:27:02.8445 DESKTOP-J2IMOIE  INFO ;::1;/Home/GetListeStockCentre
2023-05-31 10:27:03.0074 DESKTOP-J2IMOIE  INFO ;::1;/Home/GetListeTypeFicheConsignation
2023-05-31 10:27:03.0264 DESKTOP-J2IMOIE  INFO ;::1;/Home/GetListeStockCentre
2023-05-31 10:27:03.8872 DESKTOP-J2IMOIE  INFO ;::1;/BonChargementCiterne/ModifierBonChargement/1039
2023-05-31 10:27:04.1162 DESKTOP-J2IMOIE  INFO ;::1;/Home/GetListeMouvementBonEnlevement
2023-05-31 10:27:04.1162 DESKTOP-J2IMOIE  INFO ;::1;/Home/GetListeCentre
2023-05-31 10:27:04.1252 DESKTOP-J2IMOIE  INFO ;::1;/Home/GetListeStockCentre
2023-05-31 10:27:04.1252 DESKTOP-J2IMOIE  INFO ;::1;/Home/GetListeTypeFiche
2023-05-31 10:27:04.1252 DESKTOP-J2IMOIE  INFO ;::1;/Home/GetListeConsignationCentre
2023-05-31 10:27:04.1622 DESKTOP-J2IMOIE  INFO ;::1;/Home/GetListeTypeFicheConsignation
2023-05-31 10:27:04.1752 DESKTOP-J2IMOIE  INFO ;::1;/Home/GetListeTypeBon
2023-05-31 10:27:04.1752 DESKTOP-J2IMOIE  INFO ;::1;/Home/GetListeTypeBonsRetour
2023-05-31 10:27:04.1252 DESKTOP-J2IMOIE  INFO ;::1;/Home/GetListeDotationCentre
2023-05-31 10:27:04.2811 DESKTOP-J2IMOIE  INFO ;::1;/Home/GetListeStockCentre
2023-05-31 10:27:04.4141 DESKTOP-J2IMOIE  INFO ;::1;/Home/GetListeTypeSortie
2023-05-31 10:27:08.5891 DESKTOP-J2IMOIE  INFO ;::1;/BonChargementCiterne/ModifierBonChargement
2023-05-31 10:27:08.7031 DESKTOP-J2IMOIE  INFO ;::1;/BonChargementCiterne
2023-05-31 10:27:09.1020 DESKTOP-J2IMOIE  INFO ;::1;/Home/GetListeCentre
2023-05-31 10:27:09.1020 DESKTOP-J2IMOIE  INFO ;::1;/Home/GetListeConsignationCentre
2023-05-31 10:27:09.1300 DESKTOP-J2IMOIE  INFO ;::1;/Home/GetListeDotationCentre
2023-05-31 10:27:09.1420 DESKTOP-J2IMOIE  INFO ;::1;/Home/GetListeStockCentre
2023-05-31 10:27:09.1300 DESKTOP-J2IMOIE  INFO ;::1;/Home/GetListeTypeFiche
2023-05-31 10:27:09.1884 DESKTOP-J2IMOIE  INFO ;::1;/Home/GetListeMouvementBonEnlevement
2023-05-31 10:27:09.2404 DESKTOP-J2IMOIE  INFO ;::1;/Home/GetListeTypeFicheConsignation
2023-05-31 10:27:09.2577 DESKTOP-J2IMOIE  INFO ;::1;/Home/GetListeTypeBon
2023-05-31 10:27:09.2577 DESKTOP-J2IMOIE  INFO ;::1;/Home/GetListeStockCentre
2023-05-31 10:27:09.2577 DESKTOP-J2IMOIE  INFO ;::1;/Home/GetListeTypeBonsRetour
2023-05-31 10:27:09.3397 DESKTOP-J2IMOIE  INFO ;::1;/Home/GetListeTypeSortie
2023-05-31 10:27:12.3289 DESKTOP-J2IMOIE  INFO ;::1;/BonChargementCiterne
2023-05-31 10:27:12.7538 DESKTOP-J2IMOIE  INFO ;::1;/Home/GetListeMouvementBonEnlevement
2023-05-31 10:27:12.7818 DESKTOP-J2IMOIE  INFO ;::1;/Home/GetListeDotationCentre
2023-05-31 10:27:12.7818 DESKTOP-J2IMOIE  INFO ;::1;/Home/GetListeStockCentre
2023-05-31 10:27:12.7818 DESKTOP-J2IMOIE  INFO ;::1;/Home/GetListeTypeFiche
2023-05-31 10:27:12.7818 DESKTOP-J2IMOIE  INFO ;::1;/Home/GetListeCentre
2023-05-31 10:27:12.8078 DESKTOP-J2IMOIE  INFO ;::1;/Home/GetListeTypeFicheConsignation
2023-05-31 10:27:12.8877 DESKTOP-J2IMOIE  INFO ;::1;/Home/GetListeConsignationCentre
2023-05-31 10:27:12.8957 DESKTOP-J2IMOIE  INFO ;::1;/Home/GetListeTypeBon
2023-05-31 10:27:12.9227 DESKTOP-J2IMOIE  INFO ;::1;/Home/GetListeTypeBonsRetour
2023-05-31 10:27:12.9457 DESKTOP-J2IMOIE  INFO ;::1;/Home/GetListeTypeSortie
2023-05-31 10:27:12.9917 DESKTOP-J2IMOIE  INFO ;::1;/Home/GetListeStockCentre
2023-05-31 10:27:16.1760 DESKTOP-J2IMOIE  INFO ;::1;/Authentication/Logout
2023-05-31 10:27:16.2150 DESKTOP-J2IMOIE  INFO ;::1;/Authentication/Login?ReturnUrl=%2F
2023-05-31 10:27:21.7037 DESKTOP-J2IMOIE  INFO ;::1;/Authentication/Login
2023-05-31 10:27:21.7217 DESKTOP-J2IMOIE  INFO ;::1;/
2023-05-31 10:27:22.1036 DESKTOP-J2IMOIE  INFO ;::1;/Home/GetListeCentre
2023-05-31 10:27:22.1745 DESKTOP-J2IMOIE  INFO ;::1;/Home/GetListeMouvementBonEnlevement
2023-05-31 10:27:22.1745 DESKTOP-J2IMOIE  INFO ;::1;/Home/GetListeConsignationCentre
2023-05-31 10:27:22.1885 DESKTOP-J2IMOIE  INFO ;::1;/Home/GetListeStockCentre
2023-05-31 10:27:22.1745 DESKTOP-J2IMOIE  INFO ;::1;/Home/GetListeDotationCentre
2023-05-31 10:27:22.1885 DESKTOP-J2IMOIE  INFO ;::1;/Home/GetListeTypeFiche
2023-05-31 10:27:22.2805 DESKTOP-J2IMOIE  INFO ;::1;/Home/GetListeTypeFicheConsignation
2023-05-31 10:27:22.3025 DESKTOP-J2IMOIE  INFO ;::1;/Home/GetListeTypeSortie
2023-05-31 10:27:22.3025 DESKTOP-J2IMOIE  INFO ;::1;/Home/GetListeTypeBon
2023-05-31 10:27:22.3025 DESKTOP-J2IMOIE  INFO ;::1;/Home/GetListeTypeBonsRetour
2023-05-31 10:27:22.3375 DESKTOP-J2IMOIE  INFO ;::1;/Home/GetListeStockCentre
2023-05-31 10:27:31.8593 DESKTOP-J2IMOIE  INFO ;::1;/BonChargementCiterne/Instance/0
2023-05-31 10:27:32.3541 DESKTOP-J2IMOIE  INFO ;::1;/Home/GetListeMouvementBonEnlevement
2023-05-31 10:27:32.3771 DESKTOP-J2IMOIE  INFO ;::1;/Home/GetListeConsignationCentre
2023-05-31 10:27:32.3771 DESKTOP-J2IMOIE  INFO ;::1;/Home/GetListeCentre
2023-05-31 10:27:32.3771 DESKTOP-J2IMOIE  INFO ;::1;/Home/GetListeDotationCentre
2023-05-31 10:27:32.4361 DESKTOP-J2IMOIE  INFO ;::1;/Home/GetListeTypeBon
2023-05-31 10:27:32.4591 DESKTOP-J2IMOIE  INFO ;::1;/Home/GetListeTypeBonsRetour
2023-05-31 10:27:32.3941 DESKTOP-J2IMOIE  INFO ;::1;/Home/GetListeTypeFiche
2023-05-31 10:27:32.5131 DESKTOP-J2IMOIE  INFO ;::1;/Home/GetListeStockCentre
2023-05-31 10:27:32.5261 DESKTOP-J2IMOIE  INFO ;::1;/Home/GetListeTypeSortie
2023-05-31 10:27:32.5881 DESKTOP-J2IMOIE  INFO ;::1;/Home/GetListeTypeFicheConsignation
2023-05-31 10:27:32.6211 DESKTOP-J2IMOIE  INFO ;::1;/Home/GetListeStockCentre
2023-05-31 10:27:42.3198 DESKTOP-J2IMOIE  INFO ;::1;/BonChargementCiterne/Instance/0
2023-05-31 10:27:42.6827 DESKTOP-J2IMOIE  INFO ;::1;/Home/GetListeMouvementBonEnlevement
2023-05-31 10:27:42.7577 DESKTOP-J2IMOIE  INFO ;::1;/Home/GetListeCentre
2023-05-31 10:27:42.7677 DESKTOP-J2IMOIE  INFO ;::1;/Home/GetListeConsignationCentre
2023-05-31 10:27:42.7677 DESKTOP-J2IMOIE  INFO ;::1;/Home/GetListeStockCentre
2023-05-31 10:27:42.7677 DESKTOP-J2IMOIE  INFO ;::1;/Home/GetListeTypeFiche
2023-05-31 10:27:42.7677 DESKTOP-J2IMOIE  INFO ;::1;/Home/GetListeDotationCentre
2023-05-31 10:27:42.7917 DESKTOP-J2IMOIE  INFO ;::1;/Home/GetListeTypeFicheConsignation
2023-05-31 10:27:42.8817 DESKTOP-J2IMOIE  INFO ;::1;/Home/GetListeTypeBon
2023-05-31 10:27:42.8966 DESKTOP-J2IMOIE  INFO ;::1;/Home/GetListeStockCentre
2023-05-31 10:27:42.9306 DESKTOP-J2IMOIE  INFO ;::1;/Home/GetListeTypeSortie
2023-05-31 10:27:42.9516 DESKTOP-J2IMOIE  INFO ;::1;/Home/GetListeTypeBonsRetour
2023-05-31 10:27:47.5186 DESKTOP-J2IMOIE  INFO ;::1;/Home/GetListeTypeBonsRetour
2023-05-31 10:27:50.3524 DESKTOP-J2IMOIE  INFO ;::1;/BonRetourCiterne/ValiderTypeBon
2023-05-31 10:27:50.4004 DESKTOP-J2IMOIE  INFO ;::1;/BonRetourCiterne/Ajouter?idTypeBonRetour=2
2023-05-31 10:27:53.1077 DESKTOP-J2IMOIE  INFO ;::1;/Home/GetListeMouvementBonEnlevement
2023-05-31 10:27:53.1137 DESKTOP-J2IMOIE  INFO ;::1;/Home/GetListeCentre
2023-05-31 10:27:53.1137 DESKTOP-J2IMOIE  INFO ;::1;/Home/GetListeConsignationCentre
2023-05-31 10:27:53.1287 DESKTOP-J2IMOIE  INFO ;::1;/Home/GetListeStockCentre
2023-05-31 10:27:53.1287 DESKTOP-J2IMOIE  INFO ;::1;/Home/GetListeTypeFiche
2023-05-31 10:27:53.1887 DESKTOP-J2IMOIE  INFO ;::1;/Home/GetListeDotationCentre
2023-05-31 10:27:53.2077 DESKTOP-J2IMOIE  INFO ;::1;/Home/GetListeTypeBon
2023-05-31 10:27:53.2077 DESKTOP-J2IMOIE  INFO ;::1;/Home/GetListeTypeFicheConsignation
2023-05-31 10:27:53.2467 DESKTOP-J2IMOIE  INFO ;::1;/Home/GetListeTypeSortie
2023-05-31 10:27:53.2547 DESKTOP-J2IMOIE  INFO ;::1;/Home/GetListeTypeBonsRetour
2023-05-31 10:27:53.2687 DESKTOP-J2IMOIE  INFO ;::1;/Home/GetListeStockCentre
2023-05-31 10:27:58.0066 DESKTOP-J2IMOIE  INFO ;::1;/Home/GetBonChargement/?ReferenceBonChargement=000004
2023-05-31 10:28:01.6267 DESKTOP-J2IMOIE  INFO ;::1;/Home/GetClient/?Code=1459
2023-05-31 10:28:45.9453 DESKTOP-J2IMOIE  INFO ;::1;/BonRetourCiterne/Ajouter
2023-05-31 10:28:46.4771 DESKTOP-J2IMOIE  INFO ;::1;/Home/GetListeMouvementBonEnlevement
2023-05-31 10:28:46.4981 DESKTOP-J2IMOIE  INFO ;::1;/Home/GetListeConsignationCentre
2023-05-31 10:28:46.5011 DESKTOP-J2IMOIE  INFO ;::1;/Home/GetListeStockCentre
2023-05-31 10:28:46.5011 DESKTOP-J2IMOIE  INFO ;::1;/Home/GetListeCentre
2023-05-31 10:28:46.5211 DESKTOP-J2IMOIE  INFO ;::1;/Home/GetListeDotationCentre
2023-05-31 10:28:46.5601 DESKTOP-J2IMOIE  INFO ;::1;/Home/GetListeTypeFiche
2023-05-31 10:28:46.5931 DESKTOP-J2IMOIE  INFO ;::1;/Home/GetListeTypeFicheConsignation
2023-05-31 10:28:46.6511 DESKTOP-J2IMOIE  INFO ;::1;/Home/GetListeTypeBon
2023-05-31 10:28:46.6731 DESKTOP-J2IMOIE  INFO ;::1;/Home/GetListeTypeSortie
2023-05-31 10:28:46.6731 DESKTOP-J2IMOIE  INFO ;::1;/Home/GetListeStockCentre
2023-05-31 10:28:46.7031 DESKTOP-J2IMOIE  INFO ;::1;/Home/GetListeTypeBonsRetour
2023-05-31 10:28:55.7679 DESKTOP-J2IMOIE  INFO ;::1;/BonRetourCiterne/Ajouter
2023-05-31 10:28:56.2038 DESKTOP-J2IMOIE  INFO ;::1;/Home/GetListeMouvementBonEnlevement
2023-05-31 10:28:56.2458 DESKTOP-J2IMOIE  INFO ;::1;/Home/GetListeCentre
2023-05-31 10:28:56.2548 DESKTOP-J2IMOIE  INFO ;::1;/Home/GetListeStockCentre
2023-05-31 10:28:56.2548 DESKTOP-J2IMOIE  INFO ;::1;/Home/GetListeDotationCentre
2023-05-31 10:28:56.2958 DESKTOP-J2IMOIE  INFO ;::1;/Home/GetListeConsignationCentre
2023-05-31 10:28:56.3218 DESKTOP-J2IMOIE  INFO ;::1;/Home/GetListeTypeFicheConsignation
2023-05-31 10:28:56.3478 DESKTOP-J2IMOIE  INFO ;::1;/Home/GetListeTypeBon
2023-05-31 10:28:56.3638 DESKTOP-J2IMOIE  INFO ;::1;/Home/GetListeTypeFiche
2023-05-31 10:28:56.3918 DESKTOP-J2IMOIE  INFO ;::1;/Home/GetListeTypeBonsRetour
2023-05-31 10:28:56.4458 DESKTOP-J2IMOIE  INFO ;::1;/Home/GetListeTypeSortie
2023-05-31 10:28:56.4698 DESKTOP-J2IMOIE  INFO ;::1;/Home/GetListeStockCentre
2023-05-31 10:29:02.3024 DESKTOP-J2IMOIE  INFO ;::1;/BonRetourCiterne/Ajouter
2023-05-31 10:29:02.6793 DESKTOP-J2IMOIE  INFO ;::1;/BonRetourCiterne
2023-05-31 10:29:03.1292 DESKTOP-J2IMOIE  INFO ;::1;/Home/GetListeMouvementBonEnlevement
2023-05-31 10:29:03.1292 DESKTOP-J2IMOIE  INFO ;::1;/Home/GetListeDotationCentre
2023-05-31 10:29:03.1292 DESKTOP-J2IMOIE  INFO ;::1;/Home/GetListeConsignationCentre
2023-05-31 10:29:03.1292 DESKTOP-J2IMOIE  INFO ;::1;/Home/GetListeCentre
2023-05-31 10:29:03.1622 DESKTOP-J2IMOIE  INFO ;::1;/Home/GetListeStockCentre
2023-05-31 10:29:03.2152 DESKTOP-J2IMOIE  INFO ;::1;/Home/GetListeTypeBonsRetour
2023-05-31 10:29:03.2152 DESKTOP-J2IMOIE  INFO ;::1;/Home/GetListeTypeFicheConsignation
2023-05-31 10:29:03.2202 DESKTOP-J2IMOIE  INFO ;::1;/Home/GetListeTypeFiche
2023-05-31 10:29:03.2202 DESKTOP-J2IMOIE  INFO ;::1;/Home/GetListeTypeSortie
2023-05-31 10:29:03.2202 DESKTOP-J2IMOIE  INFO ;::1;/Home/GetListeTypeBon
2023-05-31 10:29:03.3311 DESKTOP-J2IMOIE  INFO ;::1;/Home/GetListeStockCentre
2023-05-31 10:29:05.4716 DESKTOP-J2IMOIE  INFO ;::1;/BonRetourCiterne/Details/3
2023-05-31 10:29:06.4234 DESKTOP-J2IMOIE  INFO ;::1;/Home/GetListeMouvementBonEnlevement
2023-05-31 10:29:06.4234 DESKTOP-J2IMOIE  INFO ;::1;/Home/GetListeConsignationCentre
2023-05-31 10:29:06.4234 DESKTOP-J2IMOIE  INFO ;::1;/Home/GetListeStockCentre
2023-05-31 10:29:06.4234 DESKTOP-J2IMOIE  INFO ;::1;/Home/GetListeDotationCentre
2023-05-31 10:29:06.4234 DESKTOP-J2IMOIE  INFO ;::1;/Home/GetListeCentre
2023-05-31 10:29:06.4534 DESKTOP-J2IMOIE  INFO ;::1;/Home/GetListeTypeFicheConsignation
2023-05-31 10:29:06.4504 DESKTOP-J2IMOIE  INFO ;::1;/Home/GetListeTypeFiche
2023-05-31 10:29:06.5624 DESKTOP-J2IMOIE  INFO ;::1;/Home/GetListeTypeBon
2023-05-31 10:29:06.5634 DESKTOP-J2IMOIE  INFO ;::1;/Home/GetListeTypeBonsRetour
2023-05-31 10:29:06.5634 DESKTOP-J2IMOIE  INFO ;::1;/Home/GetListeTypeSortie
2023-05-31 10:29:06.5634 DESKTOP-J2IMOIE  INFO ;::1;/Home/GetListeStockCentre
2023-05-31 10:29:43.9855 DESKTOP-J2IMOIE  INFO ;::1;/Statistiques/Index/0
2023-05-31 10:29:47.7226 DESKTOP-J2IMOIE  INFO ;::1;/Home/GetListeMouvementBonEnlevement
2023-05-31 10:29:47.7226 DESKTOP-J2IMOIE  INFO ;::1;/Home/GetListeCentre
2023-05-31 10:29:47.7666 DESKTOP-J2IMOIE  INFO ;::1;/Home/GetListeConsignationCentre
2023-05-31 10:29:47.7666 DESKTOP-J2IMOIE  INFO ;::1;/Home/GetListeDotationCentre
2023-05-31 10:29:47.7666 DESKTOP-J2IMOIE  INFO ;::1;/Home/GetListeStockCentre
2023-05-31 10:29:47.7666 DESKTOP-J2IMOIE  INFO ;::1;/Home/GetListeTypeFiche
2023-05-31 10:29:47.8426 DESKTOP-J2IMOIE  INFO ;::1;/Home/GetListeTypeFicheConsignation
2023-05-31 10:29:47.9066 DESKTOP-J2IMOIE  INFO ;::1;/Home/GetListeTypeBon
2023-05-31 10:29:47.9446 DESKTOP-J2IMOIE  INFO ;::1;/Home/GetListeTypeBonsRetour
2023-05-31 10:29:47.9816 DESKTOP-J2IMOIE  INFO ;::1;/Home/GetListeTypeSortie
2023-05-31 10:29:48.0056 DESKTOP-J2IMOIE  INFO ;::1;/Home/GetListeStockCentre
2023-05-31 10:29:48.8694 DESKTOP-J2IMOIE  INFO ;::1;/Statistiques/Index
2023-05-31 10:29:50.3610 DESKTOP-J2IMOIE  INFO ;::1;/Home/GetListeConsignationCentre
2023-05-31 10:29:50.3610 DESKTOP-J2IMOIE  INFO ;::1;/Home/GetListeDotationCentre
2023-05-31 10:29:50.3610 DESKTOP-J2IMOIE  INFO ;::1;/Home/GetListeStockCentre
2023-05-31 10:29:50.3760 DESKTOP-J2IMOIE  INFO ;::1;/Home/GetListeTypeFiche
2023-05-31 10:29:50.3990 DESKTOP-J2IMOIE  INFO ;::1;/Home/GetListeCentre
2023-05-31 10:29:50.4340 DESKTOP-J2IMOIE  INFO ;::1;/Home/GetListeTypeBon
2023-05-31 10:29:50.4740 DESKTOP-J2IMOIE  INFO ;::1;/Home/GetListeTypeBonsRetour
2023-05-31 10:29:50.4990 DESKTOP-J2IMOIE  INFO ;::1;/Home/GetListeTypeSortie
2023-05-31 10:29:50.4120 DESKTOP-J2IMOIE  INFO ;::1;/Home/GetListeTypeFicheConsignation
2023-05-31 10:29:50.4490 DESKTOP-J2IMOIE  INFO ;::1;/Home/GetListeMouvementBonEnlevement
2023-05-31 10:29:50.5750 DESKTOP-J2IMOIE  INFO ;::1;/Home/GetListeStockCentre
2023-05-31 10:31:09.1794 DESKTOP-J2IMOIE  INFO ;::1;/Authentication/Logout
2023-05-31 10:31:09.2774 DESKTOP-J2IMOIE  INFO ;::1;/Authentication/Login?ReturnUrl=%2F
2023-05-31 10:31:14.5601 DESKTOP-J2IMOIE  INFO ;::1;/Authentication/Login
2023-05-31 10:31:14.6391 DESKTOP-J2IMOIE  INFO ;::1;/
2023-05-31 10:31:15.0560 DESKTOP-J2IMOIE  INFO ;::1;/Home/GetListeMouvementBonEnlevement
2023-05-31 10:31:15.0650 DESKTOP-J2IMOIE  INFO ;::1;/Home/GetListeDotationCentre
2023-05-31 10:31:15.0650 DESKTOP-J2IMOIE  INFO ;::1;/Home/GetListeStockCentre
2023-05-31 10:31:15.0800 DESKTOP-J2IMOIE  INFO ;::1;/Home/GetListeConsignationCentre
2023-05-31 10:31:15.0650 DESKTOP-J2IMOIE  INFO ;::1;/Home/GetListeCentre
2023-05-31 10:31:15.1310 DESKTOP-J2IMOIE  INFO ;::1;/Home/GetListeTypeFiche
2023-05-31 10:31:15.1510 DESKTOP-J2IMOIE  INFO ;::1;/Home/GetListeTypeFicheConsignation
2023-05-31 10:31:15.1640 DESKTOP-J2IMOIE  INFO ;::1;/Home/GetListeTypeBon
2023-05-31 10:31:15.2220 DESKTOP-J2IMOIE  INFO ;::1;/Home/GetListeTypeBonsRetour
2023-05-31 10:31:15.2560 DESKTOP-J2IMOIE  INFO ;::1;/Home/GetListeStockCentre
2023-05-31 10:31:15.2560 DESKTOP-J2IMOIE  INFO ;::1;/Home/GetListeTypeSortie
2023-05-31 10:32:06.1619 DESKTOP-J2IMOIE  INFO ;::1;/Authentication/Logout
2023-05-31 10:32:06.2129 DESKTOP-J2IMOIE  INFO ;::1;/Authentication/Login?ReturnUrl=%2F
2023-05-31 10:32:11.7106 DESKTOP-J2IMOIE  INFO ;::1;/Authentication/Login
2023-05-31 10:32:11.7396 DESKTOP-J2IMOIE  INFO ;::1;/
2023-05-31 10:32:11.9675 DESKTOP-J2IMOIE  INFO ;::1;/Home/GetListeMouvementBonEnlevement
2023-05-31 10:32:12.0255 DESKTOP-J2IMOIE  INFO ;::1;/Home/GetListeCentre
2023-05-31 10:32:12.1465 DESKTOP-J2IMOIE  INFO ;::1;/Home/GetListeConsignationCentre
2023-05-31 10:32:12.2645 DESKTOP-J2IMOIE  INFO ;::1;/Home/GetListeStockCentre
2023-05-31 10:32:12.2685 DESKTOP-J2IMOIE  INFO ;::1;/Home/GetListeTypeBon
2023-05-31 10:32:12.3055 DESKTOP-J2IMOIE  INFO ;::1;/Home/GetListeTypeFicheConsignation
2023-05-31 10:32:12.3295 DESKTOP-J2IMOIE  INFO ;::1;/Home/GetListeTypeFiche
2023-05-31 10:32:12.3295 DESKTOP-J2IMOIE  INFO ;::1;/Home/GetListeDotationCentre
2023-05-31 10:32:12.3295 DESKTOP-J2IMOIE  INFO ;::1;/Home/GetListeTypeBonsRetour
2023-05-31 10:32:12.3914 DESKTOP-J2IMOIE  INFO ;::1;/Home/GetListeTypeSortie
2023-05-31 10:32:12.4514 DESKTOP-J2IMOIE  INFO ;::1;/Home/GetListeStockCentre
2023-05-31 10:32:16.4655 DESKTOP-J2IMOIE  INFO ;::1;/Home/GetListeTypeBon
2023-05-31 10:32:33.3179 DESKTOP-J2IMOIE  INFO ;::1;/BonChargementCiterne/ValiderTypeBon
2023-05-31 10:32:33.3809 DESKTOP-J2IMOIE  INFO ;::1;/BonChargementCiterne/Ajouter?idTypeBon=5
2023-05-31 10:32:33.7978 DESKTOP-J2IMOIE  INFO ;::1;/Home/GetListeMouvementBonEnlevement
2023-05-31 10:32:33.8188 DESKTOP-J2IMOIE  INFO ;::1;/Home/GetListeCentre
2023-05-31 10:32:33.8188 DESKTOP-J2IMOIE  INFO ;::1;/Home/GetListeConsignationCentre
2023-05-31 10:32:33.8188 DESKTOP-J2IMOIE  INFO ;::1;/Home/GetListeDotationCentre
2023-05-31 10:32:33.8288 DESKTOP-J2IMOIE  INFO ;::1;/Home/GetListeTypeFiche
2023-05-31 10:32:33.8288 DESKTOP-J2IMOIE  INFO ;::1;/Home/GetListeStockCentre
2023-05-31 10:32:33.9138 DESKTOP-J2IMOIE  INFO ;::1;/Home/GetListeTypeBon
2023-05-31 10:32:33.9378 DESKTOP-J2IMOIE  INFO ;::1;/Home/GetListeTypeBonsRetour
2023-05-31 10:32:33.9568 DESKTOP-J2IMOIE  INFO ;::1;/Home/GetListeTypeSortie
2023-05-31 10:32:33.9888 DESKTOP-J2IMOIE  INFO ;::1;/Home/GetListeStockCentre
2023-05-31 10:32:33.9888 DESKTOP-J2IMOIE  INFO ;::1;/Home/GetListeTypeFicheConsignation
2023-05-31 10:33:11.2682 DESKTOP-J2IMOIE  INFO ;::1;/Home/GetClient/?Code=1459
2023-05-31 10:33:15.9461 DESKTOP-J2IMOIE  INFO ;::1;/Home/GetDestination?Code=1
2023-05-31 10:33:17.7746 DESKTOP-J2IMOIE  INFO ;::1;/BonChargementCiterne/Ajouter
2023-05-31 10:33:17.8736 DESKTOP-J2IMOIE  INFO ;::1;/BonChargementCiterne
2023-05-31 10:33:18.3825 DESKTOP-J2IMOIE  INFO ;::1;/Home/GetListeMouvementBonEnlevement
2023-05-31 10:33:18.4075 DESKTOP-J2IMOIE  INFO ;::1;/Home/GetListeCentre
2023-05-31 10:33:18.4075 DESKTOP-J2IMOIE  INFO ;::1;/Home/GetListeTypeFiche
2023-05-31 10:33:18.4075 DESKTOP-J2IMOIE  INFO ;::1;/Home/GetListeDotationCentre
2023-05-31 10:33:18.4405 DESKTOP-J2IMOIE  INFO ;::1;/Home/GetListeConsignationCentre
2023-05-31 10:33:18.4865 DESKTOP-J2IMOIE  INFO ;::1;/Home/GetListeTypeBon
2023-05-31 10:33:18.5205 DESKTOP-J2IMOIE  INFO ;::1;/Home/GetListeTypeFicheConsignation
2023-05-31 10:33:18.5474 DESKTOP-J2IMOIE  INFO ;::1;/Home/GetListeTypeBonsRetour
2023-05-31 10:33:18.5864 DESKTOP-J2IMOIE  INFO ;::1;/Home/GetListeTypeSortie
2023-05-31 10:33:18.6084 DESKTOP-J2IMOIE  INFO ;::1;/Home/GetListeStockCentre
2023-05-31 10:33:18.7014 DESKTOP-J2IMOIE  INFO ;::1;/Home/GetListeStockCentre
2023-05-31 10:33:21.3238 DESKTOP-J2IMOIE  INFO ;::1;/Authentication/Logout
2023-05-31 10:33:21.3908 DESKTOP-J2IMOIE  INFO ;::1;/Authentication/Login?ReturnUrl=%2F
2023-05-31 10:33:28.4151 DESKTOP-J2IMOIE  INFO ;::1;/Authentication/Login
2023-05-31 10:33:28.4461 DESKTOP-J2IMOIE  INFO ;::1;/
2023-05-31 10:33:28.8190 DESKTOP-J2IMOIE  INFO ;::1;/Home/GetListeMouvementBonEnlevement
2023-05-31 10:33:28.8850 DESKTOP-J2IMOIE  INFO ;::1;/Home/GetListeCentre
2023-05-31 10:33:28.8850 DESKTOP-J2IMOIE  INFO ;::1;/Home/GetListeDotationCentre
2023-05-31 10:33:28.8970 DESKTOP-J2IMOIE  INFO ;::1;/Home/GetListeConsignationCentre
2023-05-31 10:33:28.9770 DESKTOP-J2IMOIE  INFO ;::1;/Home/GetListeTypeBon
2023-05-31 10:33:28.9850 DESKTOP-J2IMOIE  INFO ;::1;/Home/GetListeTypeFiche
2023-05-31 10:33:28.9850 DESKTOP-J2IMOIE  INFO ;::1;/Home/GetListeTypeSortie
2023-05-31 10:33:28.9850 DESKTOP-J2IMOIE  INFO ;::1;/Home/GetListeTypeFicheConsignation
2023-05-31 10:33:28.9850 DESKTOP-J2IMOIE  INFO ;::1;/Home/GetListeStockCentre
2023-05-31 10:33:29.0040 DESKTOP-J2IMOIE  INFO ;::1;/Home/GetListeTypeBonsRetour
2023-05-31 10:33:29.1219 DESKTOP-J2IMOIE  INFO ;::1;/Home/GetListeStockCentre
2023-05-31 10:33:40.1803 DESKTOP-J2IMOIE  INFO ;::1;/BonChargementCiterne/Instance/0
2023-05-31 10:33:40.6182 DESKTOP-J2IMOIE  INFO ;::1;/Home/GetListeMouvementBonEnlevement
2023-05-31 10:33:40.7292 DESKTOP-J2IMOIE  INFO ;::1;/Home/GetListeCentre
2023-05-31 10:33:40.7352 DESKTOP-J2IMOIE  INFO ;::1;/Home/GetListeConsignationCentre
2023-05-31 10:33:40.7352 DESKTOP-J2IMOIE  INFO ;::1;/Home/GetListeDotationCentre
2023-05-31 10:33:40.7352 DESKTOP-J2IMOIE  INFO ;::1;/Home/GetListeTypeFiche
2023-05-31 10:33:40.7352 DESKTOP-J2IMOIE  INFO ;::1;/Home/GetListeStockCentre
2023-05-31 10:33:40.8442 DESKTOP-J2IMOIE  INFO ;::1;/Home/GetListeTypeBonsRetour
2023-05-31 10:33:40.8852 DESKTOP-J2IMOIE  INFO ;::1;/Home/GetListeTypeFicheConsignation
2023-05-31 10:33:40.9052 DESKTOP-J2IMOIE  INFO ;::1;/Home/GetListeTypeBon
2023-05-31 10:33:41.0041 DESKTOP-J2IMOIE  INFO ;::1;/Home/GetListeTypeSortie
2023-05-31 10:33:41.0381 DESKTOP-J2IMOIE  INFO ;::1;/Home/GetListeStockCentre
2023-05-31 10:33:42.8117 DESKTOP-J2IMOIE  INFO ;::1;/BonChargementCiterne/Details/1040
2023-05-31 10:33:43.0437 DESKTOP-J2IMOIE  INFO ;::1;/Home/GetListeMouvementBonEnlevement
2023-05-31 10:33:43.0597 DESKTOP-J2IMOIE  INFO ;::1;/Home/GetListeCentre
2023-05-31 10:33:43.0627 DESKTOP-J2IMOIE  INFO ;::1;/Home/GetListeDotationCentre
2023-05-31 10:33:43.0627 DESKTOP-J2IMOIE  INFO ;::1;/Home/GetListeConsignationCentre
2023-05-31 10:33:43.0627 DESKTOP-J2IMOIE  INFO ;::1;/Home/GetListeStockCentre
2023-05-31 10:33:43.0926 DESKTOP-J2IMOIE  INFO ;::1;/Home/GetListeTypeFicheConsignation
2023-05-31 10:33:43.1356 DESKTOP-J2IMOIE  INFO ;::1;/Home/GetListeTypeFiche
2023-05-31 10:33:43.1906 DESKTOP-J2IMOIE  INFO ;::1;/Home/GetListeTypeSortie
2023-05-31 10:33:43.1906 DESKTOP-J2IMOIE  INFO ;::1;/Home/GetListeTypeBonsRetour
2023-05-31 10:33:43.2096 DESKTOP-J2IMOIE  INFO ;::1;/Home/GetListeStockCentre
2023-05-31 10:33:43.1906 DESKTOP-J2IMOIE  INFO ;::1;/Home/GetListeTypeBon
2023-05-31 10:33:44.1984 DESKTOP-J2IMOIE  INFO ;::1;/BonChargementCiterne/ModifierBonChargement/1040
2023-05-31 10:33:44.4673 DESKTOP-J2IMOIE  INFO ;::1;/Home/GetListeMouvementBonEnlevement
2023-05-31 10:33:44.4813 DESKTOP-J2IMOIE  INFO ;::1;/Home/GetListeConsignationCentre
2023-05-31 10:33:44.4813 DESKTOP-J2IMOIE  INFO ;::1;/Home/GetListeCentre
2023-05-31 10:33:44.4863 DESKTOP-J2IMOIE  INFO ;::1;/Home/GetListeDotationCentre
2023-05-31 10:33:44.4863 DESKTOP-J2IMOIE  INFO ;::1;/Home/GetListeTypeFiche
2023-05-31 10:33:44.4863 DESKTOP-J2IMOIE  INFO ;::1;/Home/GetListeStockCentre
2023-05-31 10:33:44.5013 DESKTOP-J2IMOIE  INFO ;::1;/Home/GetListeTypeFicheConsignation
2023-05-31 10:33:44.5743 DESKTOP-J2IMOIE  INFO ;::1;/Home/GetListeStockCentre
2023-05-31 10:33:44.5833 DESKTOP-J2IMOIE  INFO ;::1;/Home/GetListeTypeSortie
2023-05-31 10:33:44.5833 DESKTOP-J2IMOIE  INFO ;::1;/Home/GetListeTypeBonsRetour
2023-05-31 10:33:44.6013 DESKTOP-J2IMOIE  INFO ;::1;/Home/GetListeTypeBon
2023-05-31 10:34:57.1912 DESKTOP-J2IMOIE  INFO ;::1;/BonChargementCiterne/ModifierBonChargement
2023-05-31 10:34:57.3132 DESKTOP-J2IMOIE  INFO ;::1;/BonChargementCiterne
2023-05-31 10:34:57.7341 DESKTOP-J2IMOIE  INFO ;::1;/Home/GetListeMouvementBonEnlevement
2023-05-31 10:34:57.7381 DESKTOP-J2IMOIE  INFO ;::1;/Home/GetListeCentre
2023-05-31 10:34:57.7381 DESKTOP-J2IMOIE  INFO ;::1;/Home/GetListeConsignationCentre
2023-05-31 10:34:57.7560 DESKTOP-J2IMOIE  INFO ;::1;/Home/GetListeTypeFiche
2023-05-31 10:34:57.7670 DESKTOP-J2IMOIE  INFO ;::1;/Home/GetListeStockCentre
2023-05-31 10:34:57.8450 DESKTOP-J2IMOIE  INFO ;::1;/Home/GetListeTypeSortie
2023-05-31 10:34:57.8450 DESKTOP-J2IMOIE  INFO ;::1;/Home/GetListeDotationCentre
2023-05-31 10:34:57.8450 DESKTOP-J2IMOIE  INFO ;::1;/Home/GetListeTypeBon
2023-05-31 10:34:57.8760 DESKTOP-J2IMOIE  INFO ;::1;/Home/GetListeTypeFicheConsignation
2023-05-31 10:34:57.9110 DESKTOP-J2IMOIE  INFO ;::1;/Home/GetListeTypeBonsRetour
2023-05-31 10:34:57.9510 DESKTOP-J2IMOIE  INFO ;::1;/Home/GetListeStockCentre
2023-05-31 10:35:06.5070 DESKTOP-J2IMOIE  INFO ;::1;/Statistiques/Index/0
2023-05-31 10:35:06.8519 DESKTOP-J2IMOIE  INFO ;::1;/Home/GetListeCentre
2023-05-31 10:35:06.8689 DESKTOP-J2IMOIE  INFO ;::1;/Home/GetListeMouvementBonEnlevement
2023-05-31 10:35:06.9239 DESKTOP-J2IMOIE  INFO ;::1;/Home/GetListeConsignationCentre
2023-05-31 10:35:06.9409 DESKTOP-J2IMOIE  INFO ;::1;/Home/GetListeDotationCentre
2023-05-31 10:35:06.9559 DESKTOP-J2IMOIE  INFO ;::1;/Home/GetListeStockCentre
2023-05-31 10:35:06.9709 DESKTOP-J2IMOIE  INFO ;::1;/Home/GetListeTypeFiche
2023-05-31 10:35:07.0848 DESKTOP-J2IMOIE  INFO ;::1;/Home/GetListeTypeFicheConsignation
2023-05-31 10:35:07.1438 DESKTOP-J2IMOIE  INFO ;::1;/Home/GetListeTypeSortie
2023-05-31 10:35:07.1638 DESKTOP-J2IMOIE  INFO ;::1;/Home/GetListeTypeBon
2023-05-31 10:35:07.1768 DESKTOP-J2IMOIE  INFO ;::1;/Home/GetListeTypeBonsRetour
2023-05-31 10:35:07.1998 DESKTOP-J2IMOIE  INFO ;::1;/Home/GetListeStockCentre
2023-05-31 10:35:07.7917 DESKTOP-J2IMOIE  INFO ;::1;/Statistiques/Index
2023-05-31 10:35:09.5543 DESKTOP-J2IMOIE  INFO ;::1;/Home/GetListeCentre
2023-05-31 10:35:09.5543 DESKTOP-J2IMOIE  INFO ;::1;/Home/GetListeMouvementBonEnlevement
2023-05-31 10:35:09.5543 DESKTOP-J2IMOIE  INFO ;::1;/Home/GetListeDotationCentre
2023-05-31 10:35:09.5703 DESKTOP-J2IMOIE  INFO ;::1;/Home/GetListeStockCentre
2023-05-31 10:35:09.5703 DESKTOP-J2IMOIE  INFO ;::1;/Home/GetListeTypeFiche
2023-05-31 10:35:09.5543 DESKTOP-J2IMOIE  INFO ;::1;/Home/GetListeConsignationCentre
2023-05-31 10:35:09.6652 DESKTOP-J2IMOIE  INFO ;::1;/Home/GetListeTypeFicheConsignation
2023-05-31 10:35:09.7002 DESKTOP-J2IMOIE  INFO ;::1;/Home/GetListeTypeBon
2023-05-31 10:35:09.7052 DESKTOP-J2IMOIE  INFO ;::1;/Home/GetListeTypeSortie
2023-05-31 10:35:09.7232 DESKTOP-J2IMOIE  INFO ;::1;/Home/GetListeTypeBonsRetour
2023-05-31 10:35:09.7792 DESKTOP-J2IMOIE  INFO ;::1;/Home/GetListeStockCentre
2023-05-31 10:38:27.5744 DESKTOP-J2IMOIE  INFO ;::1;/BonRetourCiterne/Index/0
2023-05-31 10:38:27.9784 DESKTOP-J2IMOIE  INFO ;::1;/Home/GetListeMouvementBonEnlevement
2023-05-31 10:38:28.1233 DESKTOP-J2IMOIE  INFO ;::1;/Home/GetListeCentre
2023-05-31 10:38:28.1353 DESKTOP-J2IMOIE  INFO ;::1;/Home/GetListeConsignationCentre
2023-05-31 10:38:28.1563 DESKTOP-J2IMOIE  INFO ;::1;/Home/GetListeTypeFiche
2023-05-31 10:38:28.1563 DESKTOP-J2IMOIE  INFO ;::1;/Home/GetListeDotationCentre
2023-05-31 10:38:28.1943 DESKTOP-J2IMOIE  INFO ;::1;/Home/GetListeStockCentre
2023-05-31 10:38:28.2423 DESKTOP-J2IMOIE  INFO ;::1;/Home/GetListeTypeFicheConsignation
2023-05-31 10:38:28.3523 DESKTOP-J2IMOIE  INFO ;::1;/Home/GetListeTypeBon
2023-05-31 10:38:28.3943 DESKTOP-J2IMOIE  INFO ;::1;/Home/GetListeTypeSortie
2023-05-31 10:38:28.4282 DESKTOP-J2IMOIE  INFO ;::1;/Home/GetListeStockCentre
2023-05-31 10:38:28.4962 DESKTOP-J2IMOIE  INFO ;::1;/Home/GetListeTypeBonsRetour
2023-05-31 10:38:29.2241 DESKTOP-J2IMOIE  INFO ;::1;/BonRetourCiterne/Details/3
2023-05-31 10:38:29.4690 DESKTOP-J2IMOIE  INFO ;::1;/Home/GetListeMouvementBonEnlevement
2023-05-31 10:38:29.4920 DESKTOP-J2IMOIE  INFO ;::1;/Home/GetListeStockCentre
2023-05-31 10:38:29.4920 DESKTOP-J2IMOIE  INFO ;::1;/Home/GetListeDotationCentre
2023-05-31 10:38:29.5050 DESKTOP-J2IMOIE  INFO ;::1;/Home/GetListeTypeFiche
2023-05-31 10:38:29.5050 DESKTOP-J2IMOIE  INFO ;::1;/Home/GetListeConsignationCentre
2023-05-31 10:38:29.5520 DESKTOP-J2IMOIE  INFO ;::1;/Home/GetListeTypeFicheConsignation
2023-05-31 10:38:29.5900 DESKTOP-J2IMOIE  INFO ;::1;/Home/GetListeCentre
2023-05-31 10:38:29.6520 DESKTOP-J2IMOIE  INFO ;::1;/Home/GetListeTypeBon
2023-05-31 10:38:29.7059 DESKTOP-J2IMOIE  INFO ;::1;/Home/GetListeTypeSortie
2023-05-31 10:38:29.8679 DESKTOP-J2IMOIE  INFO ;::1;/Home/GetListeTypeBonsRetour
2023-05-31 10:38:30.0369 DESKTOP-J2IMOIE  INFO ;::1;/Home/GetListeStockCentre
2023-05-31 10:38:33.0901 DESKTOP-J2IMOIE  INFO ;::1;/BonRetourCiterne/AjouterLivraisonRetourne
2023-05-31 10:38:33.5630 DESKTOP-J2IMOIE  INFO ;::1;/BonRetourCiterne/Index
2023-05-31 10:38:33.7620 DESKTOP-J2IMOIE  INFO ;::1;/Home/GetListeMouvementBonEnlevement
2023-05-31 10:38:33.7670 DESKTOP-J2IMOIE  INFO ;::1;/Home/GetListeCentre
2023-05-31 10:38:33.7670 DESKTOP-J2IMOIE  INFO ;::1;/Home/GetListeConsignationCentre
2023-05-31 10:38:33.7670 DESKTOP-J2IMOIE  INFO ;::1;/Home/GetListeDotationCentre
2023-05-31 10:38:33.8270 DESKTOP-J2IMOIE  INFO ;::1;/Home/GetListeStockCentre
2023-05-31 10:38:33.8410 DESKTOP-J2IMOIE  INFO ;::1;/Home/GetListeTypeFiche
2023-05-31 10:38:33.8570 DESKTOP-J2IMOIE  INFO ;::1;/Home/GetListeTypeBon
2023-05-31 10:38:33.8640 DESKTOP-J2IMOIE  INFO ;::1;/Home/GetListeTypeFicheConsignation
2023-05-31 10:38:33.8640 DESKTOP-J2IMOIE  INFO ;::1;/Home/GetListeTypeBonsRetour
2023-05-31 10:38:33.8950 DESKTOP-J2IMOIE  INFO ;::1;/Home/GetListeTypeSortie
2023-05-31 10:38:33.9469 DESKTOP-J2IMOIE  INFO ;::1;/Home/GetListeStockCentre
2023-05-31 10:38:36.6743 DESKTOP-J2IMOIE  INFO ;::1;/BonRetourCiterne/Details/3
2023-05-31 10:38:37.0142 DESKTOP-J2IMOIE  INFO ;::1;/Home/GetListeMouvementBonEnlevement
2023-05-31 10:38:37.0942 DESKTOP-J2IMOIE  INFO ;::1;/Home/GetListeDotationCentre
2023-05-31 10:38:37.1492 DESKTOP-J2IMOIE  INFO ;::1;/Home/GetListeConsignationCentre
2023-05-31 10:38:37.0592 DESKTOP-J2IMOIE  INFO ;::1;/Home/GetListeCentre
2023-05-31 10:38:37.1822 DESKTOP-J2IMOIE  INFO ;::1;/Home/GetListeStockCentre
2023-05-31 10:38:37.2032 DESKTOP-J2IMOIE  INFO ;::1;/Home/GetListeTypeFiche
2023-05-31 10:38:37.2672 DESKTOP-J2IMOIE  INFO ;::1;/Home/GetListeTypeFicheConsignation
2023-05-31 10:38:37.2672 DESKTOP-J2IMOIE  INFO ;::1;/Home/GetListeTypeBon
2023-05-31 10:38:37.2911 DESKTOP-J2IMOIE  INFO ;::1;/Home/GetListeTypeBonsRetour
2023-05-31 10:38:37.3311 DESKTOP-J2IMOIE  INFO ;::1;/Home/GetListeTypeSortie
2023-05-31 10:38:37.3311 DESKTOP-J2IMOIE  INFO ;::1;/Home/GetListeStockCentre
2023-05-31 10:38:42.5879 DESKTOP-J2IMOIE  INFO ;::1;/Statistiques/Index/0
2023-05-31 10:38:43.7736 DESKTOP-J2IMOIE  INFO ;::1;/Home/GetListeMouvementBonEnlevement
2023-05-31 10:38:43.7736 DESKTOP-J2IMOIE  INFO ;::1;/Home/GetListeCentre
2023-05-31 10:38:43.7826 DESKTOP-J2IMOIE  INFO ;::1;/Home/GetListeConsignationCentre
2023-05-31 10:38:43.8366 DESKTOP-J2IMOIE  INFO ;::1;/Home/GetListeDotationCentre
2023-05-31 10:38:43.8466 DESKTOP-J2IMOIE  INFO ;::1;/Home/GetListeStockCentre
2023-05-31 10:38:43.8746 DESKTOP-J2IMOIE  INFO ;::1;/Home/GetListeStockCentre
2023-05-31 10:38:43.8786 DESKTOP-J2IMOIE  INFO ;::1;/Home/GetListeTypeFiche
2023-05-31 10:38:43.9206 DESKTOP-J2IMOIE  INFO ;::1;/Home/GetListeTypeFicheConsignation
2023-05-31 10:38:43.9386 DESKTOP-J2IMOIE  INFO ;::1;/Home/GetListeTypeBon
2023-05-31 10:38:44.0535 DESKTOP-J2IMOIE  INFO ;::1;/Home/GetListeTypeBonsRetour
2023-05-31 10:38:44.0535 DESKTOP-J2IMOIE  INFO ;::1;/Home/GetListeTypeSortie
2023-05-31 10:38:45.1793 DESKTOP-J2IMOIE  INFO ;::1;/Statistiques/Index
2023-05-31 10:38:46.5690 DESKTOP-J2IMOIE  INFO ;::1;/Home/GetListeDotationCentre
2023-05-31 10:38:46.5690 DESKTOP-J2IMOIE  INFO ;::1;/Home/GetListeConsignationCentre
2023-05-31 10:38:46.5800 DESKTOP-J2IMOIE  INFO ;::1;/Home/GetListeStockCentre
2023-05-31 10:38:46.6009 DESKTOP-J2IMOIE  INFO ;::1;/Home/GetListeMouvementBonEnlevement
2023-05-31 10:38:46.6259 DESKTOP-J2IMOIE  INFO ;::1;/Home/GetListeTypeFiche
2023-05-31 10:38:46.6419 DESKTOP-J2IMOIE  INFO ;::1;/Home/GetListeTypeFicheConsignation
2023-05-31 10:38:46.6679 DESKTOP-J2IMOIE  INFO ;::1;/Home/GetListeTypeBon
2023-05-31 10:38:46.6819 DESKTOP-J2IMOIE  INFO ;::1;/Home/GetListeTypeBonsRetour
2023-05-31 10:38:46.7099 DESKTOP-J2IMOIE  INFO ;::1;/Home/GetListeCentre
2023-05-31 10:38:46.7569 DESKTOP-J2IMOIE  INFO ;::1;/Home/GetListeStockCentre
2023-05-31 10:38:46.7949 DESKTOP-J2IMOIE  INFO ;::1;/Home/GetListeTypeSortie
2023-05-31 10:39:10.4393 DESKTOP-J2IMOIE  INFO ;::1;/Statistiques/VracPrivee/0
2023-05-31 10:39:11.2461 DESKTOP-J2IMOIE  INFO ;::1;/Home/GetListeMouvementBonEnlevement
2023-05-31 10:39:11.2701 DESKTOP-J2IMOIE  INFO ;::1;/Home/GetListeCentre
2023-05-31 10:39:11.2701 DESKTOP-J2IMOIE  INFO ;::1;/Home/GetListeConsignationCentre
2023-05-31 10:39:11.2701 DESKTOP-J2IMOIE  INFO ;::1;/Home/GetListeDotationCentre
2023-05-31 10:39:11.3211 DESKTOP-J2IMOIE  INFO ;::1;/Home/GetListeStockCentre
2023-05-31 10:39:11.3501 DESKTOP-J2IMOIE  INFO ;::1;/Home/GetListeTypeFicheConsignation
2023-05-31 10:39:11.3611 DESKTOP-J2IMOIE  INFO ;::1;/Home/GetListeTypeFiche
2023-05-31 10:39:11.3411 DESKTOP-J2IMOIE  INFO ;::1;/Home/GetListeTypeBon
2023-05-31 10:39:11.4171 DESKTOP-J2IMOIE  INFO ;::1;/Home/GetListeTypeBonsRetour
2023-05-31 10:39:11.4561 DESKTOP-J2IMOIE  INFO ;::1;/Home/GetListeTypeSortie
2023-05-31 10:39:11.4931 DESKTOP-J2IMOIE  INFO ;::1;/Home/GetListeStockCentre
2023-05-31 10:39:15.3971 DESKTOP-J2IMOIE  INFO ;::1;/Statistiques/VracPrivee
2023-05-31 10:39:16.0870 DESKTOP-J2IMOIE  INFO ;::1;/Home/GetListeMouvementBonEnlevement
2023-05-31 10:39:16.0870 DESKTOP-J2IMOIE  INFO ;::1;/Home/GetListeConsignationCentre
2023-05-31 10:39:16.1070 DESKTOP-J2IMOIE  INFO ;::1;/Home/GetListeCentre
2023-05-31 10:39:16.1130 DESKTOP-J2IMOIE  INFO ;::1;/Home/GetListeTypeFiche
2023-05-31 10:39:16.1330 DESKTOP-J2IMOIE  INFO ;::1;/Home/GetListeStockCentre
2023-05-31 10:39:16.1770 DESKTOP-J2IMOIE  INFO ;::1;/Home/GetListeDotationCentre
2023-05-31 10:39:16.1990 DESKTOP-J2IMOIE  INFO ;::1;/Home/GetListeTypeFicheConsignation
2023-05-31 10:39:16.1990 DESKTOP-J2IMOIE  INFO ;::1;/Home/GetListeTypeBonsRetour
2023-05-31 10:39:16.2239 DESKTOP-J2IMOIE  INFO ;::1;/Home/GetListeTypeBon
2023-05-31 10:39:16.2479 DESKTOP-J2IMOIE  INFO ;::1;/Home/GetListeTypeSortie
2023-05-31 10:39:16.2799 DESKTOP-J2IMOIE  INFO ;::1;/Home/GetListeStockCentre
2023-05-31 10:39:37.6655 DESKTOP-J2IMOIE  INFO ;::1;/Statistiques/VracPrivee
2023-05-31 10:39:38.1410 DESKTOP-J2IMOIE  INFO ;::1;/Home/GetListeMouvementBonEnlevement
2023-05-31 10:39:38.1410 DESKTOP-J2IMOIE  INFO ;::1;/Home/GetListeConsignationCentre
2023-05-31 10:39:38.1410 DESKTOP-J2IMOIE  INFO ;::1;/Home/GetListeCentre
2023-05-31 10:39:38.1410 DESKTOP-J2IMOIE  INFO ;::1;/Home/GetListeDotationCentre
2023-05-31 10:39:38.1979 DESKTOP-J2IMOIE  INFO ;::1;/Home/GetListeTypeFiche
2023-05-31 10:39:38.2369 DESKTOP-J2IMOIE  INFO ;::1;/Home/GetListeStockCentre
2023-05-31 10:39:38.2747 DESKTOP-J2IMOIE  INFO ;::1;/Home/GetListeTypeBon
2023-05-31 10:39:38.3045 DESKTOP-J2IMOIE  INFO ;::1;/Home/GetListeTypeBonsRetour
2023-05-31 10:39:38.3045 DESKTOP-J2IMOIE  INFO ;::1;/Home/GetListeTypeFicheConsignation
2023-05-31 10:39:38.3335 DESKTOP-J2IMOIE  INFO ;::1;/Home/GetListeTypeSortie
2023-05-31 10:39:38.4036 DESKTOP-J2IMOIE  INFO ;::1;/Home/GetListeStockCentre
2023-05-31 10:44:29.2487 DESKTOP-J2IMOIE  INFO ;::1;/BonChargementCiterne/Index/0
2023-05-31 10:44:29.7156 DESKTOP-J2IMOIE  INFO ;::1;/Home/GetListeMouvementBonEnlevement
2023-05-31 10:44:29.7356 DESKTOP-J2IMOIE  INFO ;::1;/Home/GetListeConsignationCentre
2023-05-31 10:44:29.7356 DESKTOP-J2IMOIE  INFO ;::1;/Home/GetListeStockCentre
2023-05-31 10:44:29.7356 DESKTOP-J2IMOIE  INFO ;::1;/Home/GetListeCentre
2023-05-31 10:44:29.7895 DESKTOP-J2IMOIE  INFO ;::1;/Home/GetListeTypeFiche
2023-05-31 10:44:29.8055 DESKTOP-J2IMOIE  INFO ;::1;/Home/GetListeDotationCentre
2023-05-31 10:44:29.8135 DESKTOP-J2IMOIE  INFO ;::1;/Home/GetListeTypeFicheConsignation
2023-05-31 10:44:29.9115 DESKTOP-J2IMOIE  INFO ;::1;/Home/GetListeTypeBon
2023-05-31 10:44:29.9445 DESKTOP-J2IMOIE  INFO ;::1;/Home/GetListeTypeBonsRetour
2023-05-31 10:44:29.9835 DESKTOP-J2IMOIE  INFO ;::1;/Home/GetListeStockCentre
2023-05-31 10:44:30.0155 DESKTOP-J2IMOIE  INFO ;::1;/Home/GetListeTypeSortie
2023-05-31 10:44:33.7746 DESKTOP-J2IMOIE  INFO ;::1;/BonChargementCiterne/Instance/0
2023-05-31 10:44:34.1965 DESKTOP-J2IMOIE  INFO ;::1;/Home/GetListeMouvementBonEnlevement
2023-05-31 10:44:34.1965 DESKTOP-J2IMOIE  INFO ;::1;/Home/GetListeCentre
2023-05-31 10:44:34.2485 DESKTOP-J2IMOIE  INFO ;::1;/Home/GetListeDotationCentre
2023-05-31 10:44:34.2565 DESKTOP-J2IMOIE  INFO ;::1;/Home/GetListeStockCentre
2023-05-31 10:44:34.2565 DESKTOP-J2IMOIE  INFO ;::1;/Home/GetListeTypeFiche
2023-05-31 10:44:34.2775 DESKTOP-J2IMOIE  INFO ;::1;/Home/GetListeConsignationCentre
2023-05-31 10:44:34.3585 DESKTOP-J2IMOIE  INFO ;::1;/Home/GetListeTypeFicheConsignation
2023-05-31 10:44:34.3675 DESKTOP-J2IMOIE  INFO ;::1;/Home/GetListeTypeBon
2023-05-31 10:44:34.4115 DESKTOP-J2IMOIE  INFO ;::1;/Home/GetListeTypeSortie
2023-05-31 10:44:34.4385 DESKTOP-J2IMOIE  INFO ;::1;/Home/GetListeTypeBonsRetour
2023-05-31 10:44:34.4794 DESKTOP-J2IMOIE  INFO ;::1;/Home/GetListeStockCentre
2023-05-31 10:44:54.3337 DESKTOP-J2IMOIE  INFO ;::1;/Statistiques/RetourClient/0
2023-05-31 10:44:55.6004 DESKTOP-J2IMOIE  INFO ;::1;/Home/GetListeMouvementBonEnlevement
2023-05-31 10:44:55.6004 DESKTOP-J2IMOIE  INFO ;::1;/Home/GetListeConsignationCentre
2023-05-31 10:44:55.6094 DESKTOP-J2IMOIE  INFO ;::1;/Home/GetListeCentre
2023-05-31 10:44:55.6884 DESKTOP-J2IMOIE  INFO ;::1;/Home/GetListeDotationCentre
2023-05-31 10:44:55.7044 DESKTOP-J2IMOIE  INFO ;::1;/Home/GetListeStockCentre
2023-05-31 10:44:55.7564 DESKTOP-J2IMOIE  INFO ;::1;/Home/GetListeStockCentre
2023-05-31 10:44:55.7884 DESKTOP-J2IMOIE  INFO ;::1;/Home/GetListeTypeFiche
2023-05-31 10:44:55.8204 DESKTOP-J2IMOIE  INFO ;::1;/Home/GetListeTypeFicheConsignation
2023-05-31 10:44:55.8764 DESKTOP-J2IMOIE  INFO ;::1;/Home/GetListeTypeBon
2023-05-31 10:44:55.8924 DESKTOP-J2IMOIE  INFO ;::1;/Home/GetListeTypeSortie
2023-05-31 10:44:55.8924 DESKTOP-J2IMOIE  INFO ;::1;/Home/GetListeTypeBonsRetour
2023-05-31 10:45:01.3391 DESKTOP-J2IMOIE  INFO ;::1;/Statistiques/RetourClient
2023-05-31 10:45:02.0009 DESKTOP-J2IMOIE  INFO ;::1;/Home/GetListeMouvementBonEnlevement
2023-05-31 10:45:02.0009 DESKTOP-J2IMOIE  INFO ;::1;/Home/GetListeCentre
2023-05-31 10:45:02.0009 DESKTOP-J2IMOIE  INFO ;::1;/Home/GetListeConsignationCentre
2023-05-31 10:45:02.0169 DESKTOP-J2IMOIE  INFO ;::1;/Home/GetListeTypeFiche
2023-05-31 10:45:02.0169 DESKTOP-J2IMOIE  INFO ;::1;/Home/GetListeDotationCentre
2023-05-31 10:45:02.0389 DESKTOP-J2IMOIE  INFO ;::1;/Home/GetListeStockCentre
2023-05-31 10:45:02.0899 DESKTOP-J2IMOIE  INFO ;::1;/Home/GetListeTypeFicheConsignation
2023-05-31 10:45:02.1539 DESKTOP-J2IMOIE  INFO ;::1;/Home/GetListeTypeBonsRetour
2023-05-31 10:45:02.2149 DESKTOP-J2IMOIE  INFO ;::1;/Home/GetListeStockCentre
2023-05-31 10:45:02.2189 DESKTOP-J2IMOIE  INFO ;::1;/Home/GetListeTypeBon
2023-05-31 10:45:02.2149 DESKTOP-J2IMOIE  INFO ;::1;/Home/GetListeTypeSortie
2023-05-31 10:45:16.7934 DESKTOP-J2IMOIE  INFO ;::1;/BonRetourCiterne/Index/0
2023-05-31 10:45:17.1843 DESKTOP-J2IMOIE  INFO ;::1;/Home/GetListeMouvementBonEnlevement
2023-05-31 10:45:17.2123 DESKTOP-J2IMOIE  INFO ;::1;/Home/GetListeCentre
2023-05-31 10:45:17.2463 DESKTOP-J2IMOIE  INFO ;::1;/Home/GetListeDotationCentre
2023-05-31 10:45:17.2223 DESKTOP-J2IMOIE  INFO ;::1;/Home/GetListeConsignationCentre
2023-05-31 10:45:17.3483 DESKTOP-J2IMOIE  INFO ;::1;/Home/GetListeStockCentre
2023-05-31 10:45:17.3803 DESKTOP-J2IMOIE  INFO ;::1;/Home/GetListeTypeFicheConsignation
2023-05-31 10:45:17.3973 DESKTOP-J2IMOIE  INFO ;::1;/Home/GetListeTypeFiche
2023-05-31 10:45:17.4193 DESKTOP-J2IMOIE  INFO ;::1;/Home/GetListeTypeBon
2023-05-31 10:45:17.4383 DESKTOP-J2IMOIE  INFO ;::1;/Home/GetListeTypeBonsRetour
2023-05-31 10:45:17.4853 DESKTOP-J2IMOIE  INFO ;::1;/Home/GetListeTypeSortie
2023-05-31 10:45:17.5073 DESKTOP-J2IMOIE  INFO ;::1;/Home/GetListeStockCentre
2023-05-31 10:45:23.7478 DESKTOP-J2IMOIE  INFO ;::1;/BonRetourCiterne/Details/3
2023-05-31 10:45:24.1957 DESKTOP-J2IMOIE  INFO ;::1;/Home/GetListeStockCentre
2023-05-31 10:45:24.2117 DESKTOP-J2IMOIE  INFO ;::1;/Home/GetListeDotationCentre
2023-05-31 10:45:24.2117 DESKTOP-J2IMOIE  INFO ;::1;/Home/GetListeCentre
2023-05-31 10:45:24.2207 DESKTOP-J2IMOIE  INFO ;::1;/Home/GetListeMouvementBonEnlevement
2023-05-31 10:45:24.2377 DESKTOP-J2IMOIE  INFO ;::1;/Home/GetListeTypeFiche
2023-05-31 10:45:24.2377 DESKTOP-J2IMOIE  INFO ;::1;/Home/GetListeConsignationCentre
2023-05-31 10:45:24.3087 DESKTOP-J2IMOIE  INFO ;::1;/Home/GetListeTypeFicheConsignation
2023-05-31 10:45:24.3556 DESKTOP-J2IMOIE  INFO ;::1;/Home/GetListeTypeSortie
2023-05-31 10:45:24.3686 DESKTOP-J2IMOIE  INFO ;::1;/Home/GetListeTypeBon
2023-05-31 10:45:24.3686 DESKTOP-J2IMOIE  INFO ;::1;/Home/GetListeTypeBonsRetour
2023-05-31 10:45:24.4596 DESKTOP-J2IMOIE  INFO ;::1;/Home/GetListeStockCentre
2023-05-31 10:45:45.9535 DESKTOP-J2IMOIE  INFO ;::1;/Authentication/Logout
2023-05-31 10:45:46.0345 DESKTOP-J2IMOIE  INFO ;::1;/Authentication/Login?ReturnUrl=%2F
2023-05-31 10:45:51.4632 DESKTOP-J2IMOIE  INFO ;::1;/Authentication/Login
2023-05-31 10:45:51.4872 DESKTOP-J2IMOIE  INFO ;::1;/
2023-05-31 10:45:51.7222 DESKTOP-J2IMOIE  INFO ;::1;/Home/GetListeMouvementBonEnlevement
2023-05-31 10:45:51.7462 DESKTOP-J2IMOIE  INFO ;::1;/Home/GetListeCentre
2023-05-31 10:45:51.9211 DESKTOP-J2IMOIE  INFO ;::1;/Home/GetListeConsignationCentre
2023-05-31 10:45:52.0031 DESKTOP-J2IMOIE  INFO ;::1;/Home/GetListeTypeFiche
2023-05-31 10:45:52.0031 DESKTOP-J2IMOIE  INFO ;::1;/Home/GetListeDotationCentre
2023-05-31 10:45:52.0031 DESKTOP-J2IMOIE  INFO ;::1;/Home/GetListeStockCentre
2023-05-31 10:45:52.0031 DESKTOP-J2IMOIE  INFO ;::1;/Home/GetListeTypeFicheConsignation
2023-05-31 10:45:52.0371 DESKTOP-J2IMOIE  INFO ;::1;/Home/GetListeTypeBonsRetour
2023-05-31 10:45:52.0591 DESKTOP-J2IMOIE  INFO ;::1;/Home/GetListeTypeBon
2023-05-31 10:45:52.1091 DESKTOP-J2IMOIE  INFO ;::1;/Home/GetListeTypeSortie
2023-05-31 10:45:52.1441 DESKTOP-J2IMOIE  INFO ;::1;/Home/GetListeStockCentre
2023-05-31 10:45:57.5968 DESKTOP-J2IMOIE  INFO ;::1;/BonRetourCiterne/Index/0
2023-05-31 10:45:57.9397 DESKTOP-J2IMOIE  INFO ;::1;/Home/GetListeMouvementBonEnlevement
2023-05-31 10:45:58.0237 DESKTOP-J2IMOIE  INFO ;::1;/Home/GetListeCentre
2023-05-31 10:45:58.0827 DESKTOP-J2IMOIE  INFO ;::1;/Home/GetListeDotationCentre
2023-05-31 10:45:58.0827 DESKTOP-J2IMOIE  INFO ;::1;/Home/GetListeStockCentre
2023-05-31 10:45:58.0827 DESKTOP-J2IMOIE  INFO ;::1;/Home/GetListeTypeFiche
2023-05-31 10:45:58.0827 DESKTOP-J2IMOIE  INFO ;::1;/Home/GetListeConsignationCentre
2023-05-31 10:45:58.1797 DESKTOP-J2IMOIE  INFO ;::1;/Home/GetListeTypeFicheConsignation
2023-05-31 10:45:58.2116 DESKTOP-J2IMOIE  INFO ;::1;/Home/GetListeTypeBon
2023-05-31 10:45:58.2446 DESKTOP-J2IMOIE  INFO ;::1;/Home/GetListeTypeSortie
2023-05-31 10:45:58.2996 DESKTOP-J2IMOIE  INFO ;::1;/Home/GetListeTypeBonsRetour
2023-05-31 10:45:58.2446 DESKTOP-J2IMOIE  INFO ;::1;/Home/GetListeStockCentre
2023-05-31 10:45:59.0304 DESKTOP-J2IMOIE  INFO ;::1;/BonRetourCiterne/Details/3
2023-05-31 10:45:59.2514 DESKTOP-J2IMOIE  INFO ;::1;/Home/GetListeMouvementBonEnlevement
2023-05-31 10:45:59.2674 DESKTOP-J2IMOIE  INFO ;::1;/Home/GetListeDotationCentre
2023-05-31 10:45:59.2674 DESKTOP-J2IMOIE  INFO ;::1;/Home/GetListeConsignationCentre
2023-05-31 10:45:59.2674 DESKTOP-J2IMOIE  INFO ;::1;/Home/GetListeCentre
2023-05-31 10:45:59.2674 DESKTOP-J2IMOIE  INFO ;::1;/Home/GetListeStockCentre
2023-05-31 10:45:59.3084 DESKTOP-J2IMOIE  INFO ;::1;/Home/GetListeTypeFicheConsignation
2023-05-31 10:45:59.3644 DESKTOP-J2IMOIE  INFO ;::1;/Home/GetListeTypeFiche
2023-05-31 10:45:59.3924 DESKTOP-J2IMOIE  INFO ;::1;/Home/GetListeTypeBon
2023-05-31 10:45:59.3924 DESKTOP-J2IMOIE  INFO ;::1;/Home/GetListeTypeBonsRetour
2023-05-31 10:45:59.4344 DESKTOP-J2IMOIE  INFO ;::1;/Home/GetListeTypeSortie
2023-05-31 10:45:59.4414 DESKTOP-J2IMOIE  INFO ;::1;/Home/GetListeStockCentre
2023-05-31 10:46:03.0505 DESKTOP-J2IMOIE  INFO ;::1;/BonRetourCiterne/EnInstance/3
2023-05-31 10:46:03.1795 DESKTOP-J2IMOIE  INFO ;::1;/BonRetourCiterne
2023-05-31 10:46:03.6844 DESKTOP-J2IMOIE  INFO ;::1;/Home/GetListeMouvementBonEnlevement
2023-05-31 10:46:03.7013 DESKTOP-J2IMOIE  INFO ;::1;/Home/GetListeConsignationCentre
2023-05-31 10:46:03.7113 DESKTOP-J2IMOIE  INFO ;::1;/Home/GetListeStockCentre
2023-05-31 10:46:03.7113 DESKTOP-J2IMOIE  INFO ;::1;/Home/GetListeCentre
2023-05-31 10:46:03.7963 DESKTOP-J2IMOIE  INFO ;::1;/Home/GetListeDotationCentre
2023-05-31 10:46:03.8063 DESKTOP-J2IMOIE  INFO ;::1;/Home/GetListeTypeFiche
2023-05-31 10:46:03.8063 DESKTOP-J2IMOIE  INFO ;::1;/Home/GetListeTypeFicheConsignation
2023-05-31 10:46:03.8263 DESKTOP-J2IMOIE  INFO ;::1;/Home/GetListeTypeBon
2023-05-31 10:46:03.8743 DESKTOP-J2IMOIE  INFO ;::1;/Home/GetListeTypeSortie
2023-05-31 10:46:03.8943 DESKTOP-J2IMOIE  INFO ;::1;/Home/GetListeTypeBonsRetour
2023-05-31 10:46:03.9183 DESKTOP-J2IMOIE  INFO ;::1;/Home/GetListeStockCentre
2023-05-31 10:46:05.2980 DESKTOP-J2IMOIE  INFO ;::1;/BonRetourCiterne/Details/3
2023-05-31 10:46:05.5439 DESKTOP-J2IMOIE  INFO ;::1;/Home/GetListeMouvementBonEnlevement
2023-05-31 10:46:05.5549 DESKTOP-J2IMOIE  INFO ;::1;/Home/GetListeConsignationCentre
2023-05-31 10:46:05.5549 DESKTOP-J2IMOIE  INFO ;::1;/Home/GetListeDotationCentre
2023-05-31 10:46:05.5689 DESKTOP-J2IMOIE  INFO ;::1;/Home/GetListeCentre
2023-05-31 10:46:05.6239 DESKTOP-J2IMOIE  INFO ;::1;/Home/GetListeStockCentre
2023-05-31 10:46:05.6469 DESKTOP-J2IMOIE  INFO ;::1;/Home/GetListeTypeFiche
2023-05-31 10:46:05.6879 DESKTOP-J2IMOIE  INFO ;::1;/Home/GetListeTypeFicheConsignation
2023-05-31 10:46:05.7209 DESKTOP-J2IMOIE  INFO ;::1;/Home/GetListeTypeBonsRetour
2023-05-31 10:46:05.7209 DESKTOP-J2IMOIE  INFO ;::1;/Home/GetListeTypeSortie
2023-05-31 10:46:05.7209 DESKTOP-J2IMOIE  INFO ;::1;/Home/GetListeTypeBon
2023-05-31 10:46:05.7749 DESKTOP-J2IMOIE  INFO ;::1;/Home/GetListeStockCentre
2023-05-31 10:46:06.3267 DESKTOP-J2IMOIE  INFO ;::1;/BonRetourCiterne/Modifier/3
2023-05-31 10:46:07.1575 DESKTOP-J2IMOIE  INFO ;::1;/Home/GetListeMouvementBonEnlevement
2023-05-31 10:46:07.3035 DESKTOP-J2IMOIE  INFO ;::1;/Home/GetListeStockCentre
2023-05-31 10:46:07.3415 DESKTOP-J2IMOIE  INFO ;::1;/Home/GetListeConsignationCentre
2023-05-31 10:46:07.3235 DESKTOP-J2IMOIE  INFO ;::1;/Home/GetListeCentre
2023-05-31 10:46:07.3975 DESKTOP-J2IMOIE  INFO ;::1;/Home/GetListeTypeFiche
2023-05-31 10:46:07.4545 DESKTOP-J2IMOIE  INFO ;::1;/Home/GetListeDotationCentre
2023-05-31 10:46:07.5114 DESKTOP-J2IMOIE  INFO ;::1;/Home/GetListeTypeFicheConsignation
2023-05-31 10:46:07.5834 DESKTOP-J2IMOIE  INFO ;::1;/Home/GetListeTypeBon
2023-05-31 10:46:07.6314 DESKTOP-J2IMOIE  INFO ;::1;/Home/GetListeTypeBonsRetour
2023-05-31 10:46:07.6614 DESKTOP-J2IMOIE  INFO ;::1;/Home/GetListeTypeSortie
2023-05-31 10:46:07.7554 DESKTOP-J2IMOIE  INFO ;::1;/Home/GetListeStockCentre
2023-05-31 10:46:15.0107 DESKTOP-J2IMOIE  INFO ;::1;/BonRetourCiterne/Modifier
2023-05-31 10:46:15.1356 DESKTOP-J2IMOIE  INFO ;::1;/BonRetourCiterne
2023-05-31 10:46:15.5555 DESKTOP-J2IMOIE  INFO ;::1;/Home/GetListeMouvementBonEnlevement
2023-05-31 10:46:15.5845 DESKTOP-J2IMOIE  INFO ;::1;/Home/GetListeCentre
2023-05-31 10:46:15.5845 DESKTOP-J2IMOIE  INFO ;::1;/Home/GetListeConsignationCentre
2023-05-31 10:46:15.5995 DESKTOP-J2IMOIE  INFO ;::1;/Home/GetListeDotationCentre
2023-05-31 10:46:15.5845 DESKTOP-J2IMOIE  INFO ;::1;/Home/GetListeStockCentre
2023-05-31 10:46:15.6185 DESKTOP-J2IMOIE  INFO ;::1;/Home/GetListeTypeFiche
2023-05-31 10:46:15.6525 DESKTOP-J2IMOIE  INFO ;::1;/Home/GetListeTypeFicheConsignation
2023-05-31 10:46:15.7225 DESKTOP-J2IMOIE  INFO ;::1;/Home/GetListeTypeBon
2023-05-31 10:46:15.7475 DESKTOP-J2IMOIE  INFO ;::1;/Home/GetListeTypeSortie
2023-05-31 10:46:15.7695 DESKTOP-J2IMOIE  INFO ;::1;/Home/GetListeTypeBonsRetour
2023-05-31 10:46:15.8235 DESKTOP-J2IMOIE  INFO ;::1;/Home/GetListeStockCentre
2023-05-31 10:46:17.2092 DESKTOP-J2IMOIE  INFO ;::1;/BonRetourCiterne/Details/3
2023-05-31 10:46:17.4291 DESKTOP-J2IMOIE  INFO ;::1;/Home/GetListeMouvementBonEnlevement
2023-05-31 10:46:17.4451 DESKTOP-J2IMOIE  INFO ;::1;/Home/GetListeConsignationCentre
2023-05-31 10:46:17.4451 DESKTOP-J2IMOIE  INFO ;::1;/Home/GetListeDotationCentre
2023-05-31 10:46:17.4601 DESKTOP-J2IMOIE  INFO ;::1;/Home/GetListeStockCentre
2023-05-31 10:46:17.4811 DESKTOP-J2IMOIE  INFO ;::1;/Home/GetListeCentre
2023-05-31 10:46:17.4991 DESKTOP-J2IMOIE  INFO ;::1;/Home/GetListeTypeFiche
2023-05-31 10:46:17.5251 DESKTOP-J2IMOIE  INFO ;::1;/Home/GetListeTypeBon
2023-05-31 10:46:17.5421 DESKTOP-J2IMOIE  INFO ;::1;/Home/GetListeTypeFicheConsignation
2023-05-31 10:46:17.5741 DESKTOP-J2IMOIE  INFO ;::1;/Home/GetListeTypeBonsRetour
2023-05-31 10:46:17.6491 DESKTOP-J2IMOIE  INFO ;::1;/Home/GetListeStockCentre
2023-05-31 10:46:17.6570 DESKTOP-J2IMOIE  INFO ;::1;/Home/GetListeTypeSortie
2023-05-31 10:46:19.8705 DESKTOP-J2IMOIE  INFO ;::1;/BonRetourCiterne/AjouterLivraisonRetourne
2023-05-31 10:46:19.9905 DESKTOP-J2IMOIE  INFO ;::1;/BonRetourCiterne/Index
2023-05-31 10:46:20.1725 DESKTOP-J2IMOIE  INFO ;::1;/Home/GetListeMouvementBonEnlevement
2023-05-31 10:46:20.1725 DESKTOP-J2IMOIE  INFO ;::1;/Home/GetListeCentre
2023-05-31 10:46:20.1725 DESKTOP-J2IMOIE  INFO ;::1;/Home/GetListeStockCentre
2023-05-31 10:46:20.1964 DESKTOP-J2IMOIE  INFO ;::1;/Home/GetListeTypeFiche
2023-05-31 10:46:20.2174 DESKTOP-J2IMOIE  INFO ;::1;/Home/GetListeDotationCentre
2023-05-31 10:46:20.2394 DESKTOP-J2IMOIE  INFO ;::1;/Home/GetListeConsignationCentre
2023-05-31 10:46:20.2674 DESKTOP-J2IMOIE  INFO ;::1;/Home/GetListeTypeFicheConsignation
2023-05-31 10:46:20.2674 DESKTOP-J2IMOIE  INFO ;::1;/Home/GetListeTypeBon
2023-05-31 10:46:20.3034 DESKTOP-J2IMOIE  INFO ;::1;/Home/GetListeTypeSortie
2023-05-31 10:46:20.3264 DESKTOP-J2IMOIE  INFO ;::1;/Home/GetListeStockCentre
2023-05-31 10:46:20.3354 DESKTOP-J2IMOIE  INFO ;::1;/Home/GetListeTypeBonsRetour
2023-05-31 10:46:28.3075 DESKTOP-J2IMOIE  INFO ;::1;/Statistiques/Index/0
2023-05-31 10:46:28.6844 DESKTOP-J2IMOIE  INFO ;::1;/Home/GetListeMouvementBonEnlevement
2023-05-31 10:46:28.7924 DESKTOP-J2IMOIE  INFO ;::1;/Home/GetListeTypeFiche
2023-05-31 10:46:28.8034 DESKTOP-J2IMOIE  INFO ;::1;/Home/GetListeCentre
2023-05-31 10:46:28.8034 DESKTOP-J2IMOIE  INFO ;::1;/Home/GetListeStockCentre
2023-05-31 10:46:28.8034 DESKTOP-J2IMOIE  INFO ;::1;/Home/GetListeConsignationCentre
2023-05-31 10:46:28.8424 DESKTOP-J2IMOIE  INFO ;::1;/Home/GetListeDotationCentre
2023-05-31 10:46:28.8604 DESKTOP-J2IMOIE  INFO ;::1;/Home/GetListeTypeFicheConsignation
2023-05-31 10:46:28.8604 DESKTOP-J2IMOIE  INFO ;::1;/Home/GetListeTypeBon
2023-05-31 10:46:28.8924 DESKTOP-J2IMOIE  INFO ;::1;/Home/GetListeTypeBonsRetour
2023-05-31 10:46:29.0634 DESKTOP-J2IMOIE  INFO ;::1;/Home/GetListeStockCentre
2023-05-31 10:46:29.0853 DESKTOP-J2IMOIE  INFO ;::1;/Home/GetListeTypeSortie
2023-05-31 10:46:31.2058 DESKTOP-J2IMOIE  INFO ;::1;/Statistiques/Index
2023-05-31 10:46:32.4985 DESKTOP-J2IMOIE  INFO ;::1;/Home/GetListeMouvementBonEnlevement
2023-05-31 10:46:32.5015 DESKTOP-J2IMOIE  INFO ;::1;/Home/GetListeCentre
2023-05-31 10:46:32.5255 DESKTOP-J2IMOIE  INFO ;::1;/Home/GetListeConsignationCentre
2023-05-31 10:46:32.5425 DESKTOP-J2IMOIE  INFO ;::1;/Home/GetListeStockCentre
2023-05-31 10:46:32.5645 DESKTOP-J2IMOIE  INFO ;::1;/Home/GetListeTypeFiche
2023-05-31 10:46:32.5845 DESKTOP-J2IMOIE  INFO ;::1;/Home/GetListeTypeFicheConsignation
2023-05-31 10:46:32.6305 DESKTOP-J2IMOIE  INFO ;::1;/Home/GetListeTypeBon
2023-05-31 10:46:32.6445 DESKTOP-J2IMOIE  INFO ;::1;/Home/GetListeDotationCentre
2023-05-31 10:46:32.6445 DESKTOP-J2IMOIE  INFO ;::1;/Home/GetListeTypeBonsRetour
2023-05-31 10:46:32.6855 DESKTOP-J2IMOIE  INFO ;::1;/Home/GetListeTypeSortie
2023-05-31 10:46:32.7065 DESKTOP-J2IMOIE  INFO ;::1;/Home/GetListeStockCentre
2023-05-31 10:46:41.8783 DESKTOP-J2IMOIE  INFO ;::1;/Statistiques/VracPrivee/0
2023-05-31 10:46:42.8901 DESKTOP-J2IMOIE  INFO ;::1;/Home/GetListeMouvementBonEnlevement
2023-05-31 10:46:42.8911 DESKTOP-J2IMOIE  INFO ;::1;/Home/GetListeCentre
2023-05-31 10:46:42.8911 DESKTOP-J2IMOIE  INFO ;::1;/Home/GetListeConsignationCentre
2023-05-31 10:46:42.9621 DESKTOP-J2IMOIE  INFO ;::1;/Home/GetListeDotationCentre
2023-05-31 10:46:42.9621 DESKTOP-J2IMOIE  INFO ;::1;/Home/GetListeStockCentre
2023-05-31 10:46:42.9991 DESKTOP-J2IMOIE  INFO ;::1;/Home/GetListeStockCentre
2023-05-31 10:46:43.0770 DESKTOP-J2IMOIE  INFO ;::1;/Home/GetListeTypeFiche
2023-05-31 10:46:43.0940 DESKTOP-J2IMOIE  INFO ;::1;/Home/GetListeTypeFicheConsignation
2023-05-31 10:46:43.1280 DESKTOP-J2IMOIE  INFO ;::1;/Home/GetListeTypeBon
2023-05-31 10:46:43.1620 DESKTOP-J2IMOIE  INFO ;::1;/Home/GetListeTypeBonsRetour
2023-05-31 10:46:43.1620 DESKTOP-J2IMOIE  INFO ;::1;/Home/GetListeTypeSortie
2023-05-31 10:46:47.7909 DESKTOP-J2IMOIE  INFO ;::1;/Statistiques/VracPrivee
2023-05-31 10:46:48.1368 DESKTOP-J2IMOIE  INFO ;::1;/Home/GetListeMouvementBonEnlevement
2023-05-31 10:46:48.2258 DESKTOP-J2IMOIE  INFO ;::1;/Home/GetListeConsignationCentre
2023-05-31 10:46:48.2678 DESKTOP-J2IMOIE  INFO ;::1;/Home/GetListeCentre
2023-05-31 10:46:48.2678 DESKTOP-J2IMOIE  INFO ;::1;/Home/GetListeDotationCentre
2023-05-31 10:46:48.2848 DESKTOP-J2IMOIE  INFO ;::1;/Home/GetListeTypeFiche
2023-05-31 10:46:48.3108 DESKTOP-J2IMOIE  INFO ;::1;/Home/GetListeStockCentre
2023-05-31 10:46:48.3258 DESKTOP-J2IMOIE  INFO ;::1;/Home/GetListeTypeFicheConsignation
2023-05-31 10:46:48.4018 DESKTOP-J2IMOIE  INFO ;::1;/Home/GetListeTypeBon
2023-05-31 10:46:48.4308 DESKTOP-J2IMOIE  INFO ;::1;/Home/GetListeTypeBonsRetour
2023-05-31 10:46:48.4428 DESKTOP-J2IMOIE  INFO ;::1;/Home/GetListeStockCentre
2023-05-31 10:46:48.4578 DESKTOP-J2IMOIE  INFO ;::1;/Home/GetListeTypeSortie
2023-05-31 11:04:19.4810 DESKTOP-J2IMOIE  INFO ;::1;/Authentication/Login?ReturnUrl=%2F
2023-05-31 11:04:33.7736 DESKTOP-J2IMOIE  INFO ;::1;/Authentication/Login
2023-05-31 11:04:35.3822 DESKTOP-J2IMOIE  INFO ;::1;/
2023-05-31 11:04:39.7882 DESKTOP-J2IMOIE  INFO ;::1;/Home/GetListeTypeFiche
2023-05-31 11:04:39.7882 DESKTOP-J2IMOIE  INFO ;::1;/Home/GetListeStockCentre
2023-05-31 11:04:39.7882 DESKTOP-J2IMOIE  INFO ;::1;/Home/GetListeDotationCentre
2023-05-31 11:04:39.7882 DESKTOP-J2IMOIE  INFO ;::1;/Home/GetListeMouvementBonEnlevement
2023-05-31 11:04:39.7882 DESKTOP-J2IMOIE  INFO ;::1;/Home/GetListeCentre
2023-05-31 11:04:39.8942 DESKTOP-J2IMOIE  INFO ;::1;/Home/GetListeConsignationCentre
2023-05-31 11:04:39.9692 DESKTOP-J2IMOIE  INFO ;::1;/Home/GetListeTypeFicheConsignation
2023-05-31 11:04:40.1121 DESKTOP-J2IMOIE  INFO ;::1;/Home/GetListeTypeBonsRetour
2023-05-31 11:04:39.9961 DESKTOP-J2IMOIE  INFO ;::1;/Home/GetListeTypeBon
2023-05-31 11:04:40.0211 DESKTOP-J2IMOIE  INFO ;::1;/Home/GetListeTypeSortie
2023-05-31 11:04:40.2731 DESKTOP-J2IMOIE  INFO ;::1;/Home/GetListeStockCentre
2023-05-31 11:06:49.5675 DESKTOP-J2IMOIE  INFO ;::1;/Statistiques/VracPrivee/0
2023-05-31 11:06:59.7181 DESKTOP-J2IMOIE  INFO ;::1;/Home/GetListeMouvementBonEnlevement
2023-05-31 11:06:59.7301 DESKTOP-J2IMOIE  INFO ;::1;/Home/GetListeCentre
2023-05-31 11:06:59.7301 DESKTOP-J2IMOIE  INFO ;::1;/Home/GetListeConsignationCentre
2023-05-31 11:06:59.7481 DESKTOP-J2IMOIE  INFO ;::1;/Home/GetListeDotationCentre
2023-05-31 11:06:59.8181 DESKTOP-J2IMOIE  INFO ;::1;/Home/GetListeStockCentre
2023-05-31 11:06:59.8571 DESKTOP-J2IMOIE  INFO ;::1;/Home/GetListeTypeFiche
2023-05-31 11:06:59.9311 DESKTOP-J2IMOIE  INFO ;::1;/Home/GetListeTypeBon
2023-05-31 11:07:00.2090 DESKTOP-J2IMOIE  INFO ;::1;/Home/GetListeTypeBonsRetour
2023-05-31 11:07:00.3230 DESKTOP-J2IMOIE  INFO ;::1;/Home/GetListeTypeSortie
2023-05-31 11:07:00.3460 DESKTOP-J2IMOIE  INFO ;::1;/Home/GetListeTypeFicheConsignation
2023-05-31 11:07:00.3870 DESKTOP-J2IMOIE  INFO ;::1;/Home/GetListeStockCentre
2023-05-31 11:07:04.1701 DESKTOP-J2IMOIE  INFO ;::1;/Statistiques/VracPrivee
2023-05-31 11:07:05.0878 DESKTOP-J2IMOIE  INFO ;::1;/Home/GetListeMouvementBonEnlevement
2023-05-31 11:07:05.0978 DESKTOP-J2IMOIE  INFO ;::1;/Home/GetListeCentre
2023-05-31 11:07:05.1178 DESKTOP-J2IMOIE  INFO ;::1;/Home/GetListeDotationCentre
2023-05-31 11:07:05.1178 DESKTOP-J2IMOIE  INFO ;::1;/Home/GetListeStockCentre
2023-05-31 11:07:05.1518 DESKTOP-J2IMOIE  INFO ;::1;/Home/GetListeTypeFiche
2023-05-31 11:07:05.1688 DESKTOP-J2IMOIE  INFO ;::1;/Home/GetListeConsignationCentre
2023-05-31 11:07:05.2128 DESKTOP-J2IMOIE  INFO ;::1;/Home/GetListeTypeFicheConsignation
2023-05-31 11:07:05.2518 DESKTOP-J2IMOIE  INFO ;::1;/Home/GetListeTypeBon
2023-05-31 11:07:05.3278 DESKTOP-J2IMOIE  INFO ;::1;/Home/GetListeTypeSortie
2023-05-31 11:07:05.3308 DESKTOP-J2IMOIE  INFO ;::1;/Home/GetListeTypeBonsRetour
2023-05-31 11:07:05.3868 DESKTOP-J2IMOIE  INFO ;::1;/Home/GetListeStockCentre
2023-05-31 11:07:19.7744 DESKTOP-J2IMOIE  INFO ;::1;/Authentication/Logout
2023-05-31 11:07:19.8344 DESKTOP-J2IMOIE  INFO ;::1;/Authentication/Login?ReturnUrl=%2F
2023-05-31 11:07:27.3416 DESKTOP-J2IMOIE  INFO ;::1;/Authentication/Login
2023-05-31 11:07:27.3646 DESKTOP-J2IMOIE  INFO ;::1;/
2023-05-31 11:07:27.6525 DESKTOP-J2IMOIE  INFO ;::1;/Home/GetListeMouvementBonEnlevement
2023-05-31 11:07:27.7355 DESKTOP-J2IMOIE  INFO ;::1;/Home/GetListeCentre
2023-05-31 11:07:27.7355 DESKTOP-J2IMOIE  INFO ;::1;/Home/GetListeConsignationCentre
2023-05-31 11:07:27.8035 DESKTOP-J2IMOIE  INFO ;::1;/Home/GetListeDotationCentre
2023-05-31 11:07:27.8295 DESKTOP-J2IMOIE  INFO ;::1;/Home/GetListeTypeFiche
2023-05-31 11:07:27.8295 DESKTOP-J2IMOIE  INFO ;::1;/Home/GetListeStockCentre
2023-05-31 11:07:27.9354 DESKTOP-J2IMOIE  INFO ;::1;/Home/GetListeTypeBon
2023-05-31 11:07:27.9534 DESKTOP-J2IMOIE  INFO ;::1;/Home/GetListeTypeFicheConsignation
2023-05-31 11:07:27.9534 DESKTOP-J2IMOIE  INFO ;::1;/Home/GetListeTypeBonsRetour
2023-05-31 11:07:27.9844 DESKTOP-J2IMOIE  INFO ;::1;/Home/GetListeStockCentre
2023-05-31 11:07:27.9844 DESKTOP-J2IMOIE  INFO ;::1;/Home/GetListeTypeSortie
2023-05-31 11:07:29.8560 DESKTOP-J2IMOIE  INFO ;::1;/BonChargementCiterne/Index/0
2023-05-31 11:07:34.0370 DESKTOP-J2IMOIE  INFO ;::1;/Home/GetListeMouvementBonEnlevement
2023-05-31 11:07:34.0540 DESKTOP-J2IMOIE  INFO ;::1;/Home/GetListeConsignationCentre
2023-05-31 11:07:34.0630 DESKTOP-J2IMOIE  INFO ;::1;/Home/GetListeCentre
2023-05-31 11:07:34.0630 DESKTOP-J2IMOIE  INFO ;::1;/Home/GetListeDotationCentre
2023-05-31 11:07:34.0630 DESKTOP-J2IMOIE  INFO ;::1;/Home/GetListeStockCentre
2023-05-31 11:07:34.0630 DESKTOP-J2IMOIE  INFO ;::1;/Home/GetListeTypeFiche
2023-05-31 11:07:34.1770 DESKTOP-J2IMOIE  INFO ;::1;/Home/GetListeTypeFicheConsignation
2023-05-31 11:07:34.2020 DESKTOP-J2IMOIE  INFO ;::1;/Home/GetListeTypeBon
2023-05-31 11:07:34.2170 DESKTOP-J2IMOIE  INFO ;::1;/Home/GetListeTypeBonsRetour
2023-05-31 11:07:34.2410 DESKTOP-J2IMOIE  INFO ;::1;/Home/GetListeStockCentre
2023-05-31 11:07:34.3689 DESKTOP-J2IMOIE  INFO ;::1;/Home/GetListeTypeSortie
2023-05-31 11:07:38.4080 DESKTOP-J2IMOIE  INFO ;::1;/BonRetourCiterne/Index/0
2023-05-31 11:07:42.1301 DESKTOP-J2IMOIE  INFO ;::1;/Home/GetListeDotationCentre
2023-05-31 11:07:42.1301 DESKTOP-J2IMOIE  INFO ;::1;/Home/GetListeMouvementBonEnlevement
2023-05-31 11:07:42.1541 DESKTOP-J2IMOIE  INFO ;::1;/Home/GetListeStockCentre
2023-05-31 11:07:42.1571 DESKTOP-J2IMOIE  INFO ;::1;/Home/GetListeCentre
2023-05-31 11:07:42.1571 DESKTOP-J2IMOIE  INFO ;::1;/Home/GetListeConsignationCentre
2023-05-31 11:07:42.1571 DESKTOP-J2IMOIE  INFO ;::1;/Home/GetListeTypeFiche
2023-05-31 11:07:42.2641 DESKTOP-J2IMOIE  INFO ;::1;/Home/GetListeTypeBon
2023-05-31 11:07:42.2821 DESKTOP-J2IMOIE  INFO ;::1;/Home/GetListeTypeSortie
2023-05-31 11:07:42.2821 DESKTOP-J2IMOIE  INFO ;::1;/Home/GetListeTypeFicheConsignation
2023-05-31 11:07:42.2821 DESKTOP-J2IMOIE  INFO ;::1;/Home/GetListeTypeBonsRetour
2023-05-31 11:07:42.3610 DESKTOP-J2IMOIE  INFO ;::1;/Home/GetListeStockCentre
2023-05-31 11:07:43.7017 DESKTOP-J2IMOIE  INFO ;::1;/BonRetourCiterne/Details/3
2023-05-31 11:07:44.2756 DESKTOP-J2IMOIE  INFO ;::1;/Home/GetListeMouvementBonEnlevement
2023-05-31 11:07:44.2826 DESKTOP-J2IMOIE  INFO ;::1;/Home/GetListeConsignationCentre
2023-05-31 11:07:44.2826 DESKTOP-J2IMOIE  INFO ;::1;/Home/GetListeCentre
2023-05-31 11:07:44.3006 DESKTOP-J2IMOIE  INFO ;::1;/Home/GetListeDotationCentre
2023-05-31 11:07:44.3006 DESKTOP-J2IMOIE  INFO ;::1;/Home/GetListeStockCentre
2023-05-31 11:07:44.3126 DESKTOP-J2IMOIE  INFO ;::1;/Home/GetListeTypeFiche
2023-05-31 11:07:44.3126 DESKTOP-J2IMOIE  INFO ;::1;/Home/GetListeTypeFicheConsignation
2023-05-31 11:07:44.3126 DESKTOP-J2IMOIE  INFO ;::1;/Home/GetListeTypeBon
2023-05-31 11:07:44.3806 DESKTOP-J2IMOIE  INFO ;::1;/Home/GetListeTypeBonsRetour
2023-05-31 11:07:44.4036 DESKTOP-J2IMOIE  INFO ;::1;/Home/GetListeTypeSortie
2023-05-31 11:07:44.4395 DESKTOP-J2IMOIE  INFO ;::1;/Home/GetListeStockCentre
2023-05-31 11:07:51.9468 DESKTOP-J2IMOIE  INFO ;::1;/BonRetourCiterne/AjouterLivraisonRetourne
2023-05-31 11:07:52.2617 DESKTOP-J2IMOIE  INFO ;::1;/BonRetourCiterne/Index
2023-05-31 11:07:52.7006 DESKTOP-J2IMOIE  INFO ;::1;/Home/GetListeCentre
2023-05-31 11:07:52.7036 DESKTOP-J2IMOIE  INFO ;::1;/Home/GetListeConsignationCentre
2023-05-31 11:07:52.7206 DESKTOP-J2IMOIE  INFO ;::1;/Home/GetListeDotationCentre
2023-05-31 11:07:52.7206 DESKTOP-J2IMOIE  INFO ;::1;/Home/GetListeMouvementBonEnlevement
2023-05-31 11:07:52.7636 DESKTOP-J2IMOIE  INFO ;::1;/Home/GetListeTypeFiche
2023-05-31 11:07:52.7956 DESKTOP-J2IMOIE  INFO ;::1;/Home/GetListeTypeBon
2023-05-31 11:07:52.7956 DESKTOP-J2IMOIE  INFO ;::1;/Home/GetListeStockCentre
2023-05-31 11:07:52.8396 DESKTOP-J2IMOIE  INFO ;::1;/Home/GetListeTypeFicheConsignation
2023-05-31 11:07:52.8995 DESKTOP-J2IMOIE  INFO ;::1;/Home/GetListeTypeBonsRetour
2023-05-31 11:07:52.9575 DESKTOP-J2IMOIE  INFO ;::1;/Home/GetListeTypeSortie
2023-05-31 11:07:52.9905 DESKTOP-J2IMOIE  INFO ;::1;/Home/GetListeStockCentre
2023-05-31 11:08:02.4563 DESKTOP-J2IMOIE  INFO ;::1;/Statistiques/VracPrivee/0
2023-05-31 11:08:02.8902 DESKTOP-J2IMOIE  INFO ;::1;/Home/GetListeMouvementBonEnlevement
2023-05-31 11:08:02.9352 DESKTOP-J2IMOIE  INFO ;::1;/Home/GetListeCentre
2023-05-31 11:08:02.9382 DESKTOP-J2IMOIE  INFO ;::1;/Home/GetListeDotationCentre
2023-05-31 11:08:02.9382 DESKTOP-J2IMOIE  INFO ;::1;/Home/GetListeConsignationCentre
2023-05-31 11:08:02.9382 DESKTOP-J2IMOIE  INFO ;::1;/Home/GetListeTypeFiche
2023-05-31 11:08:03.0461 DESKTOP-J2IMOIE  INFO ;::1;/Home/GetListeTypeBon
2023-05-31 11:08:02.9942 DESKTOP-J2IMOIE  INFO ;::1;/Home/GetListeTypeFicheConsignation
2023-05-31 11:08:02.9382 DESKTOP-J2IMOIE  INFO ;::1;/Home/GetListeStockCentre
2023-05-31 11:08:03.0861 DESKTOP-J2IMOIE  INFO ;::1;/Home/GetListeTypeBonsRetour
2023-05-31 11:08:03.1201 DESKTOP-J2IMOIE  INFO ;::1;/Home/GetListeTypeSortie
2023-05-31 11:08:03.2371 DESKTOP-J2IMOIE  INFO ;::1;/Home/GetListeStockCentre
2023-05-31 11:08:08.9358 DESKTOP-J2IMOIE  INFO ;::1;/Statistiques/VracPrivee
2023-05-31 11:08:09.3836 DESKTOP-J2IMOIE  INFO ;::1;/Home/GetListeMouvementBonEnlevement
2023-05-31 11:08:09.4266 DESKTOP-J2IMOIE  INFO ;::1;/Home/GetListeDotationCentre
2023-05-31 11:08:09.4266 DESKTOP-J2IMOIE  INFO ;::1;/Home/GetListeTypeFiche
2023-05-31 11:08:09.4266 DESKTOP-J2IMOIE  INFO ;::1;/Home/GetListeStockCentre
2023-05-31 11:08:09.4266 DESKTOP-J2IMOIE  INFO ;::1;/Home/GetListeConsignationCentre
2023-05-31 11:08:09.4266 DESKTOP-J2IMOIE  INFO ;::1;/Home/GetListeCentre
2023-05-31 11:08:09.4706 DESKTOP-J2IMOIE  INFO ;::1;/Home/GetListeTypeFicheConsignation
2023-05-31 11:08:09.4706 DESKTOP-J2IMOIE  INFO ;::1;/Home/GetListeTypeBon
2023-05-31 11:08:09.5396 DESKTOP-J2IMOIE  INFO ;::1;/Home/GetListeTypeBonsRetour
2023-05-31 11:08:09.5646 DESKTOP-J2IMOIE  INFO ;::1;/Home/GetListeTypeSortie
2023-05-31 11:08:09.5786 DESKTOP-J2IMOIE  INFO ;::1;/Home/GetListeStockCentre
2023-05-31 11:08:26.6216 DESKTOP-J2IMOIE  INFO ;::1;/Statistiques/VracPrivee
2023-05-31 11:08:27.0725 DESKTOP-J2IMOIE  INFO ;::1;/Home/GetListeConsignationCentre
2023-05-31 11:08:27.0795 DESKTOP-J2IMOIE  INFO ;::1;/Home/GetListeTypeFiche
2023-05-31 11:08:27.0795 DESKTOP-J2IMOIE  INFO ;::1;/Home/GetListeStockCentre
2023-05-31 11:08:27.0795 DESKTOP-J2IMOIE  INFO ;::1;/Home/GetListeDotationCentre
2023-05-31 11:08:27.1025 DESKTOP-J2IMOIE  INFO ;::1;/Home/GetListeMouvementBonEnlevement
2023-05-31 11:08:27.1195 DESKTOP-J2IMOIE  INFO ;::1;/Home/GetListeCentre
2023-05-31 11:08:27.1394 DESKTOP-J2IMOIE  INFO ;::1;/Home/GetListeTypeBon
2023-05-31 11:08:27.1614 DESKTOP-J2IMOIE  INFO ;::1;/Home/GetListeTypeFicheConsignation
2023-05-31 11:08:27.1814 DESKTOP-J2IMOIE  INFO ;::1;/Home/GetListeTypeBonsRetour
2023-05-31 11:08:27.2074 DESKTOP-J2IMOIE  INFO ;::1;/Home/GetListeTypeSortie
2023-05-31 11:08:27.2914 DESKTOP-J2IMOIE  INFO ;::1;/Home/GetListeStockCentre
2023-05-31 13:40:10.9611 DESKTOP-J2IMOIE  INFO ;::1;/Authentication/Login?ReturnUrl=%2F
2023-05-31 13:40:28.7127 DESKTOP-J2IMOIE  INFO ;::1;/Authentication/Login
2023-05-31 13:40:30.1205 DESKTOP-J2IMOIE  INFO ;::1;/
2023-05-31 13:40:33.9778 DESKTOP-J2IMOIE  INFO ;::1;/Home/GetListeMouvementBonEnlevement
2023-05-31 13:40:33.9778 DESKTOP-J2IMOIE  INFO ;::1;/Home/GetListeCentre
2023-05-31 13:40:34.0258 DESKTOP-J2IMOIE  INFO ;::1;/Home/GetListeDotationCentre
2023-05-31 13:40:34.0258 DESKTOP-J2IMOIE  INFO ;::1;/Home/GetListeStockCentre
2023-05-31 13:40:34.0576 DESKTOP-J2IMOIE  INFO ;::1;/Home/GetListeConsignationCentre
2023-05-31 13:40:34.0883 DESKTOP-J2IMOIE  INFO ;::1;/Home/GetListeTypeFiche
2023-05-31 13:40:34.1708 DESKTOP-J2IMOIE  INFO ;::1;/Home/GetListeTypeFicheConsignation
2023-05-31 13:40:34.3438 DESKTOP-J2IMOIE  INFO ;::1;/Home/GetListeTypeBon
2023-05-31 13:40:34.4830 DESKTOP-J2IMOIE  INFO ;::1;/Home/GetListeTypeBonsRetour
2023-05-31 13:40:34.5031 DESKTOP-J2IMOIE  INFO ;::1;/Home/GetListeStockCentre
2023-05-31 13:40:34.5031 DESKTOP-J2IMOIE  INFO ;::1;/Home/GetListeTypeSortie
2023-05-31 13:40:39.2055 DESKTOP-J2IMOIE  INFO ;::1;/FicheVenteBouteille/Index/0
2023-05-31 13:40:44.6352 DESKTOP-J2IMOIE  INFO ;::1;/Home/GetListeMouvementBonEnlevement
2023-05-31 13:40:44.6512 DESKTOP-J2IMOIE  INFO ;::1;/Home/GetListeCentre
2023-05-31 13:40:44.6592 DESKTOP-J2IMOIE  INFO ;::1;/Home/GetListeStockCentre
2023-05-31 13:40:44.6592 DESKTOP-J2IMOIE  INFO ;::1;/Home/GetListeDotationCentre
2023-05-31 13:40:44.6752 DESKTOP-J2IMOIE  INFO ;::1;/Home/GetListeConsignationCentre
2023-05-31 13:40:44.6992 DESKTOP-J2IMOIE  INFO ;::1;/Home/GetListeTypeFiche
2023-05-31 13:40:44.7554 DESKTOP-J2IMOIE  INFO ;::1;/Home/GetListeTypeFicheConsignation
2023-05-31 13:40:44.7842 DESKTOP-J2IMOIE  INFO ;::1;/Home/GetListeTypeBonsRetour
2023-05-31 13:40:44.8162 DESKTOP-J2IMOIE  INFO ;::1;/Home/GetListeTypeBon
2023-05-31 13:40:44.9807 DESKTOP-J2IMOIE  INFO ;::1;/Home/GetListeStockCentre
2023-05-31 13:40:44.8162 DESKTOP-J2IMOIE  INFO ;::1;/Home/GetListeTypeSortie
2023-05-31 13:40:47.7961 DESKTOP-J2IMOIE  INFO ;::1;/FicheVenteBouteille/Details/1026
2023-05-31 13:40:48.5288 DESKTOP-J2IMOIE  INFO ;::1;/Home/GetListeMouvementBonEnlevement
2023-05-31 13:40:48.5368 DESKTOP-J2IMOIE  INFO ;::1;/Home/GetListeDotationCentre
2023-05-31 13:40:48.5368 DESKTOP-J2IMOIE  INFO ;::1;/Home/GetListeConsignationCentre
2023-05-31 13:40:48.5368 DESKTOP-J2IMOIE  INFO ;::1;/Home/GetListeCentre
2023-05-31 13:40:48.5368 DESKTOP-J2IMOIE  INFO ;::1;/Home/GetListeTypeFiche
2023-05-31 13:40:48.6328 DESKTOP-J2IMOIE  INFO ;::1;/Home/GetListeTypeFicheConsignation
2023-05-31 13:40:48.6008 DESKTOP-J2IMOIE  INFO ;::1;/Home/GetListeStockCentre
2023-05-31 13:40:48.6648 DESKTOP-J2IMOIE  INFO ;::1;/Home/GetListeTypeSortie
2023-05-31 13:40:48.6728 DESKTOP-J2IMOIE  INFO ;::1;/Home/GetListeTypeBon
2023-05-31 13:40:48.7128 DESKTOP-J2IMOIE  INFO ;::1;/Home/GetListeTypeBonsRetour
2023-05-31 13:40:48.7608 DESKTOP-J2IMOIE  INFO ;::1;/Home/GetListeStockCentre
2023-05-31 13:40:50.3458 DESKTOP-J2IMOIE  INFO ;::1;/FicheVenteBouteille/Imprimer/1026
